[Note]
Dear Customer :
Beae version : V2_P1
Flavor : 
FM_RADIO_I2S_PATH = TRUE
FM_RADIO_CHIP = MT6261FM
FM_RADIO_HW_SEARCH = TRUE
VOICE_CHANGER_SUPPORT = TRUE

Thank you !!


#==============================================================================
# CR list from MediaTek voluntary
# --------------------------
# The release maybe include
#   1. Critical patch
#   2. Build environment related enhancement
#   3. The dependency patch of item 1 and item 2
#==============================================================================
Patch Type:  MTK Voluntary
CR ID:       N/A
Severity:    N/A
eService ID: N/A
Description: N/A
Associated Files: 
  make\PYCINDA61D_11C_GPRS.mak



