#include "MMI_features.h"
#include "MMIDataType.h"
#include "CustResDef.h"
#include "CustDataProts.h"

<?xml version="1.0" encoding="UTF-8"?>
<APP id="APP_IMAGEFLOW">

#ifdef __MMI_MEDIA_PLAYER_IMAGE_FLOW_SUPPORT__
    <IMAGE id="VAPP_IMG_IMAGE_FLOW_BG">CUST_IMG_PATH"\\\\MainLCD\\\\VUI\\\\ImageFlow\\\\MP_COVER_BG.png"</IMAGE>
    <IMAGE id="VAPP_IMG_IMAGE_FLOW_DEF_COVER">CUST_IMG_PATH"\\\\MainLCD\\\\VUI\\\\ImageFlow\\\\MP_COVER_DEFAULT.gif"</IMAGE>
    <IMAGE id="VAPP_IMG_IMAGE_FLOW_HL_IMG">CUST_IMG_PATH"\\\\MainLCD\\\\Multimedia\\\\HIGHLIGHT.png"</IMAGE>
    <IMAGE id="VAPP_IMG_COVER_FLOW_PLAY">CUST_IMG_PATH"\\\\MainLCD\\\\Multimedia\\\\play.png"</IMAGE>
    <IMAGE id="VAPP_IMG_COVER_FLOW_BACK">CUST_IMG_PATH"\\\\MainLCD\\\\VUI\\\\ImageFlow\\\\MP_COVER_BACK.png"</IMAGE> 
#endif /* __MMI_MEDIA_PLAYER_IMAGE_FLOW_SUPPORT__ */

</APP>

