/*****************************************************************************
*  Copyright Statement:
*  --------------------
*  This software is protected by Copyright and the information contained
*  herein is confidential. The software may not be copied and the information
*  contained herein may not be used or disclosed except with the written
*  permission of MediaTek Inc. (C) 2007
*
*  BY OPENING THIS FILE, BUYER HEREBY UNEQUIVOCALLY ACKNOWLEDGES AND AGREES
*  THAT THE SOFTWARE/FIRMWARE AND ITS DOCUMENTATIONS ("MEDIATEK SOFTWARE")
*  RECEIVED FROM MEDIATEK AND/OR ITS REPRESENTATIVES ARE PROVIDED TO BUYER ON
*  AN "AS-IS" BASIS ONLY. MEDIATEK EXPRESSLY DISCLAIMS ANY AND ALL WARRANTIES,
*  EXPRESS OR IMPLIED, INCLUDING BUT NOT LIMITED TO THE IMPLIED WARRANTIES OF
*  MERCHANTABILITY, FITNESS FOR A PARTICULAR PURPOSE OR NONINFRINGEMENT.
*  NEITHER DOES MEDIATEK PROVIDE ANY WARRANTY WHATSOEVER WITH RESPECT TO THE
*  SOFTWARE OF ANY THIRD PARTY WHICH MAY BE USED BY, INCORPORATED IN, OR
*  SUPPLIED WITH THE MEDIATEK SOFTWARE, AND BUYER AGREES TO LOOK ONLY TO SUCH
*  THIRD PARTY FOR ANY WARRANTY CLAIM RELATING THERETO. MEDIATEK SHALL ALSO
*  NOT BE RESPONSIBLE FOR ANY MEDIATEK SOFTWARE RELEASES MADE TO BUYER'S
*  SPECIFICATION OR TO CONFORM TO A PARTICULAR STANDARD OR OPEN FORUM.
*
*  BUYER'S SOLE AND EXCLUSIVE REMEDY AND MEDIATEK'S ENTIRE AND CUMULATIVE
*  LIABILITY WITH RESPECT TO THE MEDIATEK SOFTWARE RELEASED HEREUNDER WILL BE,
*  AT MEDIATEK'S OPTION, TO REVISE OR REPLACE THE MEDIATEK SOFTWARE AT ISSUE,
*  OR REFUND ANY SOFTWARE LICENSE FEES OR SERVICE CHARGE PAID BY BUYER TO
*  MEDIATEK FOR SUCH MEDIATEK SOFTWARE AT ISSUE.
*
*  THE TRANSACTION CONTEMPLATED HEREUNDER SHALL BE CONSTRUED IN ACCORDANCE
*  WITH THE LAWS OF THE STATE OF CALIFORNIA, USA, EXCLUDING ITS CONFLICT OF
*  LAWS PRINCIPLES.  ANY DISPUTES, CONTROVERSIES OR CLAIMS ARISING THEREOF AND
*  RELATED THERETO SHALL BE SETTLED BY ARBITRATION IN SAN FRANCISCO, CA, UNDER
*  THE RULES OF THE INTERNATIONAL CHAMBER OF COMMERCE (ICC).
*
*****************************************************************************/

/*****************************************************************************
 *
 * Filename:
 * ---------
 *   GDI_Mem.res
 *
 * Project:
 * --------
 *   MAUI
 *
 * Description:
 * ------------
 *
 *
 * Author:
 * -------
 *   Viki Hung (mtk01926)
 *
 *============================================================================
 *             HISTORY
 * Below this line, this part is controlled by PVCS VM. DO NOT MODIFY!!
 *------------------------------------------------------------------------------
 * $Log$
 *
 * 11 30 2012 manik.mahajan
 * [MAUI_03245476] [GDI]Changes for Slim 6260 Pluto
 * .
 *
 * 11 29 2012 manik.mahajan
 * [MAUI_03245476] [GDI]Changes for Slim 6260 Pluto
 * .
 *
 * 11 29 2012 manik.mahajan
 * [MAUI_03245476] [GDI]Changes for Slim 6260 Pluto
 * .remove string used in asm memory ,
 *
 * 06 07 2012 shooting.chuang
 * [MAUI_03198778] [GDI] 9slice performance improvement
 * Allocate and keep memory when enter screen and release when exit screen.
 *
 * 02 08 2011 ray.wu
 * [MAUI_02867812] [Removed Files from p4 service]
 * .
 *
 * 01 14 2011 viki.hung
 * [MAUI_02861413] [GDI] new memory check in
 * .
 *
 * 01 14 2011 viki.hung
 * [MAUI_02861413] [GDI] new memory check in
 * .
 *
 *------------------------------------------------------------------------------
 * Upper this line, this part is controlled by PVCS VM. DO NOT MODIFY!!
 *============================================================================
 ****************************************************************************/
 
<?xml version="1.0" encoding="UTF-8"?>

<APP id="SRV_GDI" name="STR_GDI">
    <MEMORY base="GDI_ASM_MEM_SIZE" fg="0" inc="gdi_const.h"/>
    <RECEIVER id="EVT_ID_SCRN_ENTER_SUCCESS_NOFITY" proc="gdi_image_9slice_handle_scrn_enter_proc"/>
</APP>

