ModuleName,LibraryName,Attribute,Category,FeatureOption
combo_lcm*.obj,custom.lib,RO,Post processing,
*l1audio32.lib,l1audio32.lib,RO,ARM libraries,
*fota.lib,fota.lib,RO,ARM libraries,
*dp_engine.lib,dp_engine.lib,RO,ARM libraries,
*opengl.lib,opengl.lib,RO,ARM libraries,
*rompatch.lib,rompatch.lib,RO,ARM libraries,
*postproc_sec.lib,postproc_sec.lib,RO,ARM libraries,
*media_sec32.lib,media_sec32.lib,RO,ARM libraries,
*vrt.lib,vrt.lib,RO,ARM libraries,
acs_common_ctrl_hdlr.obj,rr_classb2.lib,RO,L1 libraries,
csn_common.obj,rr_classb2.lib,RO,L1 libraries,
gprs_rlcmac_common_rest.obj,rr_classb2.lib,RO,L1 libraries,
gprs_rlcmac_dl_rest.obj,rr_classb2.lib,RO,L1 libraries,
mac_common_ctrl_hdlr.obj,rr_classb2.lib,RO,L1 libraries,
mac_data_blk_hdlr.obj,rr_classb2.lib,RO,L1 libraries,
mac_dl_ctrl_hdlr.obj,rr_classb2.lib,RO,L1 libraries
mac_main.obj,rr_classb2.lib,RO,L1 libraries
mac_sendmsgs.obj,rr_classb2.lib,RO,L1 libraries
mac_utils.obj,rr_classb2.lib,RO,L1 libraries
mpal_gprs_common_func.obj,rr_classb2.lib,RO,L1 libraries
mpal_gprs_dl_func.obj,rr_classb2.lib,RO,L1 libraries
mpal_gprs_dl_msg_hdlr.obj,rr_classb2.lib,RO,L1 libraries
mpal_main.obj,rr_classb2.lib,RO,L1 libraries
nstd_mobile_alloc_peer_pun.obj,rr_classb2.lib,RO,L1 libraries
rlc_dl_ctrl_msg_hdlr.obj,rr_classb2.lib,RO,L1 libraries
rlc_util.obj,rr_classb2.lib,RO,L1 libraries
rmc_gprs_timer_hdlr.obj,rr_classb2.lib,RO,L1 libraries
rmc_peer_dl_rest.obj,rr_classb2.lib,RO,L1 libraries
rmp_timerhdlr.obj,rr_classb2.lib,RO,L1 libraries
rmp_pktacc.obj,rr_classb2.lib,RO,L1 libraries
rr_data_ind.obj,rr_classb2.lib,RO,L1 libraries
rr_gprs_utils.obj,rr_classb2.lib,RO,L1 libraries
rr_utils.obj,rr_classb2.lib,RO,L1 libraries
csrr_recv_lapdm_mesgs.obj,rr_classb2.lib,RO,L1 libraries
csrr_send_int_msg.obj,rr_classb2.lib,RO,L1 libraries
lapdm_frame_funcs.obj,rr_classb2.lib,RO,L1 libraries
lapdm_recv_mpal_msgs.obj,rr_classb2.lib,RO,L1 libraries
lapdm_recv_rr_msgs.obj,rr_classb2.lib,RO,L1 libraries
meas_funcs.obj,rr_classb2.lib,RO,L1 libraries
mpal_gsm_common_func.obj,rr_classb2.lib,RO,L1 libraries
mpal_gsm_dl_func.obj,rr_classb2.lib,RO,L1 libraries
mpal_gsm_dl_msg_hdlr.obj,rr_classb2.lib,RO,L1 libraries
mpal_gsm_ul_msg_hdlr.obj,rr_classb2.lib,RO,L1 libraries
psi.obj,rr_classb2.lib,RO,L1 libraries
rr_dual_sim_process.obj,rr_classb2.lib,RO,L1 libraries
rmc_gprs_meas_funcs.obj,rr_classb2.lib,RO,L1 libraries
rr_gprs_meas_decode.obj,rr_classb2.lib,RO,L1 libraries
rr_spare_bit.obj,rr_classb2.lib,RO,L1 libraries
rr_create.obj,rr_classb2.lib,RO,L1 libraries
rrm_main.obj,rr_classb2.lib,RO,L1 libraries
rrm_send_msgs.obj,rr_classb2.lib,RO,L1 libraries
si_msg_decode.obj,rr_classb2.lib,RO,L1 libraries
si_update_funcs.obj,rr_classb2.lib,RO,L1 libraries
csrr_utils.obj,rr_classb2.lib,RO,L1 libraries
rmc_common_access.obj,rr_classb2.lib,RO,L1 libraries
rmpc_common_func.obj,rr_classb2.lib,RO,L1 libraries
as_access_sem_funcs.obj ,as_semaphore_utility.lib,RO,L1 libraries
rsva_create.obj,rsva.lib,RO,L1 libraries
rsvas_utils.obj,rsva.lib,RO,L1 libraries
rsvas_fsm.obj,rsva.lib,RO,L1 libraries
sm_statemachine_lite.obj,rsva.lib,RO,L1 libraries
CustImgGroupDataRes_0.obj,mmiresource.lib,RO,Already compressed
CustImgGroupDataRes_1.obj,mmiresource.lib,RO,Already compressed
CustImgGroupDataRes_2.obj,mmiresource.lib,RO,Already compressed
CustImgGroupDataRes_3.obj,mmiresource.lib,RO,Already compressed
FontData.obj,mmiresource.lib,RO,Already compressed
nvram_interface.obj,nvram.lib,RO,Interrupt Disabled
nvram_util.obj,nvram.lib,RO,Interrupt Disabled
nvram_io.obj,nvram.lib,RO,Interrupt Disabled
nvram_drval_fat.obj,nvram.lib,RO,Interrupt Disabled
nvram_pseudo_merge.obj,nvram.lib,RO,Interrupt Disabled
nvram_multi_folder.obj,nvram.lib,RO,Interrupt Disabled
custom_nvram_int_config.obj,custom.lib,RO,Interrupt Disabled
custom_nvram_sec.obj,custom.lib,RO,Interrupt Disabled
nvram_sec.obj,nvram_sec.lib,RO,Interrupt Disabled
audio_service.obj,audio.lib,RO,Interrupt Disabled
afe.obj,custom.lib,RO,Interrupt Disabled
afe_6260.obj,audio.lib,RO,Interrupt Disabled
l1audio_trace.obj,audio.lib,RO,Interrupt Disabled
wingui.obj,mmi_framework.lib,RO,Interrupt Disabled
screenrotation.obj,mmi_framework.lib,RO,Interrupt Disabled
pixcomfontengine.obj,mmi_framework.lib,RO,Interrupt Disabled
ucs2.obj,mmi_framework.lib,RO,Interrupt Disabled
app_str.obj,applib.lib,RO,Interrupt Disabled
flc2_debug_functions.obj,flc2.lib,RO,Interrupt Disabled
audlp2_drv.obj,audio.lib,RO,Interrupt Disabled
tone_loopback_rec.obj,audio.lib,RO,Interrupt Disabled
media.obj,audio.lib,RO,Interrupt Disabled
wav_thumb.obj,audio.lib,RO,Interrupt Disabled
sp_drv.obj,audio.lib,RO,Interrupt Disabled
audcoeff.obj,custom.lib,RO,Interrupt Disabled
sp_enhance.obj,audio.lib,RO,Interrupt Disabled
am.obj,audio.lib,RO,Interrupt Disabled
i2s_drv.obj,audio.lib,RO,Interrupt Disabled
apm_comp.obj,audio.lib,RO,Interrupt Disabled
bt_sco_drv.obj,audio.lib,RO,Interrupt Disabled
media_avsync.obj,audio.lib,RO,Interrupt Disabled
AudComUtil.obj,audio.lib,RO,Interrupt Disabled
audio_idma.obj,audio.lib,RO,Interrupt Disabled
pcm.obj,audio.lib,RO,Interrupt Disabled
amr.obj,audio.lib,RO,Interrupt Disabled
l4c_em.obj,l4_classb.lib,RO,Interrupt Disabled
dcl_sim.obj,sim_driver.lib,RO,Interrupt Disabled
custom_sim_driver.obj,custom.lib,RO,Interrupt Disabled
icc_sim_common_mtk.obj,sim_driver.lib,RO,Interrupt Disabled
icc_switchControl2_mt6306.obj,mt6306.lib,RO,Interrupt Disabled
MT6306_I2C.obj,mt6306.lib,RO,Interrupt Disabled
MT6306_custom.obj,custom.lib,RO,Interrupt Disabled
MT6306_HW_I2C.obj,mt6306.lib,RO,Interrupt Disabled
icc_switchControl2.obj,sim_driver.lib,RO,Interrupt Disabled
MT6302_SPI.obj,sim_driver.lib,RO,Interrupt Disabled
MT6302_custom.obj,custom.lib,RO,Interrupt Disabled
icc_switchcontrol1_aw6314_dummy.obj,aw6314.lib,RO,Interrupt Disabled
pcmRouteService.obj,audio.lib,RO,Interrupt Disabled
bt_sco_app.obj,audio.lib,RO,Interrupt Disabled
pcm4way.obj,audio.lib,RO,Interrupt Disabled
audioPP.obj,audio.lib,RO,Interrupt Disabled
MedAdapt.obj,audio.lib,RO,Interrupt Disabled
mmi_frm_remutex.obj,mmi_framework.lib,RO,Interrupt Disabled
usbacm_ft.obj,usb.lib,RO,Interrupt Disabled
nvram_ltable.obj,nvram.lib,RO,Interrupt Disabled
melody_common.obj,audio.lib,RO,Interrupt Disabled
AudioDrain.obj,audio.lib,RO,Interrupt Disabled
ft_fnc_util.obj,ft.lib,RO,Interrupt Disabled
ft_fnc.obj,ft.lib,RO,Interrupt Disabled
ft_main.obj,ft.lib,RO,Interrupt Disabled
meta_customize.obj,custom.lib,RO,Interrupt Disabled
video_comm_component_v2.obj,video.lib,RO,Interrupt Disabled
video_decoder_component_v2.obj,video_sec.lib,RO,Interrupt Disabled
video_comm_v2.obj,video.lib,RO,Interrupt Disabled
video_dbg_v2.obj,video.lib,RO,Interrupt Disabled
video_codec_utility_v2.obj,video.lib,RO,Interrupt Disabled
video_codec_buffer_mgr_v2.obj,video_sec.lib,RO,Interrupt Disabled
video_encoder_component_v2.obj,video_sec.lib,RO,Interrupt Disabled
isp_control.obj,camera.lib,RO,Interrupt Disabled
isp_feature.obj,camera.lib,RO,Interrupt Disabled
isp_isr.obj,camera.lib,RO,Interrupt Disabled
icc_switchControl1_mt6306.obj,mt6306.lib,RO,Interrupt Disabled
icc_switchControl0_mt6306.obj,mt6306.lib,RO,Interrupt Disabled
icc_switchControl_mtk_0.obj,sim_driver.lib,RO,Interrupt Disabled
icc_switchControl0.obj,sim_driver.lib,RO,Interrupt Disabled
icc_switchControl1.obj,sim_driver.lib,RO,Interrupt Disabled
icc_switchControl_mtk_1.obj,sim_driver.lib,RO,Interrupt Disabled
va2_comp_video_renderer.obj,video.lib,RO,Interrupt Disabled
va2_util_buffer_header_queue.obj,video.lib,RO,Interrupt Disabled
video_buffer_management_v2.obj,video.lib,RO,Interrupt Disabled
va2_video_renderer_vp_mt6252.obj,video.lib,RO,Interrupt Disabled
va2_util_misc.obj,video.lib,RO,Interrupt Disabled
custom_vrender.obj,custom.lib,RO,Interrupt Disabled
*tcpip.lib,tcpip.lib,RO,Interrupt Disabled
*iperf.lib,iperf.lib,RO,Interrupt Disabled
*tcpip_wifi.lib,tcpip_wifi.lib,RO,Interrupt Disabled
*soc.lib,soc.lib,RO,Interrupt Disabled
wndrv_kal.obj,wndrv.lib,RO,Interrupt Disabled
wlan_lib.obj,mt5931.lib,RO,Interrupt Disabled
wlan_oid.obj,mt5931.lib,RO,Interrupt Disabled
cmd_buf.obj,mt5931.lib,RO,Interrupt Disabled
nic.obj,mt5931.lib,RO,Interrupt Disabled
nic_tx.obj,mt5931.lib,RO,Interrupt Disabled
nic_pwr_mgt.obj,mt5931.lib,RO,Interrupt Disabled
nic_cmd_event.obj,mt5931.lib,RO,Interrupt Disabled
nic_rx.obj,mt5931.lib,RO,Interrupt Disabled
que_mgt.obj,mt5931.lib,RO,Interrupt Disabled
cnm.obj,mt5931.lib,RO,Interrupt Disabled
cnm_mem.obj,mt5931.lib,RO,Interrupt Disabled
gl_kal.obj,mt5931.lib,RO,Interrupt Disabled
wlan_kal.obj,mt5931.lib,RO,Interrupt Disabled
wndrv_create.obj,mt5931.lib,RO,Interrupt Disabled
wndrv_main.obj,mt5931.lib,RO,Interrupt Disabled
wndrv_supc_func.obj,mt5931.lib,RO,Interrupt Disabled
