hal\video\common\src\VideoCall_IL_Client.c
hal\video\common\src\avi_muxer_v2.c
hal\video\common\src\mp4_muxer_adapter_buffer_management_v2.c
hal\video\common\src\mp4_muxer_adapter_meta_creation_v2.c
hal\video\common\src\mp4_muxer_adapter_v2.c
hal\video\common\src\vcodec_main.c
hal\video\common\src\vcodec_v2_main.c
hal\video\common\src\vfile_main.c
hal\video\common\src\video_buffer_management_v2.c
hal\video\common\src\video_codec_custom_adapter_v2.c
hal\video\common\src\video_codec_custom_setting_v2.c
hal\video\common\src\video_codec_parser_utility_v2.c
hal\video\common\src\video_codec_utility_v2.c
hal\video\common\src\video_comm_component_v2.c
hal\video\common\src\video_comm_v2.c
hal\video\common\src\video_dbg_v2.c
hal\video\common\src\video_muxer_component_v2.c
hal\video\common\src\video_recorder_clock_utility_v2.c
hal\video\common\src\video_recorder_if_v2.c
hal\video\common\src\video_subtitle_codec_if.c
hal\video\common\src\video_subtitle_codec_ssa.c
hal\video\common\src\video_subtitle_decoder.c
hal\video\common\src\vsrc_main.c
hal\video\custom\custom_video_enc.c
hal\video\custom\custom_video_enc_h264.c
hal\video\custom\custom_video_enc_matv.c
hal\video\custom\custom_video_enc_matv_mjpeg.c
hal\video\custom\custom_video_enc_mjpeg.c
hal\video\custom\custom_video_enc_mpeg4.c
hal\video\custom\custom_video_enc_utility.c
hal\video\custom\custom_video_enc_vt.c
hal\video\custom\hal_custom_video.c
hal\video\renderer\src\stereo_video_color_transformation.c
hal\video\renderer\src\va2_comp_video_renderer.c
hal\video\renderer\src\va2_display_api_adapter.c
hal\video\renderer\src\va2_util_buffer_header_queue.c
hal\video\renderer\src\va2_util_misc.c
hal\video\renderer\src\va2_video_renderer_vp.c
hal\video\renderer\src\va2_video_renderer_vp_mt6252.c
hal\video\renderer\src\va2_video_renderer_vt.c
hal\video\renderer\src\video_renderer_task_thread_pool.c
hal\video\vt_parser\src\video_vt_api_v2.c
