# 1 "temp/res/AM_int.c"
# 1 "<built-in>"
# 1 "<command line>"
# 1 "temp/res/AM_int.c"
# 1 "../../mmi/inc/MMI_features.h" 1
# 69 "../../mmi/inc/MMI_features.h"
# 1 "../../mmi/inc/MMI_features_switch.h" 1
# 67 "../../mmi/inc/MMI_features_switch.h"
# 1 "../../mmi/inc/MMI_features_type.h" 1
# 68 "../../mmi/inc/MMI_features_switch.h" 2
# 70 "../../mmi/inc/MMI_features.h" 2
# 2 "temp/res/AM_int.c" 2
# 1 "../customerinc/custresdef.h" 1
# 195 "../customerinc/custresdef.h"
# 1 "../../mmi/inc/MMI_features.h" 1
# 196 "../customerinc/custresdef.h" 2
# 3 "temp/res/AM_int.c" 2
# 1 "../../mtkapp/mreapp/mreappinc/AMSwitch.h" 1
# 98 "../../mtkapp/mreapp/mreappinc/AMSwitch.h"
# 1 "../../mmi/inc/MMI_features.h" 1
# 99 "../../mtkapp/mreapp/mreappinc/AMSwitch.h" 2
# 4 "temp/res/AM_int.c" 2
# 1 "../../../mre/commoninc/vmswitch.h" 1
# 173 "../../../mre/commoninc/vmswitch.h"
# 1 "../../mmi/inc/mmi_features.h" 1
# 174 "../../../mre/commoninc/vmswitch.h" 2
# 1 "../../../mre/commoninc/vmswitch_cfg.h" 1
# 175 "../../../mre/commoninc/vmswitch.h" 2
# 5 "temp/res/AM_int.c" 2
# 1 "../../mmi/inc/GlobalResDef.h" 1
# 411 "../../mmi/inc/GlobalResDef.h"
# 1 "../../mmi/inc/mmi_res_range_def.h" 1
# 2326 "../../mmi/inc/mmi_res_range_def.h"
# 1 "../../mmi/inc/MMI_features.h" 1
# 2327 "../../mmi/inc/mmi_res_range_def.h" 2
# 2401 "../../mmi/inc/mmi_res_range_def.h"
typedef enum { RESOURCE_BASE_FIRST_VALUE = 3000, APP_GLOBALDEFS, RESOURCE_BASE_APP_GLOBALDEFS = APP_GLOBALDEFS, RESOURCE_BASE_APP_GLOBALDEFS_END = APP_GLOBALDEFS + 299,
# 2412 "../../mmi/inc/mmi_res_range_def.h"
# 1 "../../mmi/inc/mmi_lib_res_range_def.h" 1
# 137 "../../mmi/inc/mmi_lib_res_range_def.h"
APP_WAP, RESOURCE_BASE_APP_WAP = APP_WAP, RESOURCE_BASE_APP_WAP_END = APP_WAP + 1500,







APP_MRE, RESOURCE_BASE_APP_MRE = APP_MRE, RESOURCE_BASE_APP_MRE_END = APP_MRE + 100,



APP_MRE_BG, RESOURCE_BASE_APP_MRE_BG = APP_MRE_BG, RESOURCE_BASE_APP_MRE_BG_END = APP_MRE_BG + 10,






VAPP_SNS, RESOURCE_BASE_VAPP_SNS = VAPP_SNS, RESOURCE_BASE_VAPP_SNS_END = VAPP_SNS + 200,



VAPP_SNS_PLUGIN, RESOURCE_BASE_VAPP_SNS_PLUGIN = VAPP_SNS_PLUGIN, RESOURCE_BASE_VAPP_SNS_PLUGIN_END = VAPP_SNS_PLUGIN + 5,



VAPP_SNS_BG, RESOURCE_BASE_VAPP_SNS_BG = VAPP_SNS_BG, RESOURCE_BASE_VAPP_SNS_BG_END = VAPP_SNS_BG + 5,



VCUI_SNS_UPLOAD_PIC, RESOURCE_BASE_VCUI_SNS_UPLOAD_PIC = VCUI_SNS_UPLOAD_PIC, RESOURCE_BASE_VCUI_SNS_UPLOAD_PIC_END = VCUI_SNS_UPLOAD_PIC + 20,



VCUI_SNS_SLIM_UPLOAD_PIC, RESOURCE_BASE_VCUI_SNS_SLIM_UPLOAD_PIC = VCUI_SNS_SLIM_UPLOAD_PIC, RESOURCE_BASE_VCUI_SNS_SLIM_UPLOAD_PIC_END = VCUI_SNS_SLIM_UPLOAD_PIC + 10,



VCUI_SNS_CONTACTS_PICKER, RESOURCE_BASE_VCUI_SNS_CONTACTS_PICKER = VCUI_SNS_CONTACTS_PICKER, RESOURCE_BASE_VCUI_SNS_CONTACTS_PICKER_END = VCUI_SNS_CONTACTS_PICKER + 20,



VCUI_SNS_MSG_COMPOSER, RESOURCE_BASE_VCUI_SNS_MSG_COMPOSER = VCUI_SNS_MSG_COMPOSER, RESOURCE_BASE_VCUI_SNS_MSG_COMPOSER_END = VCUI_SNS_MSG_COMPOSER + 10,



VAPP_WIDGET_SNS_COSMOS, RESOURCE_BASE_VAPP_WIDGET_SNS_COSMOS = VAPP_WIDGET_SNS_COSMOS, RESOURCE_BASE_VAPP_WIDGET_SNS_COSMOS_END = VAPP_WIDGET_SNS_COSMOS + 20,



VAPP_WIDGET_SNS_DUMMY, RESOURCE_BASE_VAPP_WIDGET_SNS_DUMMY = VAPP_WIDGET_SNS_DUMMY, RESOURCE_BASE_VAPP_WIDGET_SNS_DUMMY_END = VAPP_WIDGET_SNS_DUMMY + 10,






SRV_SNS, RESOURCE_BASE_SRV_SNS = SRV_SNS, RESOURCE_BASE_SRV_SNS_END = SRV_SNS + 16,






SRV_SSO, RESOURCE_BASE_SRV_SSO = SRV_SSO, RESOURCE_BASE_SRV_SSO_END = SRV_SSO + 8,






SRV_BACKUP_RESTORE, RESOURCE_BASE_SRV_BACKUP_RESTORE = SRV_BACKUP_RESTORE, RESOURCE_BASE_SRV_BACKUP_RESTORE_END = SRV_BACKUP_RESTORE + 100,






VAPP_GOOGLE_SEARCH, RESOURCE_BASE_VAPP_GOOGLE_SEARCH = VAPP_GOOGLE_SEARCH, RESOURCE_BASE_VAPP_GOOGLE_SEARCH_END = VAPP_GOOGLE_SEARCH + 10,
# 2413 "../../mmi/inc/mmi_res_range_def.h" 2
# 2421 "../../mmi/inc/mmi_res_range_def.h"
    FRAMEWORK_ASM, RESOURCE_BASE_FRAMEWORK_ASM = FRAMEWORK_ASM, RESOURCE_BASE_FRAMEWORK_ASM_END = FRAMEWORK_ASM + 100,
    SRV_NMGR, RESOURCE_BASE_SRV_NMGR = SRV_NMGR, RESOURCE_BASE_SRV_NMGR_END = SRV_NMGR + 10,
    SRV_STATUS_ICONS, RESOURCE_BASE_SRV_STATUS_ICONS = SRV_STATUS_ICONS, RESOURCE_BASE_SRV_STATUS_ICONS_END = SRV_STATUS_ICONS + 300,
    SRV_CONNECTS, RESOURCE_BASE_SRV_CONNECTS = SRV_CONNECTS, RESOURCE_BASE_SRV_CONNECTS_END = SRV_CONNECTS + 100,

    SRV_COMMON_SCREENS, RESOURCE_BASE_SRV_COMMON_SCREENS = SRV_COMMON_SCREENS, RESOURCE_BASE_SRV_COMMON_SCREENS_END = SRV_COMMON_SCREENS + 300,
    SRV_HELP, RESOURCE_BASE_SRV_HELP = SRV_HELP, RESOURCE_BASE_SRV_HELP_END = SRV_HELP + 100,
    SRV_CTK, RESOURCE_BASE_SRV_CTK = SRV_CTK, RESOURCE_BASE_SRV_CTK_END = SRV_CTK + 200,
    SRV_COMPOSE_RINGTONE, RESOURCE_BASE_SRV_COMPOSE_RINGTONE = SRV_COMPOSE_RINGTONE, RESOURCE_BASE_SRV_COMPOSE_RINGTONE_END = SRV_COMPOSE_RINGTONE + 100,

    SRV_NV_RAM_FILE_EXT_MELODY, RESOURCE_BASE_SRV_NV_RAM_FILE_EXT_MELODY = SRV_NV_RAM_FILE_EXT_MELODY, RESOURCE_BASE_SRV_NV_RAM_FILE_EXT_MELODY_END = SRV_NV_RAM_FILE_EXT_MELODY + 20,
    SRV_MMIAPI, RESOURCE_BASE_SRV_MMIAPI = SRV_MMIAPI, RESOURCE_BASE_SRV_MMIAPI_END = SRV_MMIAPI + 100,
    SRV_PICT_BRIDGE, RESOURCE_BASE_SRV_PICT_BRIDGE = SRV_PICT_BRIDGE, RESOURCE_BASE_SRV_PICT_BRIDGE_END = SRV_PICT_BRIDGE + 100,
    SRV_VOIP, RESOURCE_BASE_SRV_VOIP = SRV_VOIP, RESOURCE_BASE_SRV_VOIP_END = SRV_VOIP + 500,
    SRV_MONWAP, RESOURCE_BASE_SRV_MONWAP = SRV_MONWAP, RESOURCE_BASE_SRV_MONWAP_END = SRV_MONWAP + 100,
    SRV_SOFTWARE_TRACER, RESOURCE_BASE_SRV_SOFTWARE_TRACER = SRV_SOFTWARE_TRACER, RESOURCE_BASE_SRV_SOFTWARE_TRACER_END = SRV_SOFTWARE_TRACER + 100,

    SRV_GPS, RESOURCE_BASE_SRV_GPS = SRV_GPS, RESOURCE_BASE_SRV_GPS_END = SRV_GPS + 100,
# 2448 "../../mmi/inc/mmi_res_range_def.h"
    SRV_MDI, RESOURCE_BASE_SRV_MDI = SRV_MDI, RESOURCE_BASE_SRV_MDI_END = SRV_MDI + 100,

    SRV_MDI_AUDPLY, RESOURCE_BASE_SRV_MDI_AUDPLY = SRV_MDI_AUDPLY, RESOURCE_BASE_SRV_MDI_AUDPLY_END = SRV_MDI_AUDPLY + 2,
    SRV_MDI_AUD_INFO, RESOURCE_BASE_SRV_MDI_AUD_INFO = SRV_MDI_AUD_INFO, RESOURCE_BASE_SRV_MDI_AUD_INFO_END = SRV_MDI_AUD_INFO + 2,
    SRV_MDI_VDOPLY, RESOURCE_BASE_SRV_MDI_VDOPLY = SRV_MDI_VDOPLY, RESOURCE_BASE_SRV_MDI_VDOPLY_END = SRV_MDI_VDOPLY + 2,
    SRV_MDI_VDOPLY_V, RESOURCE_BASE_SRV_MDI_VDOPLY_V = SRV_MDI_VDOPLY_V, RESOURCE_BASE_SRV_MDI_VDOPLY_V_END = SRV_MDI_VDOPLY_V + 2,
    SRV_MDI_VDOPLY_A, RESOURCE_BASE_SRV_MDI_VDOPLY_A = SRV_MDI_VDOPLY_A, RESOURCE_BASE_SRV_MDI_VDOPLY_A_END = SRV_MDI_VDOPLY_A + 2,
    SRV_MDI_VDOPLY_QVGA, RESOURCE_BASE_SRV_MDI_VDOPLY_QVGA = SRV_MDI_VDOPLY_QVGA, RESOURCE_BASE_SRV_MDI_VDOPLY_QVGA_END = SRV_MDI_VDOPLY_QVGA + 2,
    SRV_MDI_VDOPLY_CIF, RESOURCE_BASE_SRV_MDI_VDOPLY_CIF = SRV_MDI_VDOPLY_CIF, RESOURCE_BASE_SRV_MDI_VDOPLY_CIF_END = SRV_MDI_VDOPLY_CIF + 2,
    SRV_MDI_VDOPLY_PREVIEW, RESOURCE_BASE_SRV_MDI_VDOPLY_PREVIEW = SRV_MDI_VDOPLY_PREVIEW, RESOURCE_BASE_SRV_MDI_VDOPLY_PREVIEW_END = SRV_MDI_VDOPLY_PREVIEW + 2,
    SRV_MDI_VDOPLY_INFO, RESOURCE_BASE_SRV_MDI_VDOPLY_INFO = SRV_MDI_VDOPLY_INFO, RESOURCE_BASE_SRV_MDI_VDOPLY_INFO_END = SRV_MDI_VDOPLY_INFO + 2,
    SRV_MDI_VDOPLY_MP4, RESOURCE_BASE_SRV_MDI_VDOPLY_MP4 = SRV_MDI_VDOPLY_MP4, RESOURCE_BASE_SRV_MDI_VDOPLY_MP4_END = SRV_MDI_VDOPLY_MP4 + 2,
    SRV_MDI_VDOPLY_SUBTITLE, RESOURCE_BASE_SRV_MDI_VDOPLY_SUBTITLE = SRV_MDI_VDOPLY_SUBTITLE, RESOURCE_BASE_SRV_MDI_VDOPLY_SUBTITLE_END = SRV_MDI_VDOPLY_SUBTITLE + 2,
    SRV_MDI_VDOPLY_QVGA_MPEG4SP, RESOURCE_BASE_SRV_MDI_VDOPLY_QVGA_MPEG4SP = SRV_MDI_VDOPLY_QVGA_MPEG4SP, RESOURCE_BASE_SRV_MDI_VDOPLY_QVGA_MPEG4SP_END = SRV_MDI_VDOPLY_QVGA_MPEG4SP + 2,
    SRV_MDI_STREAMING, RESOURCE_BASE_SRV_MDI_STREAMING = SRV_MDI_STREAMING, RESOURCE_BASE_SRV_MDI_STREAMING_END = SRV_MDI_STREAMING + 2,
    SRV_MDI_STREAMING_QVGA, RESOURCE_BASE_SRV_MDI_STREAMING_QVGA = SRV_MDI_STREAMING_QVGA, RESOURCE_BASE_SRV_MDI_STREAMING_QVGA_END = SRV_MDI_STREAMING_QVGA + 2,
    SRV_MDI_STREAMING_CIF, RESOURCE_BASE_SRV_MDI_STREAMING_CIF = SRV_MDI_STREAMING_CIF, RESOURCE_BASE_SRV_MDI_STREAMING_CIF_END = SRV_MDI_STREAMING_CIF + 2,
    SRV_MDI_VT, RESOURCE_BASE_SRV_MDI_VT = SRV_MDI_VT, RESOURCE_BASE_SRV_MDI_VT_END = SRV_MDI_VT + 10,


    SRV_PROF, RESOURCE_BASE_SRV_PROF = SRV_PROF, RESOURCE_BASE_SRV_PROF_END = SRV_PROF + 150,




    SRV_MDI_CAMERA_STANDARD, RESOURCE_BASE_SRV_MDI_CAMERA_STANDARD = SRV_MDI_CAMERA_STANDARD, RESOURCE_BASE_SRV_MDI_CAMERA_STANDARD_END = SRV_MDI_CAMERA_STANDARD + 2,
    SRV_MDI_CAMERA_FULL, RESOURCE_BASE_SRV_MDI_CAMERA_FULL = SRV_MDI_CAMERA_FULL, RESOURCE_BASE_SRV_MDI_CAMERA_FULL_END = SRV_MDI_CAMERA_FULL + 2,
    SRV_MDI_CAMERA_ONLY_CAP_LCD, RESOURCE_BASE_SRV_MDI_CAMERA_ONLY_CAP_LCD = SRV_MDI_CAMERA_ONLY_CAP_LCD, RESOURCE_BASE_SRV_MDI_CAMERA_ONLY_CAP_LCD_END = SRV_MDI_CAMERA_ONLY_CAP_LCD + 2,
    SRV_MDI_CAMERA_ONLY_CAP_LCD_DISABLE_JAIA, RESOURCE_BASE_SRV_MDI_CAMERA_ONLY_CAP_LCD_DISABLE_JAIA = SRV_MDI_CAMERA_ONLY_CAP_LCD_DISABLE_JAIA, RESOURCE_BASE_SRV_MDI_CAMERA_ONLY_CAP_LCD_DISABLE_JAIA_END = SRV_MDI_CAMERA_ONLY_CAP_LCD_DISABLE_JAIA + 2,
    SRV_MDI_CAMERA_CAP_VGA_BELOW, RESOURCE_BASE_SRV_MDI_CAMERA_CAP_VGA_BELOW = SRV_MDI_CAMERA_CAP_VGA_BELOW, RESOURCE_BASE_SRV_MDI_CAMERA_CAP_VGA_BELOW_END = SRV_MDI_CAMERA_CAP_VGA_BELOW + 2,
    SRV_MDI_CAMERA_AUTORAMA, RESOURCE_BASE_SRV_MDI_CAMERA_AUTORAMA = SRV_MDI_CAMERA_AUTORAMA, RESOURCE_BASE_SRV_MDI_CAMERA_AUTORAMA_END = SRV_MDI_CAMERA_AUTORAMA + 2,
    SRV_MDI_CAMERA_CAP_HDR, RESOURCE_BASE_SRV_MDI_CAMERA_CAP_HDR = SRV_MDI_CAMERA_CAP_HDR, RESOURCE_BASE_SRV_MDI_CAMERA_CAP_HDR_END = SRV_MDI_CAMERA_CAP_HDR + 2,
    SRV_MDI_CAMERA_CAP_MAV, RESOURCE_BASE_SRV_MDI_CAMERA_CAP_MAV = SRV_MDI_CAMERA_CAP_MAV, RESOURCE_BASE_SRV_MDI_CAMERA_CAP_MAV_END = SRV_MDI_CAMERA_CAP_MAV + 2,
    SRV_MDI_WEBCAM, RESOURCE_BASE_SRV_MDI_WEBCAM = SRV_MDI_WEBCAM, RESOURCE_BASE_SRV_MDI_WEBCAM_END = SRV_MDI_WEBCAM + 2,
    SRV_MDI_ATV_REC, RESOURCE_BASE_SRV_MDI_ATV_REC = SRV_MDI_ATV_REC, RESOURCE_BASE_SRV_MDI_ATV_REC_END = SRV_MDI_ATV_REC + 2,
    SRV_MDI_ATV, RESOURCE_BASE_SRV_MDI_ATV = SRV_MDI_ATV, RESOURCE_BASE_SRV_MDI_ATV_END = SRV_MDI_ATV + 2,
    SRV_MDI_MTV, RESOURCE_BASE_SRV_MDI_MTV = SRV_MDI_MTV, RESOURCE_BASE_SRV_MDI_MTV_END = SRV_MDI_MTV + 2,
    SRV_MDI_MBBMS_ESG, RESOURCE_BASE_SRV_MDI_MBBMS_ESG = SRV_MDI_MBBMS_ESG, RESOURCE_BASE_SRV_MDI_MBBMS_ESG_END = SRV_MDI_MBBMS_ESG + 2,
    SRV_MDI_VDOCLIP, RESOURCE_BASE_SRV_MDI_VDOCLIP = SRV_MDI_VDOCLIP, RESOURCE_BASE_SRV_MDI_VDOCLIP_END = SRV_MDI_VDOCLIP + 2,
    SRV_BOOTUP, RESOURCE_BASE_SRV_BOOTUP = SRV_BOOTUP, RESOURCE_BASE_SRV_BOOTUP_END = SRV_BOOTUP + 50,
    SRV_SIM_CTRL, RESOURCE_BASE_SRV_SIM_CTRL = SRV_SIM_CTRL, RESOURCE_BASE_SRV_SIM_CTRL_END = SRV_SIM_CTRL + 50,
    SRV_NW_INFO, RESOURCE_BASE_SRV_NW_INFO = SRV_NW_INFO, RESOURCE_BASE_SRV_NW_INFO_END = SRV_NW_INFO + 50,
    SRV_SHUTDOWN, RESOURCE_BASE_SRV_SHUTDOWN = SRV_SHUTDOWN, RESOURCE_BASE_SRV_SHUTDOWN_END = SRV_SHUTDOWN + 50,
    SRV_SECSET, RESOURCE_BASE_SRV_SECSET = SRV_SECSET, RESOURCE_BASE_SRV_SECSET_END = SRV_SECSET + 30,



    APP_PHONEBOOK, RESOURCE_BASE_APP_PHONEBOOK = APP_PHONEBOOK, RESOURCE_BASE_APP_PHONEBOOK_END = APP_PHONEBOOK + 1000,


    APP_FUNANDGAMES, RESOURCE_BASE_APP_FUNANDGAMES = APP_FUNANDGAMES, RESOURCE_BASE_APP_FUNANDGAMES_END = APP_FUNANDGAMES + 100,




    APP_SERVICES, RESOURCE_BASE_APP_SERVICES = APP_SERVICES, RESOURCE_BASE_APP_SERVICES_END = APP_SERVICES + 20,
    SRV_DTCNT, RESOURCE_BASE_SRV_DTCNT = SRV_DTCNT, RESOURCE_BASE_SRV_DTCNT_END = SRV_DTCNT + 50,





    APP_MESSAGES, RESOURCE_BASE_APP_MESSAGES = APP_MESSAGES, RESOURCE_BASE_APP_MESSAGES_END = APP_MESSAGES + 100,
    SRV_SMS, RESOURCE_BASE_SRV_SMS = SRV_SMS, RESOURCE_BASE_SRV_SMS_END = SRV_SMS + 50,
    APP_CHAT, RESOURCE_BASE_APP_CHAT = APP_CHAT, RESOURCE_BASE_APP_CHAT_END = APP_CHAT + 10,

    SRV_UNIFIEDMESSAGE, RESOURCE_BASE_SRV_UNIFIEDMESSAGE = SRV_UNIFIEDMESSAGE, RESOURCE_BASE_SRV_UNIFIEDMESSAGE_END = SRV_UNIFIEDMESSAGE + 10,

    SRV_SECURITY_SETTING, RESOURCE_BASE_SRV_SECURITY_SETTING = SRV_SECURITY_SETTING, RESOURCE_BASE_SRV_SECURITY_SETTING_END = SRV_SECURITY_SETTING + 30,
    SRV_CALLSET, RESOURCE_BASE_SRV_CALLSET = SRV_CALLSET, RESOURCE_BASE_SRV_CALLSET_END = SRV_CALLSET + 50,

    SRV_SS, RESOURCE_BASE_SRV_SS = SRV_SS, RESOURCE_BASE_SRV_SS_END = SRV_SS + 70,


    APP_CALLMANAGEMENT, RESOURCE_BASE_APP_CALLMANAGEMENT = APP_CALLMANAGEMENT, RESOURCE_BASE_APP_CALLMANAGEMENT_END = APP_CALLMANAGEMENT + 50,

    SRV_CTM, RESOURCE_BASE_SRV_CTM = SRV_CTM, RESOURCE_BASE_SRV_CTM_END = SRV_CTM + 10,
    SRV_GCALL, RESOURCE_BASE_SRV_GCALL = SRV_GCALL, RESOURCE_BASE_SRV_GCALL_END = SRV_GCALL + 200,

    APP_IDLEAPP, RESOURCE_BASE_APP_IDLEAPP = APP_IDLEAPP, RESOURCE_BASE_APP_IDLEAPP_END = APP_IDLEAPP + 750,
    APP_UIFRAMEWORK, RESOURCE_BASE_APP_UIFRAMEWORK = APP_UIFRAMEWORK, RESOURCE_BASE_APP_UIFRAMEWORK_END = APP_UIFRAMEWORK + 700,
    APP_IDLE_FANCY_HANDSET_LOCK, RESOURCE_BASE_APP_IDLE_FANCY_HANDSET_LOCK = APP_IDLE_FANCY_HANDSET_LOCK, RESOURCE_BASE_APP_IDLE_FANCY_HANDSET_LOCK_END = APP_IDLE_FANCY_HANDSET_LOCK + 50,
    APP_IDLE_HOMESCREEN, RESOURCE_BASE_APP_IDLE_HOMESCREEN = APP_IDLE_HOMESCREEN, RESOURCE_BASE_APP_IDLE_HOMESCREEN_END = APP_IDLE_HOMESCREEN + 100,
# 2548 "../../mmi/inc/mmi_res_range_def.h"
    APP_SIM_DETECTION, RESOURCE_BASE_APP_SIM_DETECTION = APP_SIM_DETECTION, RESOURCE_BASE_APP_SIM_DETECTION_END = APP_SIM_DETECTION + 10,
    SRV_SAT, RESOURCE_BASE_SRV_SAT = SRV_SAT, RESOURCE_BASE_SRV_SAT_END = SRV_SAT + 50,
    SRV_CPHS, RESOURCE_BASE_SRV_CPHS = SRV_CPHS, RESOURCE_BASE_SRV_CPHS_END = SRV_CPHS + 10,
# 2563 "../../mmi/inc/mmi_res_range_def.h"
    APP_CHARGER, RESOURCE_BASE_APP_CHARGER = APP_CHARGER, RESOURCE_BASE_APP_CHARGER_END = APP_CHARGER + 30,
    SRV_CHARBAT, RESOURCE_BASE_SRV_CHARBAT = SRV_CHARBAT, RESOURCE_BASE_SRV_CHARBAT_END = SRV_CHARBAT + 10,
    APP_CALLBARRING, RESOURCE_BASE_APP_CALLBARRING = APP_CALLBARRING, RESOURCE_BASE_APP_CALLBARRING_END = APP_CALLBARRING + 100,
    APP_NETWORKSETUP, RESOURCE_BASE_APP_NETWORKSETUP = APP_NETWORKSETUP, RESOURCE_BASE_APP_NETWORKSETUP_END = APP_NETWORKSETUP + 100,



    APP_ENGINEERMODE1, RESOURCE_BASE_APP_ENGINEERMODE1 = APP_ENGINEERMODE1, RESOURCE_BASE_APP_ENGINEERMODE1_END = APP_ENGINEERMODE1 + 1500,
    APP_ENGINEERMODE, RESOURCE_BASE_APP_ENGINEERMODE = APP_ENGINEERMODE, RESOURCE_BASE_APP_ENGINEERMODE_END = APP_ENGINEERMODE + 20,
    APP_ENGINEERMODE_APP, RESOURCE_BASE_APP_ENGINEERMODE_APP = APP_ENGINEERMODE_APP, RESOURCE_BASE_APP_ENGINEERMODE_APP_END = APP_ENGINEERMODE_APP + 20,
# 2588 "../../mmi/inc/mmi_res_range_def.h"
         APP_FACTORYMODE, RESOURCE_BASE_APP_FACTORYMODE = APP_FACTORYMODE, RESOURCE_BASE_APP_FACTORYMODE_END = APP_FACTORYMODE + 850,



    SRV_FILEMANAGER, RESOURCE_BASE_SRV_FILEMANAGER = SRV_FILEMANAGER, RESOURCE_BASE_SRV_FILEMANAGER_END = SRV_FILEMANAGER + 100,



    APP_JAVA, RESOURCE_BASE_APP_JAVA = APP_JAVA, RESOURCE_BASE_APP_JAVA_END = APP_JAVA + 500,
    APP_EXTDEVICE, RESOURCE_BASE_APP_EXTDEVICE = APP_EXTDEVICE, RESOURCE_BASE_APP_EXTDEVICE_END = APP_EXTDEVICE + 200,
    APP_CONNECTIVITY_MAINMENU, RESOURCE_BASE_APP_CONNECTIVITY_MAINMENU = APP_CONNECTIVITY_MAINMENU, RESOURCE_BASE_APP_CONNECTIVITY_MAINMENU_END = APP_CONNECTIVITY_MAINMENU + 5,
    APP_USBSRV, RESOURCE_BASE_APP_USBSRV = APP_USBSRV, RESOURCE_BASE_APP_USBSRV_END = APP_USBSRV + 10,
    APP_MULTIMEDIA, RESOURCE_BASE_APP_MULTIMEDIA = APP_MULTIMEDIA, RESOURCE_BASE_APP_MULTIMEDIA_END = APP_MULTIMEDIA + 100,
    APP_EXTRA, RESOURCE_BASE_APP_EXTRA = APP_EXTRA, RESOURCE_BASE_APP_EXTRA_END = APP_EXTRA + 100,
    APP_DICTIONARY, RESOURCE_BASE_APP_DICTIONARY = APP_DICTIONARY, RESOURCE_BASE_APP_DICTIONARY_END = APP_DICTIONARY + 10,
    APP_PICTURE_EDITOR, RESOURCE_BASE_APP_PICTURE_EDITOR = APP_PICTURE_EDITOR, RESOURCE_BASE_APP_PICTURE_EDITOR_END = APP_PICTURE_EDITOR + 200,





    APP_MESSAGE_CLUB, RESOURCE_BASE_APP_MESSAGE_CLUB = APP_MESSAGE_CLUB, RESOURCE_BASE_APP_MESSAGE_CLUB_END = APP_MESSAGE_CLUB + 10,





    SRV_DOWNLOADAGENT, RESOURCE_BASE_SRV_DOWNLOADAGENT = SRV_DOWNLOADAGENT, RESOURCE_BASE_SRV_DOWNLOADAGENT_END = SRV_DOWNLOADAGENT + 50,






    APP_VDOEDT, RESOURCE_BASE_APP_VDOEDT = APP_VDOEDT, RESOURCE_BASE_APP_VDOEDT_END = APP_VDOEDT + 500,
# 2631 "../../mmi/inc/mmi_res_range_def.h"
    APP_MYFAVORITE, RESOURCE_BASE_APP_MYFAVORITE = APP_MYFAVORITE, RESOURCE_BASE_APP_MYFAVORITE_END = APP_MYFAVORITE + 100,

    SRV_UCM, RESOURCE_BASE_SRV_UCM = SRV_UCM, RESOURCE_BASE_SRV_UCM_END = SRV_UCM + 30,
    APP_MOBILE_TV_PLAYER, RESOURCE_BASE_APP_MOBILE_TV_PLAYER = APP_MOBILE_TV_PLAYER, RESOURCE_BASE_APP_MOBILE_TV_PLAYER_END = APP_MOBILE_TV_PLAYER + 500,
    APP_DTV_PLAYER, RESOURCE_BASE_APP_DTV_PLAYER = APP_DTV_PLAYER, RESOURCE_BASE_APP_DTV_PLAYER_END = APP_DTV_PLAYER + 500,
    APP_DTV_MBBMS_ESG, RESOURCE_BASE_APP_DTV_MBBMS_ESG = APP_DTV_MBBMS_ESG, RESOURCE_BASE_APP_DTV_MBBMS_ESG_END = APP_DTV_MBBMS_ESG + 5,

    APP_APPLIST, RESOURCE_BASE_APP_APPLIST = APP_APPLIST, RESOURCE_BASE_APP_APPLIST_END = APP_APPLIST + 60,
    APP_APPLIST_BARREL, RESOURCE_BASE_APP_APPLIST_BARREL = APP_APPLIST_BARREL, RESOURCE_BASE_APP_APPLIST_BARREL_END = APP_APPLIST_BARREL + 20,




    APP_VT, RESOURCE_BASE_APP_VT = APP_VT, RESOURCE_BASE_APP_VT_END = APP_VT + 1,

    APP_MMS_V01AGENT, RESOURCE_BASE_APP_MMS_V01AGENT = APP_MMS_V01AGENT, RESOURCE_BASE_APP_MMS_V01AGENT_END = APP_MMS_V01AGENT + 20,

    APP_GIS, RESOURCE_BASE_APP_GIS = APP_GIS, RESOURCE_BASE_APP_GIS_END = APP_GIS + 100,



    APP_AVK, RESOURCE_BASE_APP_AVK = APP_AVK, RESOURCE_BASE_APP_AVK_END = APP_AVK + 400,

    APP_MRE_APPMGR, RESOURCE_BASE_APP_MRE_APPMGR = APP_MRE_APPMGR, RESOURCE_BASE_APP_MRE_APPMGR_END = APP_MRE_APPMGR + 100,
    APP_A2DP, RESOURCE_BASE_APP_A2DP = APP_A2DP, RESOURCE_BASE_APP_A2DP_END = APP_A2DP + 10,
    SRV_BTCM, RESOURCE_BASE_SRV_BTCM = SRV_BTCM, RESOURCE_BASE_SRV_BTCM_END = SRV_BTCM + 10,
    APP_FTP, RESOURCE_BASE_APP_FTP = APP_FTP, RESOURCE_BASE_APP_FTP_END = APP_FTP + 10,





    APP_TTS_TEST, RESOURCE_BASE_APP_TTS_TEST = APP_TTS_TEST, RESOURCE_BASE_APP_TTS_TEST_END = APP_TTS_TEST + 1,
    APP_BIP, RESOURCE_BASE_APP_BIP = APP_BIP, RESOURCE_BASE_APP_BIP_END = APP_BIP + 10,



    APP_UCWEB, RESOURCE_BASE_APP_UCWEB = APP_UCWEB, RESOURCE_BASE_APP_UCWEB_END = APP_UCWEB + 10,
    APP_QQIM, RESOURCE_BASE_APP_QQIM = APP_QQIM, RESOURCE_BASE_APP_QQIM_END = APP_QQIM + 300,
    APP_A8BOX, RESOURCE_BASE_APP_A8BOX = APP_A8BOX, RESOURCE_BASE_APP_A8BOX_END = APP_A8BOX + 200,

    SRV_VIRTUAL_KEYBOARD, RESOURCE_BASE_SRV_VIRTUAL_KEYBOARD = SRV_VIRTUAL_KEYBOARD, RESOURCE_BASE_SRV_VIRTUAL_KEYBOARD_END = SRV_VIRTUAL_KEYBOARD + 6000,

    SRV_VIRTUAL_KEYBOARD_MISC, RESOURCE_BASE_SRV_VIRTUAL_KEYBOARD_MISC = SRV_VIRTUAL_KEYBOARD_MISC, RESOURCE_BASE_SRV_VIRTUAL_KEYBOARD_MISC_END = SRV_VIRTUAL_KEYBOARD_MISC + 300,
    SRV_VENUS_COMPONENTS, RESOURCE_BASE_SRV_VENUS_COMPONENTS = SRV_VENUS_COMPONENTS, RESOURCE_BASE_SRV_VENUS_COMPONENTS_END = SRV_VENUS_COMPONENTS + 150,
        SRV_VENUS_COMPONENT_NORMAL_MODE_MENU, RESOURCE_BASE_SRV_VENUS_COMPONENT_NORMAL_MODE_MENU = SRV_VENUS_COMPONENT_NORMAL_MODE_MENU, RESOURCE_BASE_SRV_VENUS_COMPONENT_NORMAL_MODE_MENU_END = SRV_VENUS_COMPONENT_NORMAL_MODE_MENU + 10,
    APP_QQ_MOVIE, RESOURCE_BASE_APP_QQ_MOVIE = APP_QQ_MOVIE, RESOURCE_BASE_APP_QQ_MOVIE_END = APP_QQ_MOVIE + 100,
    CUI_TONE_SELECTOR, RESOURCE_BASE_CUI_TONE_SELECTOR = CUI_TONE_SELECTOR, RESOURCE_BASE_CUI_TONE_SELECTOR_END = CUI_TONE_SELECTOR + 20,
    SRV_VENUS_FW, RESOURCE_BASE_SRV_VENUS_FW = SRV_VENUS_FW, RESOURCE_BASE_SRV_VENUS_FW_END = SRV_VENUS_FW + 300,
    CUI_MENU, RESOURCE_BASE_CUI_MENU = CUI_MENU, RESOURCE_BASE_CUI_MENU_END = CUI_MENU + 20,
    SRV_MMI_CHARSET, RESOURCE_BASE_SRV_MMI_CHARSET = SRV_MMI_CHARSET, RESOURCE_BASE_SRV_MMI_CHARSET_END = SRV_MMI_CHARSET + 50,
    APP_PBAP, RESOURCE_BASE_APP_PBAP = APP_PBAP, RESOURCE_BASE_APP_PBAP_END = APP_PBAP + 10,
    APP_OPP, RESOURCE_BASE_APP_OPP = APP_OPP, RESOURCE_BASE_APP_OPP_END = APP_OPP + 10,
    SRV_PLST, RESOURCE_BASE_SRV_PLST = SRV_PLST, RESOURCE_BASE_SRV_PLST_END = SRV_PLST + 50,
    SRV_PLST_SLIM, RESOURCE_BASE_SRV_PLST_SLIM = SRV_PLST_SLIM, RESOURCE_BASE_SRV_PLST_SLIM_END = SRV_PLST_SLIM + 20,




    APP_MEDIAWALL, RESOURCE_BASE_APP_MEDIAWALL = APP_MEDIAWALL, RESOURCE_BASE_APP_MEDIAWALL_END = APP_MEDIAWALL + 100,
    APP_VENUS_CUBE, RESOURCE_BASE_APP_VENUS_CUBE = APP_VENUS_CUBE, RESOURCE_BASE_APP_VENUS_CUBE_END = APP_VENUS_CUBE + 100,
    APP_FONT_MANAGER, RESOURCE_BASE_APP_FONT_MANAGER = APP_FONT_MANAGER, RESOURCE_BASE_APP_FONT_MANAGER_END = APP_FONT_MANAGER + 50,
    SRV_WGTMGR, RESOURCE_BASE_SRV_WGTMGR = SRV_WGTMGR, RESOURCE_BASE_SRV_WGTMGR_END = SRV_WGTMGR + 30,
    SRV_EDITOR, RESOURCE_BASE_SRV_EDITOR = SRV_EDITOR, RESOURCE_BASE_SRV_EDITOR_END = SRV_EDITOR + 100,
    SRV_SENSOR, RESOURCE_BASE_SRV_SENSOR = SRV_SENSOR, RESOURCE_BASE_SRV_SENSOR_END = SRV_SENSOR + 10,
    IMPS_SRV, RESOURCE_BASE_IMPS_SRV = IMPS_SRV, RESOURCE_BASE_IMPS_SRV_END = IMPS_SRV + 10,
    SRV_GPIO, RESOURCE_BASE_SRV_GPIO = SRV_GPIO, RESOURCE_BASE_SRV_GPIO_END = SRV_GPIO + 30,
    APP_GPIO, RESOURCE_BASE_APP_GPIO = APP_GPIO, RESOURCE_BASE_APP_GPIO_END = APP_GPIO + 30,
    SRV_NETSET, RESOURCE_BASE_SRV_NETSET = SRV_NETSET, RESOURCE_BASE_SRV_NETSET_END = SRV_NETSET + 800,
    SRV_MODESWITCH, RESOURCE_BASE_SRV_MODESWITCH = SRV_MODESWITCH, RESOURCE_BASE_SRV_MODESWITCH_END = SRV_MODESWITCH + 10,
    SRV_PEN_CALIBRATION, RESOURCE_BASE_SRV_PEN_CALIBRATION = SRV_PEN_CALIBRATION, RESOURCE_BASE_SRV_PEN_CALIBRATION_END = SRV_PEN_CALIBRATION + 30,
    SRV_GENERAL_SETTING, RESOURCE_BASE_SRV_GENERAL_SETTING = SRV_GENERAL_SETTING, RESOURCE_BASE_SRV_GENERAL_SETTING_END = SRV_GENERAL_SETTING + 30,
    SRV_NW_USAB, RESOURCE_BASE_SRV_NW_USAB = SRV_NW_USAB, RESOURCE_BASE_SRV_NW_USAB_END = SRV_NW_USAB + 10,
    SRV_CBS, RESOURCE_BASE_SRV_CBS = SRV_CBS, RESOURCE_BASE_SRV_CBS_END = SRV_CBS + 50,
    SRV_CBM, RESOURCE_BASE_SRV_CBM = SRV_CBM, RESOURCE_BASE_SRV_CBM_END = SRV_CBM + 10,



    APP_OPERA_ADP, RESOURCE_BASE_APP_OPERA_ADP = APP_OPERA_ADP, RESOURCE_BASE_APP_OPERA_ADP_END = APP_OPERA_ADP + 20,
    APP_OPERA, RESOURCE_BASE_APP_OPERA = APP_OPERA, RESOURCE_BASE_APP_OPERA_END = APP_OPERA + 900,
    APP_OPERA_PARTIAL, RESOURCE_BASE_APP_OPERA_PARTIAL = APP_OPERA_PARTIAL, RESOURCE_BASE_APP_OPERA_PARTIAL_END = APP_OPERA_PARTIAL + 20,



    APP_IDLE, RESOURCE_BASE_APP_IDLE = APP_IDLE, RESOURCE_BASE_APP_IDLE_END = APP_IDLE + 50,
    APP_IDLE_NMGR, RESOURCE_BASE_APP_IDLE_NMGR = APP_IDLE_NMGR, RESOURCE_BASE_APP_IDLE_NMGR_END = APP_IDLE_NMGR + 20,
    APP_SCR_LOCKER, RESOURCE_BASE_APP_SCR_LOCKER = APP_SCR_LOCKER, RESOURCE_BASE_APP_SCR_LOCKER_END = APP_SCR_LOCKER + 30,



    CUI_DIALER, RESOURCE_BASE_CUI_DIALER = CUI_DIALER, RESOURCE_BASE_CUI_DIALER_END = CUI_DIALER + 20,
    SRV_NW_NAME, RESOURCE_BASE_SRV_NW_NAME = SRV_NW_NAME, RESOURCE_BASE_SRV_NW_NAME_END = SRV_NW_NAME + 50,
# 2733 "../../mmi/inc/mmi_res_range_def.h"
    SRV_INLINE_EDITOR, RESOURCE_BASE_SRV_INLINE_EDITOR = SRV_INLINE_EDITOR, RESOURCE_BASE_SRV_INLINE_EDITOR_END = SRV_INLINE_EDITOR + 50,
    CUI_MSG_VIEWER, RESOURCE_BASE_CUI_MSG_VIEWER = CUI_MSG_VIEWER, RESOURCE_BASE_CUI_MSG_VIEWER_END = CUI_MSG_VIEWER + 10,

    APP_VENUS_SHELL_RECENT_CALLS, RESOURCE_BASE_APP_VENUS_SHELL_RECENT_CALLS = APP_VENUS_SHELL_RECENT_CALLS, RESOURCE_BASE_APP_VENUS_SHELL_RECENT_CALLS_END = APP_VENUS_SHELL_RECENT_CALLS + 35,
    APP_VENUS_SHELL_IV, RESOURCE_BASE_APP_VENUS_SHELL_IV = APP_VENUS_SHELL_IV, RESOURCE_BASE_APP_VENUS_SHELL_IV_END = APP_VENUS_SHELL_IV + 30,
    APP_VENUS_SHELL_MEDIAPLAYER, RESOURCE_BASE_APP_VENUS_SHELL_MEDIAPLAYER = APP_VENUS_SHELL_MEDIAPLAYER, RESOURCE_BASE_APP_VENUS_SHELL_MEDIAPLAYER_END = APP_VENUS_SHELL_MEDIAPLAYER + 50,
    APP_SHELLAPP_BASE, RESOURCE_BASE_APP_SHELLAPP_BASE = APP_SHELLAPP_BASE, RESOURCE_BASE_APP_SHELLAPP_BASE_END = APP_SHELLAPP_BASE + 80,
    APP_VENUS_SHELL_SETTINGS, RESOURCE_BASE_APP_VENUS_SHELL_SETTINGS = APP_VENUS_SHELL_SETTINGS, RESOURCE_BASE_APP_VENUS_SHELL_SETTINGS_END = APP_VENUS_SHELL_SETTINGS + 30,
    APP_VENUS_SHELL_MSG_VIEWER, RESOURCE_BASE_APP_VENUS_SHELL_MSG_VIEWER = APP_VENUS_SHELL_MSG_VIEWER, RESOURCE_BASE_APP_VENUS_SHELL_MSG_VIEWER_END = APP_VENUS_SHELL_MSG_VIEWER + 50,
    APP_VENUS_NOTEPAPER, RESOURCE_BASE_APP_VENUS_NOTEPAPER = APP_VENUS_NOTEPAPER, RESOURCE_BASE_APP_VENUS_NOTEPAPER_END = APP_VENUS_NOTEPAPER + 50,
    APP_VENUS_SHELL_FC, RESOURCE_BASE_APP_VENUS_SHELL_FC = APP_VENUS_SHELL_FC, RESOURCE_BASE_APP_VENUS_SHELL_FC_END = APP_VENUS_SHELL_FC + 50,
    APP_VENUS_SHELL_SCRLOCK, RESOURCE_BASE_APP_VENUS_SHELL_SCRLOCK = APP_VENUS_SHELL_SCRLOCK, RESOURCE_BASE_APP_VENUS_SHELL_SCRLOCK_END = APP_VENUS_SHELL_SCRLOCK + 10,




    APP_VENUS_HOMESCREEN, RESOURCE_BASE_APP_VENUS_HOMESCREEN = APP_VENUS_HOMESCREEN, RESOURCE_BASE_APP_VENUS_HOMESCREEN_END = APP_VENUS_HOMESCREEN + 100,
# 2824 "../../mmi/inc/mmi_res_range_def.h"
    APP_VENUS_HOMESCREEN_WG_CALENDAR, RESOURCE_BASE_APP_VENUS_HOMESCREEN_WG_CALENDAR = APP_VENUS_HOMESCREEN_WG_CALENDAR, RESOURCE_BASE_APP_VENUS_HOMESCREEN_WG_CALENDAR_END = APP_VENUS_HOMESCREEN_WG_CALENDAR + 20,
    APP_VENUS_HOMESCREEN_WG_DATE, RESOURCE_BASE_APP_VENUS_HOMESCREEN_WG_DATE = APP_VENUS_HOMESCREEN_WG_DATE, RESOURCE_BASE_APP_VENUS_HOMESCREEN_WG_DATE_END = APP_VENUS_HOMESCREEN_WG_DATE + 50,
    APP_VENUS_HOMESCREEN_WG_MEMO, RESOURCE_BASE_APP_VENUS_HOMESCREEN_WG_MEMO = APP_VENUS_HOMESCREEN_WG_MEMO, RESOURCE_BASE_APP_VENUS_HOMESCREEN_WG_MEMO_END = APP_VENUS_HOMESCREEN_WG_MEMO + 10,
    APP_VENUS_HOMESCREEN_WG_CLOCK, RESOURCE_BASE_APP_VENUS_HOMESCREEN_WG_CLOCK = APP_VENUS_HOMESCREEN_WG_CLOCK, RESOURCE_BASE_APP_VENUS_HOMESCREEN_WG_CLOCK_END = APP_VENUS_HOMESCREEN_WG_CLOCK + 200,
    APP_VENUS_HOMESCREEN_WG_PET, RESOURCE_BASE_APP_VENUS_HOMESCREEN_WG_PET = APP_VENUS_HOMESCREEN_WG_PET, RESOURCE_BASE_APP_VENUS_HOMESCREEN_WG_PET_END = APP_VENUS_HOMESCREEN_WG_PET + 50,
    APP_VENUS_HOMESCREEN_WG_SNOW, RESOURCE_BASE_APP_VENUS_HOMESCREEN_WG_SNOW = APP_VENUS_HOMESCREEN_WG_SNOW, RESOURCE_BASE_APP_VENUS_HOMESCREEN_WG_SNOW_END = APP_VENUS_HOMESCREEN_WG_SNOW + 10,
    APP_VENUS_HOMESCREEN_WG_MRE, RESOURCE_BASE_APP_VENUS_HOMESCREEN_WG_MRE = APP_VENUS_HOMESCREEN_WG_MRE, RESOURCE_BASE_APP_VENUS_HOMESCREEN_WG_MRE_END = APP_VENUS_HOMESCREEN_WG_MRE + 10,
    APP_VENUS_HOMESCREEN_WG_PROFILE, RESOURCE_BASE_APP_VENUS_HOMESCREEN_WG_PROFILE = APP_VENUS_HOMESCREEN_WG_PROFILE, RESOURCE_BASE_APP_VENUS_HOMESCREEN_WG_PROFILE_END = APP_VENUS_HOMESCREEN_WG_PROFILE + 25,
    APP_VENUS_HOMESCREEN_WG_OPERATOR_NAME, RESOURCE_BASE_APP_VENUS_HOMESCREEN_WG_OPERATOR_NAME = APP_VENUS_HOMESCREEN_WG_OPERATOR_NAME, RESOURCE_BASE_APP_VENUS_HOMESCREEN_WG_OPERATOR_NAME_END = APP_VENUS_HOMESCREEN_WG_OPERATOR_NAME + 10,
    APP_VENUS_HOMESCREEN_WG_EVENT_INBOX, RESOURCE_BASE_APP_VENUS_HOMESCREEN_WG_EVENT_INBOX = APP_VENUS_HOMESCREEN_WG_EVENT_INBOX, RESOURCE_BASE_APP_VENUS_HOMESCREEN_WG_EVENT_INBOX_END = APP_VENUS_HOMESCREEN_WG_EVENT_INBOX + 10,
    APP_VENUS_HOMESCREEN_WG_NEXT_ALARM, RESOURCE_BASE_APP_VENUS_HOMESCREEN_WG_NEXT_ALARM = APP_VENUS_HOMESCREEN_WG_NEXT_ALARM, RESOURCE_BASE_APP_VENUS_HOMESCREEN_WG_NEXT_ALARM_END = APP_VENUS_HOMESCREEN_WG_NEXT_ALARM + 20,
    APP_VENUS_HS_TODO, RESOURCE_BASE_APP_VENUS_HS_TODO = APP_VENUS_HS_TODO, RESOURCE_BASE_APP_VENUS_HS_TODO_END = APP_VENUS_HS_TODO + 50,
    APP_VENUS_HOMESCREEN_WG_AUDIOPLAYER, RESOURCE_BASE_APP_VENUS_HOMESCREEN_WG_AUDIOPLAYER = APP_VENUS_HOMESCREEN_WG_AUDIOPLAYER, RESOURCE_BASE_APP_VENUS_HOMESCREEN_WG_AUDIOPLAYER_END = APP_VENUS_HOMESCREEN_WG_AUDIOPLAYER + 30,
    APP_VENUS_HOMESCREEN_WG_FMRADIO, RESOURCE_BASE_APP_VENUS_HOMESCREEN_WG_FMRADIO = APP_VENUS_HOMESCREEN_WG_FMRADIO, RESOURCE_BASE_APP_VENUS_HOMESCREEN_WG_FMRADIO_END = APP_VENUS_HOMESCREEN_WG_FMRADIO + 30,
    APP_VENUS_HOMESCREEN_WG_PHOTO, RESOURCE_BASE_APP_VENUS_HOMESCREEN_WG_PHOTO = APP_VENUS_HOMESCREEN_WG_PHOTO, RESOURCE_BASE_APP_VENUS_HOMESCREEN_WG_PHOTO_END = APP_VENUS_HOMESCREEN_WG_PHOTO + 30,
    SRV_CALLLOG, RESOURCE_BASE_SRV_CALLLOG = SRV_CALLLOG, RESOURCE_BASE_SRV_CALLLOG_END = SRV_CALLLOG + 20,

    APP_OP11_HS32, RESOURCE_BASE_APP_OP11_HS32 = APP_OP11_HS32, RESOURCE_BASE_APP_OP11_HS32_END = APP_OP11_HS32 + 300,
    APP_VENUS_HS_WG_BKM, RESOURCE_BASE_APP_VENUS_HS_WG_BKM = APP_VENUS_HS_WG_BKM, RESOURCE_BASE_APP_VENUS_HS_WG_BKM_END = APP_VENUS_HS_WG_BKM + 20,
    APP_IMAGEFLOW, RESOURCE_BASE_APP_IMAGEFLOW = APP_IMAGEFLOW, RESOURCE_BASE_APP_IMAGEFLOW_END = APP_IMAGEFLOW + 20,
    APP_VENUS_HS_WG_BAIDU, RESOURCE_BASE_APP_VENUS_HS_WG_BAIDU = APP_VENUS_HS_WG_BAIDU, RESOURCE_BASE_APP_VENUS_HS_WG_BAIDU_END = APP_VENUS_HS_WG_BAIDU + 30,
    APP_SIM_ME_LOCK, RESOURCE_BASE_APP_SIM_ME_LOCK = APP_SIM_ME_LOCK, RESOURCE_BASE_APP_SIM_ME_LOCK_END = APP_SIM_ME_LOCK + 50,
    APP_NMC, RESOURCE_BASE_APP_NMC = APP_NMC, RESOURCE_BASE_APP_NMC_END = APP_NMC + 50,
    APP_MOBILEVIDEO, RESOURCE_BASE_APP_MOBILEVIDEO = APP_MOBILEVIDEO, RESOURCE_BASE_APP_MOBILEVIDEO_END = APP_MOBILEVIDEO + 50,
    SRV_IMGEDT, RESOURCE_BASE_SRV_IMGEDT = SRV_IMGEDT, RESOURCE_BASE_SRV_IMGEDT_END = SRV_IMGEDT + 30,


    APP_CB_MGR, RESOURCE_BASE_APP_CB_MGR = APP_CB_MGR, RESOURCE_BASE_APP_CB_MGR_END = APP_CB_MGR + 3,




    APP_APPMGR_TEST_1, RESOURCE_BASE_APP_APPMGR_TEST_1 = APP_APPMGR_TEST_1, RESOURCE_BASE_APP_APPMGR_TEST_1_END = APP_APPMGR_TEST_1 + 5,
    APP_APPMGR_TEST_2, RESOURCE_BASE_APP_APPMGR_TEST_2 = APP_APPMGR_TEST_2, RESOURCE_BASE_APP_APPMGR_TEST_2_END = APP_APPMGR_TEST_2 + 5,
    APP_APPMGR_TEST_3, RESOURCE_BASE_APP_APPMGR_TEST_3 = APP_APPMGR_TEST_3, RESOURCE_BASE_APP_APPMGR_TEST_3_END = APP_APPMGR_TEST_3 + 5,
    APP_APPMGR_TEST_4, RESOURCE_BASE_APP_APPMGR_TEST_4 = APP_APPMGR_TEST_4, RESOURCE_BASE_APP_APPMGR_TEST_4_END = APP_APPMGR_TEST_4 + 5,
    APP_AUTO_ROTATE, RESOURCE_BASE_APP_AUTO_ROTATE = APP_AUTO_ROTATE, RESOURCE_BASE_APP_AUTO_ROTATE_END = APP_AUTO_ROTATE + 10,
    FW_NVRAM_MGR, RESOURCE_BASE_FW_NVRAM_MGR = FW_NVRAM_MGR, RESOURCE_BASE_FW_NVRAM_MGR_END = FW_NVRAM_MGR + 10,
    SRV_REMINDER, RESOURCE_BASE_SRV_REMINDER = SRV_REMINDER, RESOURCE_BASE_SRV_REMINDER_END = SRV_REMINDER + 30,
    SRV_TODOLIST, RESOURCE_BASE_SRV_TODOLIST = SRV_TODOLIST, RESOURCE_BASE_SRV_TODOLIST_END = SRV_TODOLIST + 20,
    SRV_SOUNDREC, RESOURCE_BASE_SRV_SOUNDREC = SRV_SOUNDREC, RESOURCE_BASE_SRV_SOUNDREC_END = SRV_SOUNDREC + 10,



    SRV_BROWSER, RESOURCE_BASE_SRV_BROWSER = SRV_BROWSER, RESOURCE_BASE_SRV_BROWSER_END = SRV_BROWSER + 50,
    SRV_PUSH, RESOURCE_BASE_SRV_PUSH = SRV_PUSH, RESOURCE_BASE_SRV_PUSH_END = SRV_PUSH + 50,
    SRV_MDI_VDOREC, RESOURCE_BASE_SRV_MDI_VDOREC = SRV_MDI_VDOREC, RESOURCE_BASE_SRV_MDI_VDOREC_END = SRV_MDI_VDOREC + 2,
    SRV_MDI_VDOREC_CIF, RESOURCE_BASE_SRV_MDI_VDOREC_CIF = SRV_MDI_VDOREC_CIF, RESOURCE_BASE_SRV_MDI_VDOREC_CIF_END = SRV_MDI_VDOREC_CIF + 2,
    APP_SDK_TEST, RESOURCE_BASE_APP_SDK_TEST = APP_SDK_TEST, RESOURCE_BASE_APP_SDK_TEST_END = APP_SDK_TEST + 900,

    APP_SIMSPACE, RESOURCE_BASE_APP_SIMSPACE = APP_SIMSPACE, RESOURCE_BASE_APP_SIMSPACE_END = APP_SIMSPACE + 20,
    SRV_DATETIME, RESOURCE_BASE_SRV_DATETIME = SRV_DATETIME, RESOURCE_BASE_SRV_DATETIME_END = SRV_DATETIME + 10,
    CUI_SIM_SEL, RESOURCE_BASE_CUI_SIM_SEL = CUI_SIM_SEL, RESOURCE_BASE_CUI_SIM_SEL_END = CUI_SIM_SEL + 10,
    APP_DISPLAY_RESOURCE, RESOURCE_BASE_APP_DISPLAY_RESOURCE = APP_DISPLAY_RESOURCE, RESOURCE_BASE_APP_DISPLAY_RESOURCE_END = APP_DISPLAY_RESOURCE + 200,
    SRV_RESTORE, RESOURCE_BASE_SRV_RESTORE = SRV_RESTORE, RESOURCE_BASE_SRV_RESTORE_END = SRV_RESTORE + 10,
    SRV_INPUT_METHOD, RESOURCE_BASE_SRV_INPUT_METHOD = SRV_INPUT_METHOD, RESOURCE_BASE_SRV_INPUT_METHOD_END = SRV_INPUT_METHOD + 200,






    APP_139, RESOURCE_BASE_APP_139 = APP_139, RESOURCE_BASE_APP_139_END = APP_139 + 300,
    SRV_ALARM, RESOURCE_BASE_SRV_ALARM = SRV_ALARM, RESOURCE_BASE_SRV_ALARM_END = SRV_ALARM + 10,



    SRV_TETHERING, RESOURCE_BASE_SRV_TETHERING = SRV_TETHERING, RESOURCE_BASE_SRV_TETHERING_END = SRV_TETHERING + 40,
    SRV_PHB, RESOURCE_BASE_SRV_PHB = SRV_PHB, RESOURCE_BASE_SRV_PHB_END = SRV_PHB + 50,
    SRV_PUSH_SWITCH, RESOURCE_BASE_SRV_PUSH_SWITCH = SRV_PUSH_SWITCH, RESOURCE_BASE_SRV_PUSH_SWITCH_END = SRV_PUSH_SWITCH + 5,
    SRV_GDI, RESOURCE_BASE_SRV_GDI = SRV_GDI, RESOURCE_BASE_SRV_GDI_END = SRV_GDI + 128,
    SRV_NITZ, RESOURCE_BASE_SRV_NITZ = SRV_NITZ, RESOURCE_BASE_SRV_NITZ_END = SRV_NITZ + 10,
    APP_EM_MULTI_TOUCH_TEST, RESOURCE_BASE_APP_EM_MULTI_TOUCH_TEST = APP_EM_MULTI_TOUCH_TEST, RESOURCE_BASE_APP_EM_MULTI_TOUCH_TEST_END = APP_EM_MULTI_TOUCH_TEST + 10,
    APP_ALIPAY_ADP, RESOURCE_BASE_APP_ALIPAY_ADP = APP_ALIPAY_ADP, RESOURCE_BASE_APP_ALIPAY_ADP_END = APP_ALIPAY_ADP + 100,
    CUI_ALERT, RESOURCE_BASE_CUI_ALERT = CUI_ALERT, RESOURCE_BASE_CUI_ALERT_END = CUI_ALERT + 2,
    SRV_DM, RESOURCE_BASE_SRV_DM = SRV_DM, RESOURCE_BASE_SRV_DM_END = SRV_DM + 100,
    SRV_DM_SR, RESOURCE_BASE_SRV_DM_SR = SRV_DM_SR, RESOURCE_BASE_SRV_DM_SR_END = SRV_DM_SR + 10,
    SRV_DATALOCK, RESOURCE_BASE_SRV_DATALOCK = SRV_DATALOCK, RESOURCE_BASE_SRV_DATALOCK_END = SRV_DATALOCK + 10,



    SRV_CNMGR, RESOURCE_BASE_SRV_CNMGR = SRV_CNMGR, RESOURCE_BASE_SRV_CNMGR_END = SRV_CNMGR + 10,
    SRV_APPMGR, RESOURCE_BASE_SRV_APPMGR = SRV_APPMGR, RESOURCE_BASE_SRV_APPMGR_END = SRV_APPMGR + 10,



    CUI_USE_DETAIL, RESOURCE_BASE_CUI_USE_DETAIL = CUI_USE_DETAIL, RESOURCE_BASE_CUI_USE_DETAIL_END = CUI_USE_DETAIL + 50,
        APP_FONT_EFFECTS, RESOURCE_BASE_APP_FONT_EFFECTS = APP_FONT_EFFECTS, RESOURCE_BASE_APP_FONT_EFFECTS_END = APP_FONT_EFFECTS + 60,
    VAPP_VIDEO_PLAYER_CP, RESOURCE_BASE_VAPP_VIDEO_PLAYER_CP = VAPP_VIDEO_PLAYER_CP, RESOURCE_BASE_VAPP_VIDEO_PLAYER_CP_END = VAPP_VIDEO_PLAYER_CP + 10,
# 2940 "../../mmi/inc/mmi_res_range_def.h"
    SRV_SAFE_MODE, RESOURCE_BASE_SRV_SAFE_MODE = SRV_SAFE_MODE, RESOURCE_BASE_SRV_SAFE_MODE_END = SRV_SAFE_MODE + 5,
    CORE_UCM, RESOURCE_BASE_CORE_UCM = CORE_UCM, RESOURCE_BASE_CORE_UCM_END = CORE_UCM + 30,
# 2954 "../../mmi/inc/mmi_res_range_def.h"
    SRV_VENUS_THEME, RESOURCE_BASE_SRV_VENUS_THEME = SRV_VENUS_THEME, RESOURCE_BASE_SRV_VENUS_THEME_END = SRV_VENUS_THEME + 3,
    APP_AM, RESOURCE_BASE_APP_AM = APP_AM, RESOURCE_BASE_APP_AM_END = APP_AM + 200,







    APP_GB_WINGUO, RESOURCE_BASE_APP_GB_WINGUO = APP_GB_WINGUO, RESOURCE_BASE_APP_GB_WINGUO_END = APP_GB_WINGUO + 300,
    APP_GB_WINGUO_NET, RESOURCE_BASE_APP_GB_WINGUO_NET = APP_GB_WINGUO_NET, RESOURCE_BASE_APP_GB_WINGUO_NET_END = APP_GB_WINGUO_NET + 10,
# 2978 "../../mmi/inc/mmi_res_range_def.h"
    APP_FLASHLIGHT, RESOURCE_BASE_APP_FLASHLIGHT = APP_FLASHLIGHT, RESOURCE_BASE_APP_FLASHLIGHT_END = APP_FLASHLIGHT + 10,







    SRV_FULLSCREEN_EDITOR, RESOURCE_BASE_SRV_FULLSCREEN_EDITOR = SRV_FULLSCREEN_EDITOR, RESOURCE_BASE_SRV_FULLSCREEN_EDITOR_END = SRV_FULLSCREEN_EDITOR + 10,





        APP_THREEDO, RESOURCE_BASE_APP_THREEDO = APP_THREEDO, RESOURCE_BASE_APP_THREEDO_END = APP_THREEDO + 200,




# 1 "../../mmi/inc/mmi_pluto_res_range_def.h" 1
# 759 "../../mmi/inc/mmi_pluto_res_range_def.h"
APP_BLUETOOTH, RESOURCE_BASE_APP_BLUETOOTH = APP_BLUETOOTH, RESOURCE_BASE_APP_BLUETOOTH_END = APP_BLUETOOTH + 450,
# 776 "../../mmi/inc/mmi_pluto_res_range_def.h"
APP_BOOTUP, RESOURCE_BASE_APP_BOOTUP = APP_BOOTUP, RESOURCE_BASE_APP_BOOTUP_END = APP_BOOTUP + 200,





APP_NW_INFO, RESOURCE_BASE_APP_NW_INFO = APP_NW_INFO, RESOURCE_BASE_APP_NW_INFO_END = APP_NW_INFO + 20,






APP_SIM_CTRL, RESOURCE_BASE_APP_SIM_CTRL = APP_SIM_CTRL, RESOURCE_BASE_APP_SIM_CTRL_END = APP_SIM_CTRL + 20,





APP_SHUTDOWN, RESOURCE_BASE_APP_SHUTDOWN = APP_SHUTDOWN, RESOURCE_BASE_APP_SHUTDOWN_END = APP_SHUTDOWN + 50,




APP_SECURITY_SETTING, RESOURCE_BASE_APP_SECURITY_SETTING = APP_SECURITY_SETTING, RESOURCE_BASE_APP_SECURITY_SETTING_END = APP_SECURITY_SETTING + 150,




CUI_VERIFY, RESOURCE_BASE_CUI_VERIFY = CUI_VERIFY, RESOURCE_BASE_CUI_VERIFY_END = CUI_VERIFY + 20,





CUI_PASSWORD, RESOURCE_BASE_CUI_PASSWORD = CUI_PASSWORD, RESOURCE_BASE_CUI_PASSWORD_END = CUI_PASSWORD + 30,






APP_CAMERA, RESOURCE_BASE_APP_CAMERA = APP_CAMERA, RESOURCE_BASE_APP_CAMERA_END = APP_CAMERA + 600,
# 829 "../../mmi/inc/mmi_pluto_res_range_def.h"
APP_IMAGEVIEWER, RESOURCE_BASE_APP_IMAGEVIEWER = APP_IMAGEVIEWER, RESOURCE_BASE_APP_IMAGEVIEWER_END = APP_IMAGEVIEWER + 300,

CUI_IMAGEVIEWER, RESOURCE_BASE_CUI_IMAGEVIEWER = CUI_IMAGEVIEWER, RESOURCE_BASE_CUI_IMAGEVIEWER_END = CUI_IMAGEVIEWER + 30,
# 841 "../../mmi/inc/mmi_pluto_res_range_def.h"
CUI_TONESELECTOR, RESOURCE_BASE_CUI_TONESELECTOR = CUI_TONESELECTOR, RESOURCE_BASE_CUI_TONESELECTOR_END = CUI_TONESELECTOR + 10,







APP_SOUNDRECORDER, RESOURCE_BASE_APP_SOUNDRECORDER = APP_SOUNDRECORDER, RESOURCE_BASE_APP_SOUNDRECORDER_END = APP_SOUNDRECORDER + 300,
# 876 "../../mmi/inc/mmi_pluto_res_range_def.h"
APP_FMRDO, RESOURCE_BASE_APP_FMRDO = APP_FMRDO, RESOURCE_BASE_APP_FMRDO_END = APP_FMRDO + 300,
# 893 "../../mmi/inc/mmi_pluto_res_range_def.h"
APP_AUDIOPLAYER, RESOURCE_BASE_APP_AUDIOPLAYER = APP_AUDIOPLAYER, RESOURCE_BASE_APP_AUDIOPLAYER_END = APP_AUDIOPLAYER + 500,



APP_SINGLE_AUDIO, RESOURCE_BASE_APP_SINGLE_AUDIO = APP_SINGLE_AUDIO, RESOURCE_BASE_APP_SINGLE_AUDIO_END = APP_SINGLE_AUDIO + 1,

APP_MEDPLY_SINGLE, RESOURCE_BASE_APP_MEDPLY_SINGLE = APP_MEDPLY_SINGLE, RESOURCE_BASE_APP_MEDPLY_SINGLE_END = APP_MEDPLY_SINGLE + (2),
# 927 "../../mmi/inc/mmi_pluto_res_range_def.h"
APP_BGSOUND, RESOURCE_BASE_APP_BGSOUND = APP_BGSOUND, RESOURCE_BASE_APP_BGSOUND_END = APP_BGSOUND + 200,






APP_WEBCAM, RESOURCE_BASE_APP_WEBCAM = APP_WEBCAM, RESOURCE_BASE_APP_WEBCAM_END = APP_WEBCAM + 10,




  APP_CAMCO, RESOURCE_BASE_APP_CAMCO = APP_CAMCO, RESOURCE_BASE_APP_CAMCO_END = APP_CAMCO + 1000,






CUI_CAMERACUI, RESOURCE_BASE_CUI_CAMERACUI = CUI_CAMERACUI, RESOURCE_BASE_CUI_CAMERACUI_END = CUI_CAMERACUI + 10,






APP_WORLDCLOCK, RESOURCE_BASE_APP_WORLDCLOCK = APP_WORLDCLOCK, RESOURCE_BASE_APP_WORLDCLOCK_END = APP_WORLDCLOCK + 200,







APP_CALLSET, RESOURCE_BASE_APP_CALLSET = APP_CALLSET, RESOURCE_BASE_APP_CALLSET_END = APP_CALLSET + 150,
# 970 "../../mmi/inc/mmi_pluto_res_range_def.h"
APP_SS, RESOURCE_BASE_APP_SS = APP_SS, RESOURCE_BASE_APP_SS_END = APP_SS + 50,







CUI_IMAGE_CLIP, RESOURCE_BASE_CUI_IMAGE_CLIP = CUI_IMAGE_CLIP, RESOURCE_BASE_CUI_IMAGE_CLIP_END = CUI_IMAGE_CLIP + 50,






APP_CTM, RESOURCE_BASE_APP_CTM = APP_CTM, RESOURCE_BASE_APP_CTM_END = APP_CTM + 20,






APP_APN_CONTROL, RESOURCE_BASE_APP_APN_CONTROL = APP_APN_CONTROL, RESOURCE_BASE_APP_APN_CONTROL_END = APP_APN_CONTROL + 50,
# 1008 "../../mmi/inc/mmi_pluto_res_range_def.h"
APP_MMI_CERTMAN, RESOURCE_BASE_APP_MMI_CERTMAN = APP_MMI_CERTMAN, RESOURCE_BASE_APP_MMI_CERTMAN_END = APP_MMI_CERTMAN + 200,
# 1032 "../../mmi/inc/mmi_pluto_res_range_def.h"
APP_DATAACCOUNT, RESOURCE_BASE_APP_DATAACCOUNT = APP_DATAACCOUNT, RESOURCE_BASE_APP_DATAACCOUNT_END = APP_DATAACCOUNT + 300,
# 1056 "../../mmi/inc/mmi_pluto_res_range_def.h"
APP_UNITCONVERTER, RESOURCE_BASE_APP_UNITCONVERTER = APP_UNITCONVERTER, RESOURCE_BASE_APP_UNITCONVERTER_END = APP_UNITCONVERTER + 100,






APP_CURRENCYCONVERTER, RESOURCE_BASE_APP_CURRENCYCONVERTER = APP_CURRENCYCONVERTER, RESOURCE_BASE_APP_CURRENCYCONVERTER_END = APP_CURRENCYCONVERTER + 50,






APP_HEALTH, RESOURCE_BASE_APP_HEALTH = APP_HEALTH, RESOURCE_BASE_APP_HEALTH_END = APP_HEALTH + 10,






APP_HEALTHMENSTRUAL, RESOURCE_BASE_APP_HEALTHMENSTRUAL = APP_HEALTHMENSTRUAL, RESOURCE_BASE_APP_HEALTHMENSTRUAL_END = APP_HEALTHMENSTRUAL + 50,






APP_HEALTHBMI, RESOURCE_BASE_APP_HEALTHBMI = APP_HEALTHBMI, RESOURCE_BASE_APP_HEALTHBMI_END = APP_HEALTHBMI + 50,
# 1128 "../../mmi/inc/mmi_pluto_res_range_def.h"
APP_CALLLOG, RESOURCE_BASE_APP_CALLLOG = APP_CALLLOG, RESOURCE_BASE_APP_CALLLOG_END = APP_CALLLOG + 130,






APP_MSPACE, RESOURCE_BASE_APP_MSPACE = APP_MSPACE, RESOURCE_BASE_APP_MSPACE_END = APP_MSPACE + 200,







APP_PROFILES, RESOURCE_BASE_APP_PROFILES = APP_PROFILES, RESOURCE_BASE_APP_PROFILES_END = APP_PROFILES + 230,






APP_FILEMANAGER, RESOURCE_BASE_APP_FILEMANAGER = APP_FILEMANAGER, RESOURCE_BASE_APP_FILEMANAGER_END = APP_FILEMANAGER + 200,






APP_FILEMANAGER_OTHER, RESOURCE_BASE_APP_FILEMANAGER_OTHER = APP_FILEMANAGER_OTHER, RESOURCE_BASE_APP_FILEMANAGER_OTHER_END = APP_FILEMANAGER_OTHER + 200,






SRV_SCREENSAVER, RESOURCE_BASE_SRV_SCREENSAVER = SRV_SCREENSAVER, RESOURCE_BASE_SRV_SCREENSAVER_END = SRV_SCREENSAVER + 100,






SRV_WALLPAPER, RESOURCE_BASE_SRV_WALLPAPER = SRV_WALLPAPER, RESOURCE_BASE_SRV_WALLPAPER_END = SRV_WALLPAPER + 100,






SRV_SPOF, RESOURCE_BASE_SRV_SPOF = SRV_SPOF, RESOURCE_BASE_SRV_SPOF_END = SRV_SPOF + 100,






SRV_PHNSET_ONOFF, RESOURCE_BASE_SRV_PHNSET_ONOFF = SRV_PHNSET_ONOFF, RESOURCE_BASE_SRV_PHNSET_ONOFF_END = SRV_PHNSET_ONOFF + 100,







SRV_FLIGHT_MODE, RESOURCE_BASE_SRV_FLIGHT_MODE = SRV_FLIGHT_MODE, RESOURCE_BASE_SRV_FLIGHT_MODE_END = SRV_FLIGHT_MODE + 100,







SRV_LANG_SETTINGS, RESOURCE_BASE_SRV_LANG_SETTINGS = SRV_LANG_SETTINGS, RESOURCE_BASE_SRV_LANG_SETTINGS_END = SRV_LANG_SETTINGS + 10,






APP_SETTINGS, RESOURCE_BASE_APP_SETTINGS = APP_SETTINGS, RESOURCE_BASE_APP_SETTINGS_END = APP_SETTINGS + 500,






APP_PHONESETUP, RESOURCE_BASE_APP_PHONESETUP = APP_PHONESETUP, RESOURCE_BASE_APP_PHONESETUP_END = APP_PHONESETUP + 200,






APP_CALIBRATION, RESOURCE_BASE_APP_CALIBRATION = APP_CALIBRATION, RESOURCE_BASE_APP_CALIBRATION_END = APP_CALIBRATION + 10,



APP_SETTING_NEW, RESOURCE_BASE_APP_SETTING_NEW = APP_SETTING_NEW, RESOURCE_BASE_APP_SETTING_NEW_END = APP_SETTING_NEW + 100,



APP_PHONESETTING_NEW, RESOURCE_BASE_APP_PHONESETTING_NEW = APP_PHONESETTING_NEW, RESOURCE_BASE_APP_PHONESETTING_NEW_END = APP_PHONESETTING_NEW + 200,






APP_RESTORE, RESOURCE_BASE_APP_RESTORE = APP_RESTORE, RESOURCE_BASE_APP_RESTORE_END = APP_RESTORE + 10,







APP_NETSET, RESOURCE_BASE_APP_NETSET = APP_NETSET, RESOURCE_BASE_APP_NETSET_END = APP_NETSET + 200,
# 1254 "../../mmi/inc/mmi_pluto_res_range_def.h"
APP_MODE_SWITCH, RESOURCE_BASE_APP_MODE_SWITCH = APP_MODE_SWITCH, RESOURCE_BASE_APP_MODE_SWITCH_END = APP_MODE_SWITCH + 200,







APP_SETTING_MENU_EFFECT, RESOURCE_BASE_APP_SETTING_MENU_EFFECT = APP_SETTING_MENU_EFFECT, RESOURCE_BASE_APP_SETTING_MENU_EFFECT_END = APP_SETTING_MENU_EFFECT + 20,






APP_SETTING_DOWNLOAD_CAL_DATA, RESOURCE_BASE_APP_SETTING_DOWNLOAD_CAL_DATA = APP_SETTING_DOWNLOAD_CAL_DATA, RESOURCE_BASE_APP_SETTING_DOWNLOAD_CAL_DATA_END = APP_SETTING_DOWNLOAD_CAL_DATA + 10,






APP_NFC, RESOURCE_BASE_APP_NFC = APP_NFC, RESOURCE_BASE_APP_NFC_END = APP_NFC + 20,







APP_SAT, RESOURCE_BASE_APP_SAT = APP_SAT, RESOURCE_BASE_APP_SAT_END = APP_SAT + 20,
# 1293 "../../mmi/inc/mmi_pluto_res_range_def.h"
APP_SERVICES_SAT, RESOURCE_BASE_APP_SERVICES_SAT = APP_SERVICES_SAT, RESOURCE_BASE_APP_SERVICES_SAT_END = APP_SERVICES_SAT + 10,
# 1314 "../../mmi/inc/mmi_pluto_res_range_def.h"
APP_DCD, RESOURCE_BASE_APP_DCD = APP_DCD, RESOURCE_BASE_APP_DCD_END = APP_DCD + 150,






APP_MOBILE_SERVICE, RESOURCE_BASE_APP_MOBILE_SERVICE = APP_MOBILE_SERVICE, RESOURCE_BASE_APP_MOBILE_SERVICE_END = APP_MOBILE_SERVICE + 100,






APP_CUSTOMER_SERVICE, RESOURCE_BASE_APP_CUSTOMER_SERVICE = APP_CUSTOMER_SERVICE, RESOURCE_BASE_APP_CUSTOMER_SERVICE_END = APP_CUSTOMER_SERVICE + 100,






APP_SETTING_VERSION, RESOURCE_BASE_APP_SETTING_VERSION = APP_SETTING_VERSION, RESOURCE_BASE_APP_SETTING_VERSION_END = APP_SETTING_VERSION + 10,






APP_PUSH_SWITCH, RESOURCE_BASE_APP_PUSH_SWITCH = APP_PUSH_SWITCH, RESOURCE_BASE_APP_PUSH_SWITCH_END = APP_PUSH_SWITCH + 10,






APP_DATA_SERVICE, RESOURCE_BASE_APP_DATA_SERVICE = APP_DATA_SERVICE, RESOURCE_BASE_APP_DATA_SERVICE_END = APP_DATA_SERVICE + 10,







APP_SHORTCUTS, RESOURCE_BASE_APP_SHORTCUTS = APP_SHORTCUTS, RESOURCE_BASE_APP_SHORTCUTS_END = APP_SHORTCUTS + 50,
# 1391 "../../mmi/inc/mmi_pluto_res_range_def.h"
APP_VENUS_HOMESCREEN_WG_MOBILE_INTERNET, RESOURCE_BASE_APP_VENUS_HOMESCREEN_WG_MOBILE_INTERNET = APP_VENUS_HOMESCREEN_WG_MOBILE_INTERNET, RESOURCE_BASE_APP_VENUS_HOMESCREEN_WG_MOBILE_INTERNET_END = APP_VENUS_HOMESCREEN_WG_MOBILE_INTERNET + 10,




APP_VENUS_HOMESCREEN_WG_WO_STORE, RESOURCE_BASE_APP_VENUS_HOMESCREEN_WG_WO_STORE = APP_VENUS_HOMESCREEN_WG_WO_STORE, RESOURCE_BASE_APP_VENUS_HOMESCREEN_WG_WO_STORE_END = APP_VENUS_HOMESCREEN_WG_WO_STORE + 10,




APP_EBOOK, RESOURCE_BASE_APP_EBOOK = APP_EBOOK, RESOURCE_BASE_APP_EBOOK_END = APP_EBOOK + 200,






APP_CALCULATOR, RESOURCE_BASE_APP_CALCULATOR = APP_CALCULATOR, RESOURCE_BASE_APP_CALCULATOR_END = APP_CALCULATOR + 50,






SRV_SYNCML, RESOURCE_BASE_SRV_SYNCML = SRV_SYNCML, RESOURCE_BASE_SRV_SYNCML_END = SRV_SYNCML + 300,




APP_SYNCML, RESOURCE_BASE_APP_SYNCML = APP_SYNCML, RESOURCE_BASE_APP_SYNCML_END = APP_SYNCML + 10,






SRV_MMI_THEME, RESOURCE_BASE_SRV_MMI_THEME = SRV_MMI_THEME, RESOURCE_BASE_SRV_MMI_THEME_END = SRV_MMI_THEME + 100,







APP_SWFLASH, RESOURCE_BASE_APP_SWFLASH = APP_SWFLASH, RESOURCE_BASE_APP_SWFLASH_END = APP_SWFLASH + 1,
APP_AVATAR, RESOURCE_BASE_APP_AVATAR = APP_AVATAR, RESOURCE_BASE_APP_AVATAR_END = APP_AVATAR + 1,





APP_CBS, RESOURCE_BASE_APP_CBS = APP_CBS, RESOURCE_BASE_APP_CBS_END = APP_CBS + 300,






APP_ALARM, RESOURCE_BASE_APP_ALARM = APP_ALARM, RESOURCE_BASE_APP_ALARM_END = APP_ALARM + 50,






APP_NITZ, RESOURCE_BASE_APP_NITZ = APP_NITZ, RESOURCE_BASE_APP_NITZ_END = APP_NITZ + 20,






APP_NTP, RESOURCE_BASE_APP_NTP = APP_NTP, RESOURCE_BASE_APP_NTP_END = APP_NTP + 20,






APP_CONNECTMANAGE, RESOURCE_BASE_APP_CONNECTMANAGE = APP_CONNECTMANAGE, RESOURCE_BASE_APP_CONNECTMANAGE_END = APP_CONNECTMANAGE + 100,




APP_ORGANIZER, RESOURCE_BASE_APP_ORGANIZER = APP_ORGANIZER, RESOURCE_BASE_APP_ORGANIZER_END = APP_ORGANIZER + 50,




APP_CALENDAR, RESOURCE_BASE_APP_CALENDAR = APP_CALENDAR, RESOURCE_BASE_APP_CALENDAR_END = APP_CALENDAR + 300,






APP_TODOLIST, RESOURCE_BASE_APP_TODOLIST = APP_TODOLIST, RESOURCE_BASE_APP_TODOLIST_END = APP_TODOLIST + 200,






APP_LUNAR_QUERY, RESOURCE_BASE_APP_LUNAR_QUERY = APP_LUNAR_QUERY, RESOURCE_BASE_APP_LUNAR_QUERY_END = APP_LUNAR_QUERY + 200,






APP_NOTE, RESOURCE_BASE_APP_NOTE = APP_NOTE, RESOURCE_BASE_APP_NOTE_END = APP_NOTE + 100,






APP_UDX, RESOURCE_BASE_APP_UDX = APP_UDX, RESOURCE_BASE_APP_UDX_END = APP_UDX + 100,






APP_DIALER, RESOURCE_BASE_APP_DIALER = APP_DIALER, RESOURCE_BASE_APP_DIALER_END = APP_DIALER + 10,






APP_BT_DIALER, RESOURCE_BASE_APP_BT_DIALER = APP_BT_DIALER, RESOURCE_BASE_APP_BT_DIALER_END = APP_BT_DIALER + 30,







SRV_VOBJECT, RESOURCE_BASE_SRV_VOBJECT = SRV_VOBJECT, RESOURCE_BASE_SRV_VOBJECT_END = SRV_VOBJECT + 50,






SRV_VCALENDAR, RESOURCE_BASE_SRV_VCALENDAR = SRV_VCALENDAR, RESOURCE_BASE_SRV_VCALENDAR_END = SRV_VCALENDAR + 50,



SRV_VCARD, RESOURCE_BASE_SRV_VCARD = SRV_VCARD, RESOURCE_BASE_SRV_VCARD_END = SRV_VCARD + 50,






SRV_VBOOKMARK, RESOURCE_BASE_SRV_VBOOKMARK = SRV_VBOOKMARK, RESOURCE_BASE_SRV_VBOOKMARK_END = SRV_VBOOKMARK + 50,






APP_AZAAN_ALARM, RESOURCE_BASE_APP_AZAAN_ALARM = APP_AZAAN_ALARM, RESOURCE_BASE_APP_AZAAN_ALARM_END = APP_AZAAN_ALARM + 100,






APP_HIJRI_CALENDAR, RESOURCE_BASE_APP_HIJRI_CALENDAR = APP_HIJRI_CALENDAR, RESOURCE_BASE_APP_HIJRI_CALENDAR_END = APP_HIJRI_CALENDAR + 150,






APP_INDICAL, RESOURCE_BASE_APP_INDICAL = APP_INDICAL, RESOURCE_BASE_APP_INDICAL_END = APP_INDICAL + 150,
# 1585 "../../mmi/inc/mmi_pluto_res_range_def.h"
APP_UCM, RESOURCE_BASE_APP_UCM = APP_UCM, RESOURCE_BASE_APP_UCM_END = APP_UCM + 200,






APP_UCMBT, RESOURCE_BASE_APP_UCMBT = APP_UCMBT, RESOURCE_BASE_APP_UCMBT_END = APP_UCMBT + 200,







CUI_BKM, RESOURCE_BASE_CUI_BKM = CUI_BKM, RESOURCE_BASE_CUI_BKM_END = CUI_BKM + 10,






APP_TETHERING, RESOURCE_BASE_APP_TETHERING = APP_TETHERING, RESOURCE_BASE_APP_TETHERING_END = APP_TETHERING + 20,




APP_REMINDER, RESOURCE_BASE_APP_REMINDER = APP_REMINDER, RESOURCE_BASE_APP_REMINDER_END = APP_REMINDER + 10,







APP_SMS, RESOURCE_BASE_APP_SMS = APP_SMS, RESOURCE_BASE_APP_SMS_END = APP_SMS + 500,
# 1637 "../../mmi/inc/mmi_pluto_res_range_def.h"
APP_VDOPLY, RESOURCE_BASE_APP_VDOPLY = APP_VDOPLY, RESOURCE_BASE_APP_VDOPLY_END = APP_VDOPLY + 500,
# 1654 "../../mmi/inc/mmi_pluto_res_range_def.h"
APP_VDOREC, RESOURCE_BASE_APP_VDOREC = APP_VDOREC, RESOURCE_BASE_APP_VDOREC_END = APP_VDOREC + 400,
# 1670 "../../mmi/inc/mmi_pluto_res_range_def.h"
APP_CSB, RESOURCE_BASE_APP_CSB = APP_CSB, RESOURCE_BASE_APP_CSB_END = APP_CSB + 100,







APP_UNIFIEDMESSAGE, RESOURCE_BASE_APP_UNIFIEDMESSAGE = APP_UNIFIEDMESSAGE, RESOURCE_BASE_APP_UNIFIEDMESSAGE_END = APP_UNIFIEDMESSAGE + 150,
# 1694 "../../mmi/inc/mmi_pluto_res_range_def.h"
APP_SEARCH_WEB, RESOURCE_BASE_APP_SEARCH_WEB = APP_SEARCH_WEB, RESOURCE_BASE_APP_SEARCH_WEB_END = APP_SEARCH_WEB + 100,
# 1709 "../../mmi/inc/mmi_pluto_res_range_def.h"
APP_PHOEDT, RESOURCE_BASE_APP_PHOEDT = APP_PHOEDT, RESOURCE_BASE_APP_PHOEDT_END = APP_PHOEDT + 300,
# 1726 "../../mmi/inc/mmi_pluto_res_range_def.h"
APP_MAINMENU, RESOURCE_BASE_APP_MAINMENU = APP_MAINMENU, RESOURCE_BASE_APP_MAINMENU_END = APP_MAINMENU + 300,
# 1751 "../../mmi/inc/mmi_pluto_res_range_def.h"
APP_SOUNDEFFECT, RESOURCE_BASE_APP_SOUNDEFFECT = APP_SOUNDEFFECT, RESOURCE_BASE_APP_SOUNDEFFECT_END = APP_SOUNDEFFECT + 50,




APP_USBMMI, RESOURCE_BASE_APP_USBMMI = APP_USBMMI, RESOURCE_BASE_APP_USBMMI_END = APP_USBMMI + 30,




APP_VIEWSETTING, RESOURCE_BASE_APP_VIEWSETTING = APP_VIEWSETTING, RESOURCE_BASE_APP_VIEWSETTING_END = APP_VIEWSETTING + 10,







APP_TTS_SETTING, RESOURCE_BASE_APP_TTS_SETTING = APP_TTS_SETTING, RESOURCE_BASE_APP_TTS_SETTING_END = APP_TTS_SETTING + 10,







APP_CBM, RESOURCE_BASE_APP_CBM = APP_CBM, RESOURCE_BASE_APP_CBM_END = APP_CBM + 30,






APP_NSS, RESOURCE_BASE_APP_NSS = APP_NSS, RESOURCE_BASE_APP_NSS_END = APP_NSS + 20,






APP_DOWNLOADAGENT, RESOURCE_BASE_APP_DOWNLOADAGENT = APP_DOWNLOADAGENT, RESOURCE_BASE_APP_DOWNLOADAGENT_END = APP_DOWNLOADAGENT + 150,






MOTION_SENSOR, RESOURCE_BASE_MOTION_SENSOR = MOTION_SENSOR, RESOURCE_BASE_MOTION_SENSOR_END = MOTION_SENSOR + 10,






APP_PACKAGE_CONCURRENT, RESOURCE_BASE_APP_PACKAGE_CONCURRENT = APP_PACKAGE_CONCURRENT, RESOURCE_BASE_APP_PACKAGE_CONCURRENT_END = APP_PACKAGE_CONCURRENT + (2),


APP_VT_CALL, RESOURCE_BASE_APP_VT_CALL = APP_VT_CALL, RESOURCE_BASE_APP_VT_CALL_END = APP_VT_CALL + (2),
# 1820 "../../mmi/inc/mmi_pluto_res_range_def.h"
APP_MRE_DLS, RESOURCE_BASE_APP_MRE_DLS = APP_MRE_DLS, RESOURCE_BASE_APP_MRE_DLS_END = APP_MRE_DLS + 50,






APP_SSO, RESOURCE_BASE_APP_SSO = APP_SSO, RESOURCE_BASE_APP_SSO_END = APP_SSO + 50,
# 1836 "../../mmi/inc/mmi_pluto_res_range_def.h"
CUI_SSO, RESOURCE_BASE_CUI_SSO = CUI_SSO, RESOURCE_BASE_CUI_SSO_END = CUI_SSO + 50,
# 1852 "../../mmi/inc/mmi_pluto_res_range_def.h"
APP_SMSBTUNIFIEDMESSAGE, RESOURCE_BASE_APP_SMSBTUNIFIEDMESSAGE = APP_SMSBTUNIFIEDMESSAGE, RESOURCE_BASE_APP_SMSBTUNIFIEDMESSAGE_END = APP_SMSBTUNIFIEDMESSAGE + 50,
# 2998 "../../mmi/inc/mmi_res_range_def.h" 2
# 1 "../../../venusmmi/app/common/interface/vapp_res.h" 1
# 2999 "../../mmi/inc/mmi_res_range_def.h" 2
# 1 "../../../venusmmi/visual/cp/res/vcp_res_range.h" 1
# 3000 "../../mmi/inc/mmi_res_range_def.h" 2
APP_DEVAPP, RESOURCE_BASE_APP_DEVAPP = APP_DEVAPP, RESOURCE_BASE_APP_DEVAPP_END = APP_DEVAPP + 900, APP_DEFAULT_END, RESOURCE_BASE_APP_DEFAULT_END = APP_DEFAULT_END, RESOURCE_BASE_APP_DEFAULT_END_END = APP_DEFAULT_END + 1, END, RESOURCE_BASE_END = END, RESOURCE_BASE_END_END = END + 1 } RESOURCE_BASE_ENUM;
# 3011 "../../mmi/inc/mmi_res_range_def.h"
typedef struct
{
    char *appname;
    unsigned short min;
    unsigned short max;
    char res_path[512];
} mmi_resource_base_struct;
# 3071 "../../mmi/inc/mmi_res_range_def.h"













# 1 "../../mmi/inc/mmi_lib_res_range_def.h" 1
# 137 "../../mmi/inc/mmi_lib_res_range_def.h"
















































































# 3085 "../../mmi/inc/mmi_res_range_def.h" 2




# 1 "../../mmi/inc/mmi_pluto_res_range_def.h" 1
# 759 "../../mmi/inc/mmi_pluto_res_range_def.h"

# 776 "../../mmi/inc/mmi_pluto_res_range_def.h"











































# 829 "../../mmi/inc/mmi_pluto_res_range_def.h"



# 841 "../../mmi/inc/mmi_pluto_res_range_def.h"









# 876 "../../mmi/inc/mmi_pluto_res_range_def.h"

# 893 "../../mmi/inc/mmi_pluto_res_range_def.h"







# 927 "../../mmi/inc/mmi_pluto_res_range_def.h"












 






















# 970 "../../mmi/inc/mmi_pluto_res_range_def.h"























# 1008 "../../mmi/inc/mmi_pluto_res_range_def.h"

# 1032 "../../mmi/inc/mmi_pluto_res_range_def.h"

# 1056 "../../mmi/inc/mmi_pluto_res_range_def.h"





























# 1128 "../../mmi/inc/mmi_pluto_res_range_def.h"






















































































































# 1254 "../../mmi/inc/mmi_pluto_res_range_def.h"































# 1293 "../../mmi/inc/mmi_pluto_res_range_def.h"

# 1314 "../../mmi/inc/mmi_pluto_res_range_def.h"












































# 1391 "../../mmi/inc/mmi_pluto_res_range_def.h"



















































































































































































# 1585 "../../mmi/inc/mmi_pluto_res_range_def.h"




































# 1637 "../../mmi/inc/mmi_pluto_res_range_def.h"

# 1654 "../../mmi/inc/mmi_pluto_res_range_def.h"

# 1670 "../../mmi/inc/mmi_pluto_res_range_def.h"









# 1694 "../../mmi/inc/mmi_pluto_res_range_def.h"

# 1709 "../../mmi/inc/mmi_pluto_res_range_def.h"

# 1726 "../../mmi/inc/mmi_pluto_res_range_def.h"

# 1751 "../../mmi/inc/mmi_pluto_res_range_def.h"


























































# 1820 "../../mmi/inc/mmi_pluto_res_range_def.h"








# 1836 "../../mmi/inc/mmi_pluto_res_range_def.h"

# 1852 "../../mmi/inc/mmi_pluto_res_range_def.h"

# 3090 "../../mmi/inc/mmi_res_range_def.h" 2




# 1 "../../../venusmmi/app/common/interface/vapp_res.h" 1
# 3095 "../../mmi/inc/mmi_res_range_def.h" 2
# 1 "../../../venusmmi/visual/cp/res/vcp_res_range.h" 1
# 3096 "../../mmi/inc/mmi_res_range_def.h" 2























# 3133 "../../mmi/inc/mmi_res_range_def.h"

# 3149 "../../mmi/inc/mmi_res_range_def.h"





























# 3202 "../../mmi/inc/mmi_res_range_def.h"















# 3251 "../../mmi/inc/mmi_res_range_def.h"








# 3275 "../../mmi/inc/mmi_res_range_def.h"

# 3287 "../../mmi/inc/mmi_res_range_def.h"









# 3304 "../../mmi/inc/mmi_res_range_def.h"
























# 3344 "../../mmi/inc/mmi_res_range_def.h"







































# 3391 "../../mmi/inc/mmi_res_range_def.h"
























# 3429 "../../mmi/inc/mmi_res_range_def.h"









# 3446 "../../mmi/inc/mmi_res_range_def.h"

# 3471 "../../mmi/inc/mmi_res_range_def.h"























# 3504 "../../mmi/inc/mmi_res_range_def.h"

# 3513 "../../mmi/inc/mmi_res_range_def.h"









# 3558 "../../mmi/inc/mmi_res_range_def.h"























# 3595 "../../mmi/inc/mmi_res_range_def.h"


































































# 3690 "../../mmi/inc/mmi_res_range_def.h"

# 3702 "../../mmi/inc/mmi_res_range_def.h"








# 3734 "../../mmi/inc/mmi_res_range_def.h"










# 3756 "../../mmi/inc/mmi_res_range_def.h"

















































































































































































































# 3980 "../../mmi/inc/mmi_res_range_def.h"















# 4008 "../../mmi/inc/mmi_res_range_def.h"

# 4022 "../../mmi/inc/mmi_res_range_def.h"









# 4039 "../../mmi/inc/mmi_res_range_def.h"
















































# 4095 "../../mmi/inc/mmi_res_range_def.h"








# 4147 "../../mmi/inc/mmi_res_range_def.h"























# 4185 "../../mmi/inc/mmi_res_range_def.h"















   

































































































# 4306 "../../mmi/inc/mmi_res_range_def.h"





























# 4397 "../../mmi/inc/mmi_res_range_def.h"






































# 4443 "../../mmi/inc/mmi_res_range_def.h"

# 4452 "../../mmi/inc/mmi_res_range_def.h"

















# 4485 "../../mmi/inc/mmi_res_range_def.h"

# 4505 "../../mmi/inc/mmi_res_range_def.h"

# 4526 "../../mmi/inc/mmi_res_range_def.h"

# 4537 "../../mmi/inc/mmi_res_range_def.h"



















































# 4603 "../../mmi/inc/mmi_res_range_def.h"






















# 4641 "../../mmi/inc/mmi_res_range_def.h"

# 4676 "../../mmi/inc/mmi_res_range_def.h"

# 4690 "../../mmi/inc/mmi_res_range_def.h"

























































# 4926 "../../mmi/inc/mmi_res_range_def.h"









































































































# 5047 "../../mmi/inc/mmi_res_range_def.h"



















































# 5120 "../../mmi/inc/mmi_res_range_def.h"






















# 5150 "../../mmi/inc/mmi_res_range_def.h"















# 5180 "../../mmi/inc/mmi_res_range_def.h"

# 5189 "../../mmi/inc/mmi_res_range_def.h"








# 5205 "../../mmi/inc/mmi_res_range_def.h"









# 5226 "../../mmi/inc/mmi_res_range_def.h"

# 5242 "../../mmi/inc/mmi_res_range_def.h"






































































# 5337 "../../mmi/inc/mmi_res_range_def.h"















# 5385 "../../mmi/inc/mmi_res_range_def.h"

# 5459 "../../mmi/inc/mmi_res_range_def.h"

# 5474 "../../mmi/inc/mmi_res_range_def.h"















# 5509 "../../mmi/inc/mmi_res_range_def.h"

# 5520 "../../mmi/inc/mmi_res_range_def.h"

# 5563 "../../mmi/inc/mmi_res_range_def.h"

# 5581 "../../mmi/inc/mmi_res_range_def.h"















# 412 "../../mmi/inc/GlobalResDef.h" 2
# 427 "../../mmi/inc/GlobalResDef.h"
typedef enum _mmi_scenario_evt_enum
{
    EVT_ID_POST_CB_RST = (1) + 1,
    EVT_ID_POST_DEREG_CB,

    EVT_ID_SCENARIO_CHANGE,
    EVT_ID_GROUP_ENTER,
    EVT_ID_GROUP_ACTIVE,
    EVT_ID_GROUP_INACTIVE,
    EVT_ID_GROUP_FOCUSED,
    EVT_ID_GROUP_DEFOCUSED,
    EVT_ID_GROUP_GOBACK,






    EVT_ID_GROUP_GOBACK_IN_END_KEY,






    EVT_ID_GROUP_DELETE_REQ,





    EVT_ID_GROUP_DELETE_REQ_IN_END_KEY,





    EVT_ID_GROUP_EXIT,
    EVT_ID_GROUP_DEINIT,

    EVT_ID_GROUP_REDRAW_START,
    EVT_ID_GROUP_REDRAW_DONE,

    EVT_ID_SCRN_INIT,
    EVT_ID_SCRN_ACTIVE,
    EVT_ID_SCRN_INACTIVE,
    EVT_ID_SCRN_GOBACK,



    EVT_ID_SCRN_GOBACK_IN_END_KEY,



    EVT_ID_SCRN_DELETE_REQ,



    EVT_ID_SCRN_DELETE_REQ_IN_END_KEY,



    EVT_ID_SCRN_DEINIT,

    EVT_ID_GROUP_POST_CALLER_NOTIFY,
    EVT_ID_GROUP_POST_PARENT_NOTIFY,
    EVT_ID_SCRN_POST_PARENT_NOTIFY,

    EVT_ID_NO_CHILD_NOTIFY,
    EVT_ID_GOBACK_HISTORY,

    EVT_ID_TAB_POST_LEFT_ARROW_NOTIFY,
    EVT_ID_TAB_POST_RIGHT_ARROW_NOTIFY,

    EVT_ID_PRE_KEY,
    EVT_ID_ON_KEY,
    EVT_ID_POST_KEY,
    EVT_ID_PRE_KEY_EVT_ROUTING,
    EVT_ID_POST_KEY_EVT_ROUTING,
    EVT_ID_KEY_DEFAULT_HANDLER,
    EVT_ID_PRE_TOUCH_EVT_ROUTING,
    EVT_ID_POST_TOUCH_EVT_ROUTING,
    EVT_ID_ON_TOUCH,
    EVT_ID_NMGR_DEFER,
    EVT_ID_NMGR_PLAY_TONE,
    EVT_ID_NMGR_PLAY_VIB,
        EVT_ID_NMGR_IDLE_CANCEL,
    EVT_ID_ROOT_SCRN_FIRST_ENTER,
    EVT_ID_ROOT_SCRN_COMM_ENTER,
    EVT_ID_ROOT_SCRN_COMM_POST_ENTER,
    EVT_ID_SCRN_ENTER_SUCCESS_NOFITY,
    EVT_ID_NMGR_SUBLCD_NOTIFY,
    EVT_ID_SRV_INIT,
    EVT_ID_SRV_DEINIT,
    EVT_ID_GROUP_HIDE,
    EVT_ID_GROUP_UNHIDE,
    EVT_ID_SCRN_HIDE,
    EVT_ID_SCRN_UNHIDE,
    EVT_ID_POST_TO_GROUP,
    EVT_ID_POST_TO_SRV,
    EVT_ID_SCENARIO_END,
    EVT_ID_APP_GROUP_POST_NOTIFY,
    EVT_ID_APP_CONFIG,
    EVT_ID_DELETE_DANGLE_GROUP_REQ,

    EVT_ID_WGUI_LSK_CLICK,
    EVT_ID_WGUI_RSK_CLICK,
    EVT_ID_WGUI_CSK_CLICK,

        EVT_ID_SCRN_HIGHLIGHT_CHANGE,
        EVT_ID_SCRN_GET_CURR_PARENT_ID,

    EVT_ID_PRE_PROTOCOL,
    EVT_ID_POST_PROTOCOL,

    EVT_ID_APP_TERMINATED,

    EVT_ID_APP_ENTER,

    EVT_ID_APP_DEINIT,

    EVT_ID_APP_CLOSE_REQ,

    EVT_ID_APP_INIT,

    EVT_ID_APP_ACTIVE,

    EVT_ID_APP_INACTIVE,

    EVT_ID_APP_TOP_ACTIVE,

    EVT_ID_APP_TOP_INACTIVE,

    EVT_ID_APP_NO_CHILD,

    EVT_ID_APP_FORCE_CLOSE,

    EVT_ID_APP_HIDE,

    EVT_ID_APP_UNHIDE,

    EVT_ID_APP_POST_UNHIDE,

    EVT_ID_APP_POST_ENTER,

    EVT_ID_NMGR_FORCE_DEFER_QUERY,

    EVT_ID_MMI_TIMER_EXPIRY_PROC_EXT,
    EVT_ID_MMI_TIMER_INIT_EXT,

    EVT_ID_OOM_HANDLE_FAIL,

    EVT_ID_PRE_ACTIVE_IDLE_APP_IN_END_KEY,

    EVT_ID_POST_ACTIVE_IDLE_APP_IN_END_KEY,

    EVT_ID_MMI_AP_DCM_LOAD,
    EVT_ID_MMI_AP_DCM_UNLOAD,

    EVT_ID_SCENARIO_MAX
}mmi_scenario_evt_enum;



typedef enum _GLOBAL_SCR_ENUM
{
    SCR_ID_GLOBAL_DUMMY = (1) + 1,
    SCR_ID_DUMMY = SCR_ID_GLOBAL_DUMMY,
    SCR_ID_DUMMY_INTERNAL,
    GRP_ID_AUTO_GEN,
    GRP_ID_ROOT,
    GRP_ID_AUTO_GEN_BASE,
    GRP_ID_AUTO_GEN_MAX = GRP_ID_AUTO_GEN_BASE + (64),
    GRP_ID_ORIG_MECH,
    GRP_ID_DANGLE,
    SRV_ID_ROOT,
    GRP_ID_BK,

    GLOBAL_SCR_MAX
}GLOBAL_SCR_ENUM;
# 641 "../../mmi/inc/GlobalResDef.h"
typedef enum _STR_GLOBAL_LIST_ENUM
{





    STR_GLOBAL_0 = (1),
    STR_GLOBAL_1,
    STR_GLOBAL_2,
    STR_GLOBAL_3,
    STR_GLOBAL_4,
    STR_GLOBAL_5,
    STR_GLOBAL_6,
    STR_GLOBAL_7,
    STR_GLOBAL_8,
    STR_GLOBAL_9,
    STR_GLOBAL_10,
    STR_GLOBAL_ABORT,
    STR_GLOBAL_ABORTING,
    STR_GLOBAL_ACCEPT,
    STR_GLOBAL_ACCOUNTS,
    STR_GLOBAL_ACTIVATE,
    STR_GLOBAL_ACTIVATED,
    STR_GLOBAL_ADD,
    STR_GLOBAL_ADDRESS,
    STR_GLOBAL_ADVANCED,
    STR_GLOBAL_ALARM,
    STR_GLOBAL_ALWAYS_ASK,
    STR_GLOBAL_AS_EMAIL,
    STR_GLOBAL_AS_MULTIMEDIA_MSG,
    STR_GLOBAL_AS_TEXT_MESSAGE,
    STR_GLOBAL_ATTACHMENT,
    STR_GLOBAL_AUTHENTICATION,
    STR_GLOBAL_AUTOMATIC,
    STR_GLOBAL_BACK,
    STR_GLOBAL_BLUETOOTH,
    STR_GLOBAL_BUSY_TRY_LATER,
    STR_GLOBAL_CANCEL,
    STR_GLOBAL_CANCELLING,
    STR_GLOBAL_CLEAR,
    STR_GLOBAL_CLOSE,
    STR_GLOBAL_CONFIRM,
    STR_GLOBAL_CONNECT,
    STR_GLOBAL_CONNECTING,
    STR_GLOBAL_CONTENT,
    STR_GLOBAL_CONTINUE,
    STR_GLOBAL_COPY,
    STR_GLOBAL_COPYING,
    STR_GLOBAL_CURRENTLY_NOT_AVAILABLE,

    STR_GLOBAL_CURRENTLY_NOT_AVAILABLE_IN_CALL,

    STR_GLOBAL_CUSTOM,
    STR_GLOBAL_DATA_ACCOUNT,
    STR_GLOBAL_DATA_ACCOUNTS,
    STR_GLOBAL_DATA_CONN_SETTING,
    STR_GLOBAL_DATE,
    STR_GLOBAL_DEACTIVATE,
    STR_GLOBAL_DEFAULT,
    STR_GLOBAL_DELETE,
    STR_GLOBAL_DELETE_ALL,
    STR_GLOBAL_DELETED,
    STR_GLOBAL_DELETING,
    STR_GLOBAL_DETAILS,
    STR_GLOBAL_DIAL,
    STR_GLOBAL_DIALLED_CALLS,
    STR_GLOBAL_DISCARD,
    STR_GLOBAL_DISCONNECT,
    STR_GLOBAL_DISCONNECTING,
    STR_GLOBAL_DONE,
    STR_GLOBAL_DOWNLOAD,
    STR_GLOBAL_DOWNLOAD_ASK,
    STR_GLOBAL_DOWNLOADING,
    STR_GLOBAL_DRAFTS,
    STR_GLOBAL_DRM_FILE_EXISTS,
    STR_GLOBAL_DRM_FS_ERROR,
    STR_GLOBAL_DRM_INVALID_FORMAT,
    STR_GLOBAL_DRM_NON_DRM,
    STR_GLOBAL_DRM_PROCESSING,
    STR_GLOBAL_DRM_PROHIBITED,
    STR_GLOBAL_DRM_RO_RECEIVED,
    STR_GLOBAL_DRM_SIZE_TOO_BIG,
    STR_GLOBAL_EARPHONE_IN,
    STR_GLOBAL_EARPHONE_OUT,
    STR_GLOBAL_EDIT,
    STR_GLOBAL_EDIT_BEFORE_CALL,
    STR_GLOBAL_EMAIL,
    STR_GLOBAL_EMPTY,
    STR_GLOBAL_EMPTY_LIST,
    STR_GLOBAL_ERROR,
    STR_GLOBAL_EXIT,
    STR_GLOBAL_FAILED,
    STR_GLOBAL_FAILED_TO_SAVE,
    STR_GLOBAL_FAILED_TO_SEND,
    STR_GLOBAL_FAST,
    STR_GLOBAL_FILE_ALREADY_EXISTS,
    STR_GLOBAL_FILE_NOT_FOUND,
    STR_GLOBAL_FILENAME,
    STR_GLOBAL_FORMAT,
    STR_GLOBAL_FORWARD,
    STR_GLOBAL_GO_TO,
    STR_GLOBAL_GPRS,
    STR_GLOBAL_GSM,
    STR_GLOBAL_HELP,
    STR_GLOBAL_HIGH,
    STR_GLOBAL_HTTP,
    STR_GLOBAL_INBOX,
    STR_GLOBAL_INCOMING_CALL,
    STR_GLOBAL_INPUT_METHOD,
    STR_GLOBAL_INPUT_METHOD_OPTIONS,
    STR_GLOBAL_INSERT_SIM_CARD,
    STR_GLOBAL_INSTALL,
    STR_GLOBAL_INSUFFICIENT_MEMORY,
    STR_GLOBAL_INVALID,
    STR_GLOBAL_INVALID_DATA_ACCOUNT,
    STR_GLOBAL_INVALID_EMAIL_ADDRESS,
    STR_GLOBAL_INVALID_EMAIL_ADDRESSES,
    STR_GLOBAL_INVALID_FILENAME,
    STR_GLOBAL_INVALID_FORMAT,
    STR_GLOBAL_INVALID_INPUT,
    STR_GLOBAL_INVALID_NUMBER,
    STR_GLOBAL_INVALID_NUMBERS,
    STR_GLOBAL_INVALID_RECIPIENTS,
    STR_GLOBAL_INVALID_URL,
    STR_GLOBAL_LIST,
    STR_GLOBAL_LOADING,
    STR_GLOBAL_LOGIN,
    STR_GLOBAL_LOGO,
    STR_GLOBAL_LOGOUT,
    STR_GLOBAL_LOW,
    STR_GLOBAL_MANUAL,
    STR_GLOBAL_MARK,
    STR_GLOBAL_MARK_ALL,
    STR_GLOBAL_MAXIMUM,
    STR_GLOBAL_MEDIUM,
    STR_GLOBAL_MEMORY_CARD,
    STR_GLOBAL_MEMORY_FULL,
    STR_GLOBAL_MEMORY_STATUS,
    STR_GLOBAL_MESSAGE,
    STR_GLOBAL_MISSED_CALLS,
    STR_GLOBAL_MMS,
    STR_GLOBAL_MODE,
    STR_GLOBAL_MOVE,
    STR_GLOBAL_MOVING,
    STR_GLOBAL_MULTIMEDIA_MESSAGE,
    STR_GLOBAL_MUTE,
    STR_GLOBAL_NETWORK_SETTINGS,
    STR_GLOBAL_NO,
    STR_GLOBAL_NO_MEMORY_CARD,
    STR_GLOBAL_NONE,
    STR_GLOBAL_NORMAL,
    STR_GLOBAL_NOT_AVAILABLE,
    STR_GLOBAL_NOT_AVAILABLE_DURING_VIDEO_CALL,

    STR_GLOBAL_NOT_ENOUGH_MEMORY,
    STR_GLOBAL_NOT_SUPPORT_AT_PC_SIMULATOR,

    STR_GLOBAL_NOT_SUPPORTED,
    STR_GLOBAL_OFF,
    STR_GLOBAL_OK,
    STR_GLOBAL_ON,
    STR_GLOBAL_OPEN,
    STR_GLOBAL_OPTIONS,
    STR_GLOBAL_OUTBOX,
    STR_GLOBAL_OVERWRITE_EXISTING_FILE,

    STR_GLOBAL_PASSWORD,
    STR_GLOBAL_PAUSE,
    STR_GLOBAL_PHONE,
    STR_GLOBAL_PICTURE,
    STR_GLOBAL_PLAY,
    STR_GLOBAL_PLEASE_INPUT_THE_FILENAME,

    STR_GLOBAL_PLEASE_WAIT,
    STR_GLOBAL_PREFERRED_STORAGE,
    STR_GLOBAL_PREV,
    STR_GLOBAL_PREVIEW,
    STR_GLOBAL_PRINT,
    STR_GLOBAL_PRIORITY,
    STR_GLOBAL_PROXY,
    STR_GLOBAL_QUIT,
    STR_GLOBAL_READ,
    STR_GLOBAL_RECEIVED,
    STR_GLOBAL_RECEIVED_CALLS,
    STR_GLOBAL_RECEIVING,
    STR_GLOBAL_RECIPIENTS,
    STR_GLOBAL_REFRESH,
    STR_GLOBAL_REMOVE,
    STR_GLOBAL_REMOVED,
    STR_GLOBAL_RENAME,
    STR_GLOBAL_REPLACE,
    STR_GLOBAL_REPLY,
    STR_GLOBAL_RESEND,
    STR_GLOBAL_RESET,
    STR_GLOBAL_RESUME,
    STR_GLOBAL_RINGTONE,
    STR_GLOBAL_SAVE,
    STR_GLOBAL_SAVE_ASK,
    STR_GLOBAL_SAVE_TO_PHONEBOOK,
    STR_GLOBAL_SAVED,
    STR_GLOBAL_SAVING,
    STR_GLOBAL_SEARCH,
    STR_GLOBAL_SEARCHING,
    STR_GLOBAL_SELECT,
    STR_GLOBAL_SEND,
    STR_GLOBAL_SEND_MESSAGE,
    STR_GLOBAL_SEND_MULTIMEDIA_MESSAGE,

    STR_GLOBAL_SEND_TEXT_MESSAGE,
    STR_GLOBAL_SENDING,
    STR_GLOBAL_SENT,
    STR_GLOBAL_SETTINGS,
    STR_GLOBAL_SILENT,
    STR_GLOBAL_SIM,
    STR_GLOBAL_SIM_1,
    STR_GLOBAL_SIM_2,
    STR_GLOBAL_SLOW,
    STR_GLOBAL_SORT_BY,
    STR_GLOBAL_START,
    STR_GLOBAL_STOP,
    STR_GLOBAL_STORAGE,
    STR_GLOBAL_SUBJECT,
    STR_GLOBAL_TEXT,
    STR_GLOBAL_TEXT_MESSAGE,
    STR_GLOBAL_TIME,
    STR_GLOBAL_UNAVAILABLE_IN_FLIGHT_MODE,

    STR_GLOBAL_UNAVAILABLE_SIM,
    STR_GLOBAL_UNFINISHED,
    STR_GLOBAL_UNMARK,
    STR_GLOBAL_UNMARK_ALL,
    STR_GLOBAL_UNSUPPORTED_FORMAT,
    STR_GLOBAL_URL,
    STR_GLOBAL_UPDATE,
    STR_GLOBAL_USE,
    STR_GLOBAL_USE_TEMPLATE,
    STR_GLOBAL_USERNAME,
    STR_GLOBAL_VIA_BLUETOOTH,
    STR_GLOBAL_VIA_INFRARED,
    STR_GLOBAL_VIDEO,
    STR_GLOBAL_VIEW,
    STR_GLOBAL_VOLUME,
    STR_GLOBAL_WALLPAPER,
    STR_GLOBAL_WAP,
    STR_GLOBAL_WIFI,
    STR_GLOBAL_YEAR,
    STR_GLOBAL_YES,

    STR_GLOBAL_INSERT_MEMORY_CARD,
    STR_GLOBAL_MC_REMOVED_USE_PHONE,
    STR_GLOBAL_MC_REMOVED,
    STR_GLOBAL_MC_INSERTED,
    STR_GLOBAL_OTG_REMOVED_USE_PHONE,
    STR_GLOBAL_OTG_REMOVED_USE_PHONE_QUERY,
    STR_GLOBAL_OTG_REMOVED,
    STR_GLOBAL_OTG_CONNECTED,
    STR_GLOBAL_NOT_AVAILABLE_IN_MASS_STORAGE_MODE,
    STR_GLOBAL_NO_NUMBER,

    STR_GLOBAL_SUNDAY,
    STR_GLOBAL_MONDAY,
    STR_GLOBAL_TUESDAY,
    STR_GLOBAL_WEDNESDAY,
    STR_GLOBAL_THURSDAY,
    STR_GLOBAL_FRIDAY,
    STR_GLOBAL_SATURDAY,

    STR_GLOBAL_SUNDAY_SHORT,
    STR_GLOBAL_MONDAY_SHORT,
    STR_GLOBAL_TUESDAY_SHORT,
    STR_GLOBAL_WEDNESDAY_SHORT,
    STR_GLOBAL_THURSDAY_SHORT,
    STR_GLOBAL_FRIDAY_SHORT,
    STR_GLOBAL_SATURDAY_SHORT,

    STR_GLOBAL_JANUARY_SHORT,
    STR_GLOBAL_FEBRUARY_SHORT,
    STR_GLOBAL_MARCH_SHORT,
    STR_GLOBAL_APRIL_SHORT,
    STR_GLOBAL_MAY_SHORT,
    STR_GLOBAL_JUNE_SHORT,
    STR_GLOBAL_JULY_SHORT,
    STR_GLOBAL_AUGEST_SHORT,
    STR_GLOBAL_SEPTEMBER_SHORT,
    STR_GLOBAL_OCTOBER_SHORT,
    STR_GLOBAL_NOVEMBER_SHORT,
    STR_GLOBAL_DECEMBER_SHORT,

    STR_GLOBAL_DIAL_VIDEO_CALL,

    STR_GLOBAL_SIM_3,
    STR_GLOBAL_SIM_4,

    STR_GLOBAL_DELETE_ASK,
    STR_GLOBAL_DELETE_ALL_ASK,
    STR_GLOBAL_USE_AS,
    STR_GLOBAL_STATUS,
# 997 "../../mmi/inc/GlobalResDef.h"
        STR_GLOBAL_END

}STR_GLOBAL_LIST_ENUM;

typedef enum _IMG_GLOBAL_LIST_ENUM
{
    IMG_GLOBAL_OK = (1),
    IMG_GLOBAL_BACK,
    IMG_GLOBAL_YES,
    IMG_GLOBAL_NO,
    IMG_GLOBAL_OPTIONS,

    IMG_GLOBAL_LSTART,
    IMG_GLOBAL_L1,
    IMG_GLOBAL_L2,
    IMG_GLOBAL_L3,
    IMG_GLOBAL_L4,
    IMG_GLOBAL_L5,
    IMG_GLOBAL_L6,
    IMG_GLOBAL_L7,
    IMG_GLOBAL_L8,
    IMG_GLOBAL_L9,
    IMG_GLOBAL_L10,
    IMG_GLOBAL_L11,
    IMG_GLOBAL_L12,
    IMG_GLOBAL_L13,
    IMG_GLOBAL_L14,
    IMG_GLOBAL_L15,
    IMG_GLOBAL_L16,
    IMG_GLOBAL_L17,
    IMG_GLOBAL_L18,
    IMG_GLOBAL_L19,
    IMG_GLOBAL_L20,
    IMG_GLOBAL_L21,
    IMG_GLOBAL_L22,
    IMG_GLOBAL_L23,
    IMG_GLOBAL_L24,
    IMG_GLOBAL_L25,
    IMG_GLOBAL_L26,
    IMG_GLOBAL_L27,
    IMG_GLOBAL_L28,
    IMG_GLOBAL_L29,
    IMG_GLOBAL_L30,
    IMG_GLOBAL_LEND,

    IMG_STATUS,
    IMG_TIME,
    IMG_REPEAT,
    IMG_CAL,
    IMG_GLOBAL_WARNING,
    IMG_GLOBAL_QUESTION,
    IMG_GLOBAL_SAVE,
    IMG_GLOBAL_DELETED,
    IMG_GLOBAL_DEFAULT,
    IMG_GLOBAL_PROGRESS,
    IMG_GLOBAL_LOADING = IMG_GLOBAL_PROGRESS,
    IMG_GLOBAL_ERROR,
    IMG_GLOBAL_UNFINISHED = IMG_GLOBAL_ERROR,
    IMG_GLOBAL_INFO,
    IMG_GLOBAL_EMPTY = IMG_GLOBAL_INFO,
    IMG_VICON,
    IMG_GLOBAL_CLEAR,
    IMG_EARPHONE_POPUP_SUBLCD,
    IMG_GLOBAL_SUB_MENU_BG,
    IMG_GLOBAL_MAIN_MENU_BG,
    IMG_NONE,
    IMG_GLOBAL_FONT_1,
    IMG_GLOBAL_FONT_2,
    IMG_GLOBAL_FONT_3,
    IMG_GLOBAL_FONT_4,
    IMG_GLOBAL_FONT_5,
    IMG_GLOBAL_FONT_6,
    IMG_GLOBAL_FONT_7,
    IMG_GLOBAL_FONT_8,
    IMG_GLOBAL_FONT_9,
    IMG_GLOBAL_FONT_10,
    IMG_GLOBAL_FONT_11,
    IMG_GLOBAL_FONT_12,
    IMG_GLOBAL_FONT_13,
    IMG_GLOBAL_FONT_14,
    IMG_GLOBAL_FONT_15,
    IMG_GLOBAL_FONT_16,
    IMG_GLOBAL_FONT_MAX = IMG_GLOBAL_FONT_16,
    IMG_GLOBAL_SUCCESS,
    IMG_GLOBAL_ACTIVATED = IMG_GLOBAL_SUCCESS,
    IMG_GLOBAL_FAIL,

    IMG_GLOBAL_CALL_CSK,
    IMG_GLOBAL_COMMON_CSK,
    IMG_GLOBAL_DIAL_PAD_CSK,
    IMG_GLOBAL_FORWARD_MSG_CSK,
    IMG_GLOBAL_MARK_CSK,
    IMG_GLOBAL_NEXT_CSK,
    IMG_GLOBAL_OPTION_CSK,
    IMG_GLOBAL_REPLY_MSG_CSK,
    IMG_GLOBAL_SAVE_CSK,
    IMG_GLOBAL_SEARCH_CSK,
    IMG_GLOBAL_SEND_MSG_CSK,
    IMG_GLOBAL_WEB_BROWSER_CSK,


    IMG_GLOBAL_PHB_CSK,
    IMG_GLOBAL_SELECT_CSK,
    IMG_GLOBAL_VIEW_CSK,
    IMG_GLOBAL_READ_MSG_CSK,
    IMG_GLOBAL_BOOKMARK_CSK,
# 1139 "../../mmi/inc/GlobalResDef.h"
    IMG_GLOBAL_SIM1,
    IMG_GLOBAL_SIM2,
    IMG_GLOBAL_SIM3,
    IMG_GLOBAL_SIM4,

    IMG_GLOBAL_TABBAR_SIM1,
    IMG_GLOBAL_TABBAR_SIM2,
    IMG_GLOBAL_TABBAR_SIM3,
    IMG_GLOBAL_TABBAR_SIM4,

    IMG_GLOBAL_TOOLBAR_VIDEO_CALL,
    IMG_GLOBAL_TOOLBAR_VIDEO_CALL_DISABLED,


    IMG_GLOBAL_END
}IMG_GLOBAL_LIST_ENUM;


typedef enum _ADO_GLOBAL_LIST_ENUM
{
    ADO_GLOBAL_EMPTYAUDIO = (1),
    ADO_GLOBAL_EMPTYAUDIO_EXT,
    ADO_GLOBAL_NOAUDIO,
    ADO_GLOBAL_DEFAULT,


    ADO_GLOBAL_END
}ADO_GLOBAL_LIST_ENUM;

typedef enum _BINARY_GLOBAL_LIST_ENUM
{
    BINARY_GLOBAL_NO_BINARY = (1),
    BINARY_GLOBAL_TOTAL
}BINARY_GLOBAL_LIST_ENUM;
# 6 "temp/res/AM_int.c" 2
<?xml version="1.0" encoding="UTF-8"?>

<APP id="APP_AM" name="STR_ID_APP_MRE_AM">
# 219 "temp/res/AM_int.c"
</APP>
