# 1 "temp/res/Appicon.c"
# 1 "<built-in>"
# 1 "<command line>"
# 1 "temp/res/Appicon.c"
# 112 "temp/res/Appicon.c"
# 1 "../../mmi/inc/MMI_features.h" 1
# 69 "../../mmi/inc/MMI_features.h"
# 1 "../../mmi/inc/MMI_features_switch.h" 1
# 67 "../../mmi/inc/MMI_features_switch.h"
# 1 "../../mmi/inc/MMI_features_type.h" 1
# 68 "../../mmi/inc/MMI_features_switch.h" 2
# 70 "../../mmi/inc/MMI_features.h" 2
# 113 "temp/res/Appicon.c" 2
