# 1 "temp/res/avk_pluto_mem.c"
# 1 "<built-in>"
# 1 "<command line>"
# 1 "temp/res/avk_pluto_mem.c"

# 1 "../../mmi/inc/mmi_features.h" 1
# 69 "../../mmi/inc/mmi_features.h"
# 1 "../../mmi/inc/MMI_features_switch.h" 1
# 67 "../../mmi/inc/MMI_features_switch.h"
# 1 "../../mmi/inc/MMI_features_type.h" 1
# 68 "../../mmi/inc/MMI_features_switch.h" 2
# 70 "../../mmi/inc/mmi_features.h" 2
# 3 "temp/res/avk_pluto_mem.c" 2
