# 1 "temp/res/CallSet.c"
# 1 "<built-in>"
# 1 "<command line>"
# 1 "temp/res/CallSet.c"

# 1 "../../mmi/inc/mmi_features.h" 1
# 69 "../../mmi/inc/mmi_features.h"
# 1 "../../mmi/inc/MMI_features_switch.h" 1
# 67 "../../mmi/inc/MMI_features_switch.h"
# 1 "../../mmi/inc/MMI_features_type.h" 1
# 68 "../../mmi/inc/MMI_features_switch.h" 2
# 70 "../../mmi/inc/mmi_features.h" 2
# 3 "temp/res/CallSet.c" 2
# 1 "../customerinc/custresdef.h" 1
# 195 "../customerinc/custresdef.h"
# 1 "../../mmi/inc/MMI_features.h" 1
# 196 "../customerinc/custresdef.h" 2
# 4 "temp/res/CallSet.c" 2

<?xml version="1.0" encoding="UTF-8"?>

<APP id="APP_CALLSET">



    <!--Include Area-->
    <INCLUDE file="GlobalResDef.h,SettingResDef.h,GlobalMenuItems.h"/>
    <INCLUDE file="Mmi_rp_all_defs.h"/>

    <!-----------------------------------------------------Event Resource Area----------------------------------------------------->
    <RECEIVER id="EVT_ID_SRV_CALLSET_LINE_SWITCHED" proc="mmi_callset_hdlr_lsw_ind"/>
    <RECEIVER id="EVT_ID_SRV_CALLSET_CFU_STATUS_IND" proc="mmi_callset_hdlr_cfu_status_ind"/>
    <RECEIVER id="EVT_ID_SRV_SIM_CTRL_AVAILABILITY_CHANGED" proc="mmi_callset_hdlr_sim_availability_changed"/>




    <!-----------------------------------------------------String Resource Area----------------------------------------------------->

    <STRING id="STR_ID_CALLSET_CALL_CENTER"/>
    <STRING id="STR_ID_CALLSET_CALL_SETTING"/>

    <STRING id="STR_ID_CALLSET_SIM1_CALL_SETTING"/>
    <STRING id="STR_ID_CALLSET_SIM2_CALL_SETTING"/>







    <STRING id="STR_ID_CALLSET_MORE"/>

    <STRING id="STR_ID_CALLSET_CALLFWD"/>
    <STRING id="STR_ID_CALLSET_CFU_VOICE"/>



    <STRING id="STR_ID_CALLSET_CFNRC"/>




    <STRING id="STR_ID_CALLSET_CFNRY"/>




    <STRING id="STR_ID_CALLSET_CFB"/>







    <STRING id="STR_ID_CALLSET_CFU_DATA"/>
    <STRING id="STR_ID_CALLSET_CALLFWD_CANCELALL"/>
    <STRING id="STR_ID_CALLSET_CALLFWD_OPT"/>
    <STRING id="STR_ID_CALLSET_CF_TO_NEW"/>
    <STRING id="STR_ID_CALLSET_CF_TO_VM"/>

    <STRING id="STR_ID_CALLSET_CALL_BAR"/>
    <STRING id="STR_ID_CALLSET_CB_OUT"/>
    <STRING id="STR_ID_CALLSET_CB_IN"/>
    <STRING id="STR_ID_CALLSET_CB_CANCELALL"/>
    <STRING id="STR_ID_CALLSET_CB_CHANGEPASS"/>
    <STRING id="STR_ID_CALLSET_CB_BAOC_BAIC_VOICE"/>
    <STRING id="STR_ID_CALLSET_CB_OUT_BOIC_VOICE"/>
    <STRING id="STR_ID_CALLSET_CB_OUT_BOICEXHC_VOICE"/>
    <STRING id="STR_ID_CALLSET_CB_IN_BAICROAM_VOICE"/>
# 85 "temp/res/CallSet.c"
    <STRING id="STR_ID_CALLSET_CALLFWD_TO_NUM"/>
    <STRING id="STR_ID_CALLSET_CF_NUM_EDIT_FROM_PHB"/>
    <STRING id="STR_ID_CALLSET_CFNRY_WAIT_TIME"/>
    <STRING id="STR_ID_CALLSET_CFNRY_5_SEC"/>
    <STRING id="STR_ID_CALLSET_CFNRY_10_SEC"/>
    <STRING id="STR_ID_CALLSET_CFNRY_15_SEC"/>
    <STRING id="STR_ID_CALLSET_CFNRY_20_SEC"/>
    <STRING id="STR_ID_CALLSET_CFNRY_25_SEC"/>
    <STRING id="STR_ID_CALLSET_CFNRY_30_SEC"/>







    <STRING id="STR_ID_CALLSET_CB_PASSWD"/>
    <STRING id="STR_ID_CALLSET_CB_PASSWD_OLD"/>
    <STRING id="STR_ID_CALLSET_CB_PASSWD_NEW"/>
    <STRING id="STR_ID_CALLSET_CB_PASSWD_CNF"/>


    <STRING id="STR_ID_CALLSET_CALLWAIT"/>
    <STRING id="STR_ID_CALLSET_NUMBER_TOO_LONG"/>







    <STRING id="STR_ID_CALLSET_LINE_SWITCH"/>
    <STRING id="STR_ID_CALLSET_LSW_LINE1"/>
    <STRING id="STR_ID_CALLSET_LSW_LINE2"/>
# 128 "temp/res/CallSet.c"
    <STRING id="STR_ID_CALLSET_DEACTIVATED"/>

    <STRING id="STR_ID_CALLSET_QUERY"/>

    <STRING id="STR_ID_CALLSET_CTR"/>
    <STRING id="STR_ID_CALLSET_CTR_TIME"/>
    <STRING id="STR_ID_CALLSET_CTR_SING"/>
    <STRING id="STR_ID_CALLSET_CTR_PERIOD"/>
    <STRING id="STR_ID_CALLSET_CTR_RANGE_SING"/>
    <STRING id="STR_ID_CALLSET_CTR_RANGE_PERIODIC"/>

    <STRING id="STR_ID_CALLSET_ANS_MODE_ANYKEY"/>
    <STRING id="STR_ID_CALLSET_ANS_MODE"/>





    <STRING id="STR_ID_CALLSET_ANS_MODE_AUTO"/>





    <STRING id="STR_ID_CALLSET_AUTOREDIAL"/>
# 161 "temp/res/CallSet.c"
    <STRING id="STR_ID_CALLSET_IP_NUMBER"/>


    <STRING id="STR_ID_CALLSET_BLACKLIST"/>
    <STRING id="STR_ID_CALLSET_BLACKLIST_REJ_UNKNOWN_NUM"/>
    <STRING id="STR_ID_CALLSET_BLACKLIST_FROM_LIST"/>
    <STRING id="STR_ID_CALLSET_BLACKLIST_NUM"/>
# 221 "temp/res/CallSet.c"
    <STRING id="STR_ID_CALLSET_MAGIC_VOICE"/>
    <STRING id="STR_ID_CALLSET_MGV_NONE"/>
    <STRING id="STR_ID_CALLSET_MGV_MEN"/>
    <STRING id="STR_ID_CALLSET_MGV_WOMEN"/>
    <STRING id="STR_ID_CALLSET_MGV_CHILD"/>






    <!-----------------------------------------------------Image Resource Area------------------------------------------------------>


    <IMAGE id="IMG_ID_CALLSET_CALL_SETTING">"..\\\\..\\\\Customer\\\\Images\\\\PLUTO240X320""\\\\MainLCD\\\\SubMenu\\\\Call\\\\CC_setting.bmp"</IMAGE>


    <IMAGE id="IMG_ID_CALLSET_VICON_SIM1">"..\\\\..\\\\Customer\\\\Images\\\\PLUTO240X320""\\\\MainLCD\\\\DualSIM\\\\IPdial\\\IP 1.bmp"</IMAGE>
    <IMAGE id="IMG_ID_CALLSET_VICON_SIM2">"..\\\\..\\\\Customer\\\\Images\\\\PLUTO240X320""\\\\MainLCD\\\\DualSIM\\\\IPdial\\\IP 2.bmp"</IMAGE>
    <IMAGE id="IMG_ID_CALLSET_VICON_BOTH">"..\\\\..\\\\Customer\\\\Images\\\\PLUTO240X320""\\\\MainLCD\\\\DualSIM\\\\IPdial\\\IP 12.bmp"</IMAGE>
# 279 "temp/res/CallSet.c"
    <!------------------------------------------------------Menu Resource Area------------------------------------------------------>


    <!--Menu Tree Area-->





    <MENU id="MENU_ID_CALLSET_CALL_CENTER" type="APP_SUB" str="STR_ID_CALLSET_CALL_CENTER"



        flag="MOVEABLEWITHINPARENT|INSERTABLE"



        parent="MAIN_MENU_CALL_CENTER"

    >



        <MENUITEM id="MENU_ID_CALLSET_CALL_LOG" str="MAIN_MENU_CALL_LOG_TEXT" img="IMG_ID_CLOG_MAIN_ICON"/>
# 311 "temp/res/CallSet.c"
        <MENUITEM_ID>MENU_ID_CALLSET_CALL_SETTING</MENUITEM_ID>

    </MENU>




    <MENUITEM id="MENU_ID_CALLSET_CALL_WAIT" str="STR_ID_CALLSET_CALLWAIT"/>

    <MENUITEM id="MENU_ID_CALLSET_LINE_SWITCH" str="STR_ID_CALLSET_LINE_SWITCH"/>





    <MENU id="MENU_ID_CALLSET_CALL_SETTING" type="APP_SUB" str="STR_ID_CALLSET_CALL_SETTING"
        img="IMG_ID_CALLSET_CALL_SETTING" flag="MOVEABLEWITHINPARENT"
# 340 "temp/res/CallSet.c"
        parent="MAIN_MENU_CALL_CENTER"

    >

        <MENUITEM_ID>MENU_ID_CALLSET_CALL_SETTING_SIM1</MENUITEM_ID>
        <MENUITEM_ID>MENU_ID_CALLSET_CALL_SETTING_SIM2</MENUITEM_ID>
# 370 "temp/res/CallSet.c"
        <MENUITEM_ID>MENU_ID_CALLSET_MORE</MENUITEM_ID>




    </MENU>


    <MENU id="MENU_ID_CALLSET_CALL_SETTING_SIM1" type="APP_SUB" str="STR_ID_CALLSET_SIM1_CALL_SETTING" flag="MOVEABLEWITHINPARENT"

        shortcut="ON" shortcut_img="IMG_ID_CALLSET_CALL_SETTING"

        launch="mmi_callset_call_setting_sim1_launch"
    >



        <MENUITEM_ID>MENU_ID_CALLSET_CALL_WAIT</MENUITEM_ID>
        <MENUITEM_ID>MENU_ID_CALLSET_CALL_FWD</MENUITEM_ID>

        <MENUITEM_ID>MENU_ID_CALLSET_CALL_BAR</MENUITEM_ID>


        <MENUITEM_ID>MENU_ID_CALLSET_LINE_SWITCH</MENUITEM_ID>




    </MENU>

    <MENU id="MENU_ID_CALLSET_CALL_SETTING_SIM2" type="APP_SUB" str="STR_ID_CALLSET_SIM2_CALL_SETTING" flag="MOVEABLEWITHINPARENT"

        shortcut="ON" shortcut_img="IMG_ID_CALLSET_CALL_SETTING"

        launch="mmi_callset_call_setting_sim2_launch"
    >



        <MENUITEM_ID>MENU_ID_CALLSET_CALL_WAIT</MENUITEM_ID>
        <MENUITEM_ID>MENU_ID_CALLSET_CALL_FWD</MENUITEM_ID>

        <MENUITEM_ID>MENU_ID_CALLSET_CALL_BAR</MENUITEM_ID>


        <MENUITEM_ID>MENU_ID_CALLSET_LINE_SWITCH</MENUITEM_ID>




    </MENU>
# 472 "temp/res/CallSet.c"
    <MENUITEM id="MENU_ID_CALLSET_CFU_VOICE" str="STR_ID_CALLSET_CFU_VOICE"/>



    <MENUITEM id="MENU_ID_CALLSET_CFNRC_VOICE" str="STR_ID_CALLSET_CFNRC"/>




    <MENUITEM id="MENU_ID_CALLSET_CFNRY_VOICE" str="STR_ID_CALLSET_CFNRY"/>




    <MENUITEM id="MENU_ID_CALLSET_CFB_VOICE" str="STR_ID_CALLSET_CFB"/>







    <MENUITEM id="MENU_ID_CALLSET_CFU_DATA" str="STR_ID_CALLSET_CFU_DATA"/>
    <MENUITEM id="MENU_ID_CALLSET_CALLFWD_CANCELALL" str="STR_ID_CALLSET_CALLFWD_CANCELALL"/>


    <MENU id="MENU_ID_CALLSET_CALL_FWD" type="APP_SUB" str="STR_ID_CALLSET_CALLFWD" flag="NONMOVEABLE">
        <MENUITEM_ID>MENU_ID_CALLSET_CFU_VOICE</MENUITEM_ID>
        <MENUITEM_ID>MENU_ID_CALLSET_CFNRC_VOICE</MENUITEM_ID>
        <MENUITEM_ID>MENU_ID_CALLSET_CFNRY_VOICE</MENUITEM_ID>
        <MENUITEM_ID>MENU_ID_CALLSET_CFB_VOICE</MENUITEM_ID>






        <MENUITEM_ID>MENU_ID_CALLSET_CFU_DATA</MENUITEM_ID>
        <MENUITEM_ID>MENU_ID_CALLSET_CALLFWD_CANCELALL</MENUITEM_ID>
    </MENU>


    <MENU id="MENU_ID_CALLSET_CALL_BAR" type="APP_SUB" str="STR_ID_CALLSET_CALL_BAR" flag="NONMOVEABLE">
        <MENUITEM id="MENU_ID_CALLSET_CB_OUT" str="STR_ID_CALLSET_CB_OUT"/>
        <MENUITEM id="MENU_ID_CALLSET_CB_IN" str="STR_ID_CALLSET_CB_IN"/>
        <MENUITEM id="MENU_ID_CALLSET_CB_CANCELALL" str="STR_ID_CALLSET_CB_CANCELALL"/>
        <MENUITEM id="MENU_ID_CALLSET_CB_CHANGEPASS" str="STR_ID_CALLSET_CB_CHANGEPASS"/>
    </MENU>


    <MENU id="MENU_ID_CALLSET_MORE" type="APP_SUB" str="STR_ID_CALLSET_MORE" flag="MOVEABLEWITHINPARENT">

        <MENUITEM_ID>MENU_ID_CALLSET_BLACKLIST</MENUITEM_ID>





        <MENUITEM id="MENU_ID_CALLSET_AUTOREDIAL" str="STR_ID_CALLSET_AUTOREDIAL"/>


        <MENUITEM id="MENU_ID_CALLSET_IP_NUMBER" str="STR_ID_CALLSET_IP_NUMBER"/>
# 542 "temp/res/CallSet.c"
        <MENUITEM id="MENU_ID_CALLSET_CTR" str="STR_ID_CALLSET_CTR"/>
# 556 "temp/res/CallSet.c"
        <MENUITEM id="MENU_ID_CALLSET_ANS_MODE" str="STR_ID_CALLSET_ANS_MODE"/>






        <MENUITEM id="MENU_ID_CALLSET_MAGIC_VOICE" str="STR_ID_CALLSET_MAGIC_VOICE"/>




    </MENU>






    <MENUITEM id="MENU_ID_CALLSET_BL_FROM_LIST" str="STR_ID_CALLSET_BLACKLIST_FROM_LIST"/>
    <MENUITEM id="MENU_ID_CALLSET_BL_NUM" str="STR_ID_CALLSET_BLACKLIST_NUM"/>

    <MENU id="MENU_ID_CALLSET_BLACKLIST" type="APP_SUB" str="STR_ID_CALLSET_BLACKLIST" flag="MOVEABLEWITHINPARENT">







    <MENUITEM_ID>MENU_ID_CALLSET_BL_FROM_LIST</MENUITEM_ID>
    <MENUITEM_ID>MENU_ID_CALLSET_BL_NUM</MENUITEM_ID>

    </MENU>
# 674 "temp/res/CallSet.c"
    <MENUITEM id="MENU_ID_CALLSET_ACTIVATE" str="STR_GLOBAL_ACTIVATE"/>
    <MENUITEM id="MENU_ID_CALLSET_DEACTIVATE" str="STR_GLOBAL_DEACTIVATE"/>
    <MENUITEM id="MENU_ID_CALLSET_QUERY" str="STR_ID_CALLSET_QUERY"/>

    <MENUITEM id="MENU_ID_CALLSET_CF_NUM_EDIT_FROM_PHB" str="STR_ID_CALLSET_CF_NUM_EDIT_FROM_PHB"/>

    <MENUSET id="MENU_SET_CALLSET_CISS_OPT">
        <MENUITEM_ID>MENU_ID_CALLSET_ACTIVATE</MENUITEM_ID>
        <MENUITEM_ID>MENU_ID_CALLSET_DEACTIVATE</MENUITEM_ID>
        <MENUITEM_ID>MENU_ID_CALLSET_QUERY</MENUITEM_ID>
    </MENUSET>

    <MENU id="MENU_ID_CALLSET_CALL_WAIT_OPT" type="APP_SUB" str="STR_ID_CALLSET_CALLWAIT" flag="NONMOVEABLE">
        <MENUSET_ID>MENU_SET_CALLSET_CISS_OPT</MENUSET_ID>
    </MENU>

    <MENU id="MENU_ID_CALLSET_ACTIVATE_CF" type="APP_SUB" str="STR_GLOBAL_ACTIVATE" flag="NONMOVEABLE">
        <MENUITEM id="MENU_ID_CALLSET_CF_TO_NEW" str="STR_ID_CALLSET_CF_TO_NEW"/>
        <MENUITEM id="MENU_ID_CALLSET_CF_TO_VM" str="STR_ID_CALLSET_CF_TO_VM"/>
    </MENU>

    <MENU id="MENU_ID_CALLSET_CFU_VOICE_OPT" type="APP_SUB" str="STR_ID_CALLSET_CALLFWD_OPT" flag="NONMOVEABLE">
        <MENUITEM_ID>MENU_ID_CALLSET_ACTIVATE_CF</MENUITEM_ID>
        <MENUITEM_ID>MENU_ID_CALLSET_DEACTIVATE</MENUITEM_ID>
        <MENUITEM_ID>MENU_ID_CALLSET_QUERY</MENUITEM_ID>
    </MENU>

    <MENU id="MENU_ID_CALLSET_CFNRC_VOICE_OPT" type="APP_SUB" str="STR_ID_CALLSET_CALLFWD_OPT" flag="NONMOVEABLE">
        <MENUITEM_ID>MENU_ID_CALLSET_ACTIVATE_CF</MENUITEM_ID>
        <MENUITEM_ID>MENU_ID_CALLSET_DEACTIVATE</MENUITEM_ID>
        <MENUITEM_ID>MENU_ID_CALLSET_QUERY</MENUITEM_ID>
    </MENU>

    <MENU id="MENU_ID_CALLSET_CFNRY_VOICE_OPT" type="APP_SUB" str="STR_ID_CALLSET_CALLFWD_OPT" flag="NONMOVEABLE">
        <MENUITEM_ID>MENU_ID_CALLSET_ACTIVATE_CF</MENUITEM_ID>
        <MENUITEM_ID>MENU_ID_CALLSET_DEACTIVATE</MENUITEM_ID>
        <MENUITEM_ID>MENU_ID_CALLSET_QUERY</MENUITEM_ID>
    </MENU>

    <MENU id="MENU_ID_CALLSET_CFB_VOICE_OPT" type="APP_SUB" str="STR_ID_CALLSET_CALLFWD_OPT" flag="NONMOVEABLE">
        <MENUITEM_ID>MENU_ID_CALLSET_ACTIVATE_CF</MENUITEM_ID>
        <MENUITEM_ID>MENU_ID_CALLSET_DEACTIVATE</MENUITEM_ID>
        <MENUITEM_ID>MENU_ID_CALLSET_QUERY</MENUITEM_ID>
    </MENU>
# 745 "temp/res/CallSet.c"
    <MENU id="MENU_ID_CALLSET_CFU_DATA_OPT" type="APP_SUB" str="STR_ID_CALLSET_CALLFWD_OPT" flag="NONMOVEABLE">
        <MENUITEM_ID>MENU_ID_CALLSET_ACTIVATE_CF</MENUITEM_ID>
        <MENUITEM_ID>MENU_ID_CALLSET_DEACTIVATE</MENUITEM_ID>
        <MENUITEM_ID>MENU_ID_CALLSET_QUERY</MENUITEM_ID>
    </MENU>

    <MENU id="MENU_ID_CALLSET_CFNRY_TIME_OPT" type="APP_SUB" str="STR_ID_CALLSET_CFNRY_WAIT_TIME" flag="NONMOVEABLE">
        <MENUITEM id="MENU_ID_CALLSET_CFNRY_5_SEC" str="STR_ID_CALLSET_CFNRY_5_SEC"/>
        <MENUITEM id="MENU_ID_CALLSET_CFNRY_10_SEC" str="STR_ID_CALLSET_CFNRY_10_SEC"/>
        <MENUITEM id="MENU_ID_CALLSET_CFNRY_15_SEC" str="STR_ID_CALLSET_CFNRY_15_SEC"/>
        <MENUITEM id="MENU_ID_CALLSET_CFNRY_20_SEC" str="STR_ID_CALLSET_CFNRY_20_SEC"/>
        <MENUITEM id="MENU_ID_CALLSET_CFNRY_25_SEC" str="STR_ID_CALLSET_CFNRY_25_SEC"/>
        <MENUITEM id="MENU_ID_CALLSET_CFNRY_30_SEC" str="STR_ID_CALLSET_CFNRY_30_SEC"/>
    </MENU>


    <MENU id="MENU_ID_CALLSET_CB_OUT_OPT" type="APP_SUB" str="STR_ID_CALLSET_CB_OUT" flag="NONMOVEABLE">
        <MENU id="MENU_ID_CALLSET_CB_OUT_BAOC_VOICE" type="APP_SUB" str="STR_ID_CALLSET_CB_BAOC_BAIC_VOICE" flag="NONMOVEABLE">
            <MENUSET_ID>MENU_SET_CALLSET_CISS_OPT</MENUSET_ID>
        </MENU>
        <MENU id="MENU_ID_CALLSET_CB_OUT_BOIC_VOICE" type="APP_SUB" str="STR_ID_CALLSET_CB_OUT_BOIC_VOICE" flag="NONMOVEABLE">
            <MENUSET_ID>MENU_SET_CALLSET_CISS_OPT</MENUSET_ID>
        </MENU>
        <MENU id="MENU_ID_CALLSET_CB_OUT_BOICEXHC_VOICE" type="APP_SUB" str="STR_ID_CALLSET_CB_OUT_BOICEXHC_VOICE" flag="NONMOVEABLE">
            <MENUSET_ID>MENU_SET_CALLSET_CISS_OPT</MENUSET_ID>
        </MENU>
# 782 "temp/res/CallSet.c"
    </MENU>

    <MENU id="MENU_ID_CALLSET_CB_IN_OPT" type="APP_SUB" str="STR_ID_CALLSET_CB_IN" flag="NONMOVEABLE">
        <MENU id="MENU_ID_CALLSET_CB_IN_BAIC_VOICE" type="APP_SUB" str="STR_ID_CALLSET_CB_BAOC_BAIC_VOICE" flag="NONMOVEABLE">
            <MENUSET_ID>MENU_SET_CALLSET_CISS_OPT</MENUSET_ID>
        </MENU>
        <MENU id="MENU_ID_CALLSET_CB_IN_BAICROAM_VOICE" type="APP_SUB" str="STR_ID_CALLSET_CB_IN_BAICROAM_VOICE" flag="NONMOVEABLE">
            <MENUSET_ID>MENU_SET_CALLSET_CISS_OPT</MENUSET_ID>
        </MENU>
# 799 "temp/res/CallSet.c"
    </MENU>
# 814 "temp/res/CallSet.c"
    <MENUITEM id="MENU_ID_CALLSET_OFF" str="STR_GLOBAL_OFF"/>
    <MENUITEM id="MENU_ID_CALLSET_ON" str="STR_GLOBAL_ON"/>


    <MENU id="MENU_ID_CALLSET_AUTOREDIAL_MODE" type="APP_SUB" str="STR_ID_CALLSET_AUTOREDIAL" flag="NONMOVEABLE">
        <MENUITEM_ID>MENU_ID_CALLSET_OFF</MENUITEM_ID>
        <MENUITEM_ID>MENU_ID_CALLSET_ON</MENUITEM_ID>
    </MENU>
# 837 "temp/res/CallSet.c"
    <MENU id="MENU_ID_CALLSET_CTR_MODE" type="APP_SUB" str="STR_ID_CALLSET_CTR" flag="NONMOVEABLE">
        <MENUITEM_ID>MENU_ID_CALLSET_OFF</MENUITEM_ID>
        <MENUITEM id="MENU_ID_CALLSET_CTR_SINGLE" str="STR_ID_CALLSET_CTR_SING"/>
        <MENUITEM id="MENU_ID_CALLSET_CTR_PERIODIC" str="STR_ID_CALLSET_CTR_PERIOD"/>
    </MENU>
# 858 "temp/res/CallSet.c"
    <MENU id="MENU_ID_CALLSET_ANS_MODE_OPT" type="APP_SUB" str="STR_ID_CALLSET_ANS_MODE" flag="NONMOVEABLE">



        <MENUITEM id="MENU_ID_CALLSET_ANS_MODE_ANYKEY" str="STR_ID_CALLSET_ANS_MODE_ANYKEY"/>






        <MENUITEM id="MENU_ID_CALLSET_ANS_MODE_AUTO" str="STR_ID_CALLSET_ANS_MODE_AUTO"/>


    </MENU>


    <MENU id="MENU_ID_CALLSET_LINE_SWITCH_MODE" type="APP_SUB" str="STR_ID_CALLSET_LINE_SWITCH" flag="NONMOVEABLE">
        <MENUITEM id="MENU_ID_CALLSET_LSW_LINE1" str="STR_ID_CALLSET_LSW_LINE1"/>
        <MENUITEM id="MENU_ID_CALLSET_LSW_LINE2" str="STR_ID_CALLSET_LSW_LINE2"/>
    </MENU>




    <MENU id="MENU_ID_CALLSET_IP_NUMBER_OPT" type="OPTION" str="STR_ID_CALLSET_IP_NUMBER" flag="NONMOVEABLE">

        <MENUITEM_ID >MENU_ID_CALLSET_IP_ACTIVATE</MENUITEM_ID>
        <MENUITEM_ID >MENU_ID_CALLSET_IP_DEACTIVATE</MENUITEM_ID>




        <MENUITEM id="MENU_ID_CALLSET_IP_EDIT" str="STR_GLOBAL_EDIT"/>
    </MENU>

    <MENU id="MENU_ID_CALLSET_IP_ACTIVATE" type="OPTION" str="STR_GLOBAL_ACTIVATE" flag="NONMOVEABLE">
        <MENUITEM id="MENU_ID_CALLSET_IP_ACTIVATE_CLUB_SIM1" str="STR_GLOBAL_SIM_1"/>
        <MENUITEM id="MENU_ID_CALLSET_IP_ACTIVATE_CLUB_SIM2" str="STR_GLOBAL_SIM_2"/>






    </MENU>

    <MENU id="MENU_ID_CALLSET_IP_DEACTIVATE" type="OPTION" str="STR_GLOBAL_DEACTIVATE" flag="NONMOVEABLE">
        <MENUITEM id="MENU_ID_CALLSET_IP_DEACTIVATE_CLUB_SIM1" str="STR_GLOBAL_SIM_1"/>
        <MENUITEM id="MENU_ID_CALLSET_IP_DEACTIVATE_CLUB_SIM2" str="STR_GLOBAL_SIM_2"/>






    </MENU>
# 926 "temp/res/CallSet.c"
    <MENU id="MENU_ID_CALLSET_BL_FROM_LIST_MODE" type="APP_SUB" str="STR_ID_CALLSET_BLACKLIST_FROM_LIST" flag="NONMOVEABLE">
        <MENUITEM_ID>MENU_ID_CALLSET_OFF</MENUITEM_ID>
        <MENUITEM_ID>MENU_ID_CALLSET_ON</MENUITEM_ID>
    </MENU>
# 957 "temp/res/CallSet.c"
    <MENU id="MENU_ID_CALLSET_MAGIC_VOICE_OPTION" type="APP_SUB" str="STR_ID_CALLSET_MAGIC_VOICE" flag="NONMOVEABLE">
        <MENUITEM id="MENU_ID_CALLSET_MGV_NONE" str="STR_ID_CALLSET_MGV_NONE"/>
        <MENUITEM id="MENU_ID_CALLSET_MGV_MEN" str="STR_ID_CALLSET_MGV_MEN"/>
        <MENUITEM id="MENU_ID_CALLSET_MGV_WOMEN" str="STR_ID_CALLSET_MGV_WOMEN"/>
        <MENUITEM id="MENU_ID_CALLSET_MGV_CHILD" str="STR_ID_CALLSET_MGV_CHILD"/>
    </MENU>



    <!------------------------------------------------------Other Resource---------------------------------------------------------->

    <SCREEN id="GRP_ID_CALLSET_COMMON"/>
    <SCREEN id="GRP_ID_CALLSET_CF"/>

    <SCREEN id="GRP_ID_CALLSET_CB"/>



    <SCREEN id="GRP_ID_CALLSET_CTR"/>



    <SCREEN id="GRP_ID_CALLSET_MAGIC_VOICE"/>


    <SCREEN id="SCR_ID_CALLSET_CB_PASSWD"/>
    <SCREEN id="SCR_ID_CALLSET_CB_PASSWD_OLD"/>
    <SCREEN id="SCR_ID_CALLSET_CB_PASSWD_NEW"/>
    <SCREEN id="SCR_ID_CALLSET_CB_PASSWD_CNF"/>


    <SCREEN id="SCR_ID_CALLSET_CTR_TIME"/>


    <SCREEN id="SCR_ID_CALLSET_IP_NUMBER"/>


    <SCREEN id="SCR_ID_CALLSET_BL_NUM_LIST"/>
# 1004 "temp/res/CallSet.c"
</APP>
