# 1 "temp/res/CphsSrv.c"
# 1 "<built-in>"
# 1 "<command line>"
# 1 "temp/res/CphsSrv.c"
# 77 "temp/res/CphsSrv.c"
# 1 "../../mmi/inc/mmi_features.h" 1
# 69 "../../mmi/inc/mmi_features.h"
# 1 "../../mmi/inc/MMI_features_switch.h" 1
# 67 "../../mmi/inc/MMI_features_switch.h"
# 1 "../../mmi/inc/MMI_features_type.h" 1
# 68 "../../mmi/inc/MMI_features_switch.h" 2
# 70 "../../mmi/inc/mmi_features.h" 2
# 78 "temp/res/CphsSrv.c" 2
# 1 "../customerinc/custresdef.h" 1
# 195 "../customerinc/custresdef.h"
# 1 "../../mmi/inc/MMI_features.h" 1
# 196 "../customerinc/custresdef.h" 2
# 79 "temp/res/CphsSrv.c" 2


<?xml version="1.0" encoding="UTF-8"?>


<APP id="SRV_CPHS">



    <!--Include Area-->
    <INCLUDE file="GlobalResDef.h"/>

    <!-----------------------------------------------------Event Resource Area----------------------------------------------------->


    <!-----------------------------------------------------String Resource Area----------------------------------------------------->



    <!-----------------------------------------------------Image Resource Area------------------------------------------------------>





    <!------------------------------------------------------Other Resource---------------------------------------------------------->
    <SENDER id="EVT_ID_SRV_CPHS_CSP_REFRESH" hfile="CphsSrvGprot.h"/>

</APP>
