# 1 "temp/res/Dialer.c"
# 1 "<built-in>"
# 1 "<command line>"
# 1 "temp/res/Dialer.c"
# 104 "temp/res/Dialer.c"
# 1 "../../mmi/inc/mmi_features.h" 1
# 69 "../../mmi/inc/mmi_features.h"
# 1 "../../mmi/inc/MMI_features_switch.h" 1
# 67 "../../mmi/inc/MMI_features_switch.h"
# 1 "../../mmi/inc/MMI_features_type.h" 1
# 68 "../../mmi/inc/MMI_features_switch.h" 2
# 70 "../../mmi/inc/mmi_features.h" 2
# 105 "temp/res/Dialer.c" 2
# 1 "../customerinc/CustResDef.h" 1
# 195 "../customerinc/CustResDef.h"
# 1 "../../mmi/inc/MMI_features.h" 1
# 196 "../customerinc/CustResDef.h" 2
# 106 "temp/res/Dialer.c" 2


<?xml version = "1.0" encoding = "UTF-8"?>

<APP id = "APP_DIALER"
# 121 "temp/res/Dialer.c"
>
    <!--------------------------------------------------------------------------------------------------------------------->
    <!--String Resource Area-->
    <!--String Resource Area-->



    <!--End String Resource Area-->
    <!--End String Resource Area-->
    <!--------------------------------------------------------------------------------------------------------------------->
    <!--------------------------------------------------------------------------------------------------------------------->
    <!--Image Resource Area-->
    <!--Image Resource Area-->





    <!--End Image Resource Area-->
    <!--End Image Resource Area-->
    <!--------------------------------------------------------------------------------------------------------------------->
    <!--------------------------------------------------------------------------------------------------------------------->
    <!--Screen ID Area-->
    <!--Screen ID Area-->
    <SCREEN id = "GRP_ID_DIALER_MAIN"/>

    <!--End Screen Resource Area-->
    <!--End Screen Resource Area-->
    <!--------------------------------------------------------------------------------------------------------------------->
    <!--------------------------------------------------------------------------------------------------------------------->
    <!--Menu Item Area-->
    <!--Menu Item Area-->


    <!--End Menu Item Area-->
    <!--End Menu Item Area-->
    <!--------------------------------------------------------------------------------------------------------------------->
    <!--------------------------------------------------------------------------------------------------------------------->
    <!--Event proc Area-->
    <!--Event proc Area-->
# 175 "temp/res/Dialer.c"
    <!--Event proc Area-->
    <!--Event proc Area-->
    <!--------------------------------------------------------------------------------------------------------------------->
</APP>
