# 1 "temp/res/DtcntSrv.c"
# 1 "<built-in>"
# 1 "<command line>"
# 1 "temp/res/DtcntSrv.c"

# 1 "../../mmi/inc/mmi_features.h" 1
# 69 "../../mmi/inc/mmi_features.h"
# 1 "../../mmi/inc/MMI_features_switch.h" 1
# 67 "../../mmi/inc/MMI_features_switch.h"
# 1 "../../mmi/inc/MMI_features_type.h" 1
# 68 "../../mmi/inc/MMI_features_switch.h" 2
# 70 "../../mmi/inc/mmi_features.h" 2
# 3 "temp/res/DtcntSrv.c" 2


<?xml version="1.0" encoding="UTF-8"?>


<APP id="SRV_DTCNT">



    <!--Include Area-->

    <!-----------------------------------------------------String Resource Area----------------------------------------------------->





    <!-----------------------------------------------------Image Resource Area------------------------------------------------------>


    <!------------------------------------------------------Menu Resource Area------------------------------------------------------>


    <!------------------------------------------------------Other Resource---------------------------------------------------------->


    <EVENT id="EVT_ID_SRV_DTCNT_WLAN_ACTIVE" type="SENDER"/>
    <EVENT id="EVT_ID_SRV_DTCNT_WLAN_CONNECTED" type="SENDER"/>
    <EVENT id="EVT_ID_SRV_DTCNT_WLAN_INACTIVE" type="SENDER"/>
    <EVENT id="EVT_ID_SRV_DTCNT_WLAN_SCAN" type="SENDER"/>
    <EVENT id="EVT_ID_SRV_DTCNT_WLAN_CONNECT" type="SENDER"/>
    <EVENT id="EVT_ID_SRV_DTCNT_WLAN_BEARER_STATUS" type="SENDER"/>
    <EVENT id="EVT_ID_SRV_DTCNT_WLAN_CONN_IND" type="SENDER"/>
    <EVENT id="EVT_ID_SRV_DTCNT_WLAN_DISC_IND" type="SENDER"/>
    <EVENT id="EVT_ID_SRV_DTCNT_WLAN_IPADDR_UPDATE" type="SENDER"/>
    <EVENT id="EVT_ID_SRV_DTCNT_WLAN_IPADDR_CONFLICT_IND" type="SENDER"/>
    <EVENT id="EVT_ID_SRV_DTCNT_WLAN_CURR_AP_INFO" type="SENDER"/>
    <EVENT id="EVT_ID_SRV_DTCNT_WLAN_WPS_INFO" type="SENDER"/>
    <EVENT id="EVT_ID_SRV_DTCNT_WLAN_CHANGE_BEARER_TO_WLAN" type="SENDER"/>
    <EVENT id="EVT_ID_SRV_DTCNT_WLAN_CHANGE_BEARER_TO_CELLULAR_NETWORK" type="SENDER"/>
    <EVENT id="EVT_ID_SRV_DTCNT_PROV_IND" type="SENDER"/>
    <EVENT id="EVT_ID_SRV_DTCNT_PROV_INSTALL_RES_IND" type="SENDER"/>
    <EVENT id="EVT_ID_SRV_DTCNT_PROV_DONE_IND" type="SENDER"/>
    <EVENT id="EVT_ID_SRV_DTCNT_ACCT_UPDATE_IND" type="SENDER"/>
    <EVENT id="EVT_ID_SRV_DTCNT_ACCT_DELETE_IND" type="SENDER"/>
    <EVENT id="EVT_ID_SRV_DTCNT_SIM_PREFERENCE_UPDATE_IND" type="SENDER"/>
    <EVENT id="EVT_ID_SRV_DTCNT_CHANGE_REAL_ACCT_IND" type="SENDER"/>
    <EVENT id="EVT_ID_SRV_DTCNT_WLAN_INIT_RES_IND" type="SENDER"/>
    <EVENT id="EVT_ID_SRV_DTCNT_WLAN_DEINIT_RES_IND" type="SENDER"/>
    <EVENT id="EVT_ID_SRV_DTCNT_WLAN_CONN_RES_IND" type="SENDER"/>
    <EVENT id="EVT_ID_SRV_DTCNT_WLAN_DISC_RES_IND" type="SENDER"/>
    <EVENT id="EVT_ID_SRV_DTCNT_WLAN_SCAN_RES_IND" type="SENDER"/>
    <EVENT id="EVT_ID_SRV_DTCNT_WLAN_IPADDR_CHANGE_QRY" type="SENDER"/>
    <EVENT id="EVT_ID_SRV_DTCNT_WIFI_CHIP_INVALID" type="SENDER"/>
    <EVENT id="EVT_ID_SRV_DTCNT_WLAN_SEARCH_AP_OPEN_IND" type="SENDER"/>
    <EVENT id="EVT_ID_SRV_DTCNT_WLAN_SEARCH_AP_CLOSE_IND" type="SENDER"/>
    <EVENT id="EVT_ID_SRV_DTCNT_BEARER_INIT_WLAN_AP_QUERY_IND" type="SENDER"/>
    <EVENT id="EVT_ID_SRV_DTCNT_BEARER_DEINIT_WLAN_AP_QUERY_IND" type="SENDER"/>
    <EVENT id="EVT_ID_SRV_DTCNT_WLAN_AP_LIST_QUERY_IND" type="SENDER"/>
    <EVENT id="EVT_ID_SRV_DTCNT_WLAN_LOGOUT_IND" type="SENDER"/>
    <EVENT id="EVT_ID_SRV_DTCNT_WLAN_IPADDR_CHANGE_CNF" type="SENDER"/>
    <EVENT id="EVT_ID_SRV_DTCNT_WLAN_SWITCH_SAME_SSID_IND" type="SENDER"/>
    <EVENT id="EVT_ID_SRV_DTCNT_NET_STATUS_IND" type="SENDER"/>
    <EVENT id="EVT_ID_SRV_DTCNT_WLAN_CONN_PROF" type="SENDER"/>
    <EVENT id="EVT_ID_SRV_DTCNT_WLAN_SLEEP" type="SENDER"/>
# 76 "temp/res/DtcntSrv.c"
</APP>
