# 1 "temp/res/framework_asm.c"
# 1 "<built-in>"
# 1 "<command line>"
# 1 "temp/res/framework_asm.c"




<?xml version="1.0" encoding="UTF-8"?>


<APP id="FRAMEWORK_ASM">



    <!--Include Area-->

    <!-----------------------------------------------------String Resource Area----------------------------------------------------->

    <STRING id="STR_ID_APPMEM_ATTR_STOPPING"/>
    <STRING id="STR_ID_APPMEM_PROMPT_STOP_APP"/>
    <STRING id="STR_ID_APPMEM_STOP"/>
    <STRING id="STR_ID_APPMEM_WAIT"/>
    <STRING id="STR_ID_APPMEM_NOTIFY_STARTING_NEW"/>
    <STRING id="STR_ID_APPMEM_NOTIFY_STOPPED"/>


    <!-----------------------------------------------------Image Resource Area------------------------------------------------------>


    <!------------------------------------------------------Menu Resource Area------------------------------------------------------>


    <!------------------------------------------------------Other Resource---------------------------------------------------------->


</APP>
