# 1 "temp/res/GDI_Mem.c"
# 1 "<built-in>"
# 1 "<command line>"
# 1 "temp/res/GDI_Mem.c"
# 93 "temp/res/GDI_Mem.c"
<?xml version="1.0" encoding="UTF-8"?>

<APP id="SRV_GDI" name="STR_GDI">
    <MEMORY base="GDI_ASM_MEM_SIZE" fg="0" inc="gdi_const.h"/>
    <RECEIVER id="EVT_ID_SCRN_ENTER_SUCCESS_NOFITY" proc="gdi_image_9slice_handle_scrn_enter_proc"/>
</APP>
