# 1 "temp/res/IdleNotificationManager.c"
# 1 "<built-in>"
# 1 "<command line>"
# 1 "temp/res/IdleNotificationManager.c"
# 96 "temp/res/IdleNotificationManager.c"
# 1 "../../mmi/inc/MMI_features.h" 1
# 69 "../../mmi/inc/MMI_features.h"
# 1 "../../mmi/inc/MMI_features_switch.h" 1
# 67 "../../mmi/inc/MMI_features_switch.h"
# 1 "../../mmi/inc/MMI_features_type.h" 1
# 68 "../../mmi/inc/MMI_features_switch.h" 2
# 70 "../../mmi/inc/MMI_features.h" 2
# 97 "temp/res/IdleNotificationManager.c" 2
# 1 "../customerinc/CustResDef.h" 1
# 195 "../customerinc/CustResDef.h"
# 1 "../../mmi/inc/MMI_features.h" 1
# 196 "../customerinc/CustResDef.h" 2
# 98 "temp/res/IdleNotificationManager.c" 2


<?xml version="1.0" encoding="UTF-8"?>
<APP id="APP_IDLE_NMGR">

    <!----- Include Area ------------------------------------------------------>
    <INCLUDE file="GlobalResDef.h"/>


    <!----- String Resource Area ---------------------------------------------->
# 131 "temp/res/IdleNotificationManager.c"
    <!----- Image Resource Area ----------------------------------------------->


    <!----- Screen Resource Area ---------------------------------------------->
    <SCREEN id="SCR_ID_NMGR_DUMMY"/>
    <SCREEN id="SCR_ID_NMGR_NOTIFY"/>
    <SCREEN id="SCR_ID_NMGR_NOTIFY_ON_IDLE"/>


    <!----- Menu Resource Area ------------------------------------------------>

    <!----- Timer Resource Area ----------------------------------------------->
    <TIMER id = "IDLE_NMGR_GUARD_TIMER"/>

</APP>
