# 1 "temp/res/MREAppMgrSrv.c"
# 1 "<built-in>"
# 1 "<command line>"
# 1 "temp/res/MREAppMgrSrv.c"
# 1 "../../mmi/inc/MMI_features.h" 1
# 69 "../../mmi/inc/MMI_features.h"
# 1 "../../mmi/inc/MMI_features_switch.h" 1
# 67 "../../mmi/inc/MMI_features_switch.h"
# 1 "../../mmi/inc/MMI_features_type.h" 1
# 68 "../../mmi/inc/MMI_features_switch.h" 2
# 70 "../../mmi/inc/MMI_features.h" 2
# 2 "temp/res/MREAppMgrSrv.c" 2
# 1 "../customerinc/custresdef.h" 1
# 195 "../customerinc/custresdef.h"
# 1 "../../mmi/inc/MMI_features.h" 1
# 196 "../customerinc/custresdef.h" 2
# 3 "temp/res/MREAppMgrSrv.c" 2

<?xml version="1.0" encoding="UTF-8"?>

<APP id="APP_MRE_APPMGR">


    <!--Include Area-->

    <!-----------------------------------------------------String Resource Area----------------------------------------------------->

    <!-----------------------------------------------------Image Resource Area------------------------------------------------------>


    <!-----------------------------------------------------MRE AppMgr Shortcut app Resource Area------------------------------------------------------>
# 28 "temp/res/MREAppMgrSrv.c"
       <RECEIVER id="EVT_ID_USB_ENTER_MS_MODE" proc="srv_mre_push_event_hdlr"/>
                <RECEIVER id="EVT_ID_USB_EXIT_MS_MODE" proc="srv_mre_push_event_hdlr"/>
                <RECEIVER id="EVT_ID_SRV_FMGR_NOTIFICATION_DEV_PLUG_IN" proc="srv_mre_push_event_hdlr"/>
                <RECEIVER id="EVT_ID_SRV_FMGR_NOTIFICATION_DEV_PLUG_OUT" proc="srv_mre_push_event_hdlr"/>

    <!------------------------------------------------------Other Resource---------------------------------------------------------->

</APP>
