# 1 "temp/res/nmgr.c"
# 1 "<built-in>"
# 1 "<command line>"
# 1 "temp/res/nmgr.c"

# 1 "../../mmi/inc/mmi_features.h" 1
# 69 "../../mmi/inc/mmi_features.h"
# 1 "../../mmi/inc/MMI_features_switch.h" 1
# 67 "../../mmi/inc/MMI_features_switch.h"
# 1 "../../mmi/inc/MMI_features_type.h" 1
# 68 "../../mmi/inc/MMI_features_switch.h" 2
# 70 "../../mmi/inc/mmi_features.h" 2
# 3 "temp/res/nmgr.c" 2
# 1 "../customerinc/custresdef.h" 1
# 195 "../customerinc/custresdef.h"
# 1 "../../mmi/inc/MMI_features.h" 1
# 196 "../customerinc/custresdef.h" 2
# 4 "temp/res/nmgr.c" 2


<?xml version="1.0" encoding="UTF-8"?>


<APP id="SRV_NMGR">



    <!--Include Area-->

    <!-----------------------------------------------------String Resource Area----------------------------------------------------->


    <!-----------------------------------------------------Image Resource Area------------------------------------------------------>
# 28 "temp/res/nmgr.c"
    <!------------------------------------------------------Menu Resource Area------------------------------------------------------>


    <!------------------------------------------------------Other Resource---------------------------------------------------------->
    <SCREEN id="SCR_ID_NMGR_MESSGAGE_CONFIRM"/>
# 52 "temp/res/nmgr.c"
    <TIMER id="MMI_NOTIFICATION_SERVICE_TIMER"/>
    <TIMER id="MMI_NMGR_VIB_THEN_RING_TIMER"/>



    <SENDER id="EVT_ID_NMGR_FORCE_DEFER_QUERY" hfile="GlobalResDef.h"/>





</APP>
