# 1 "temp/res/RestoreSrv.c"
# 1 "<built-in>"
# 1 "<command line>"
# 1 "temp/res/RestoreSrv.c"
# 55 "temp/res/RestoreSrv.c"
# 1 "../../mmi/inc/MMI_features.h" 1
# 69 "../../mmi/inc/MMI_features.h"
# 1 "../../mmi/inc/MMI_features_switch.h" 1
# 67 "../../mmi/inc/MMI_features_switch.h"
# 1 "../../mmi/inc/MMI_features_type.h" 1
# 68 "../../mmi/inc/MMI_features_switch.h" 2
# 70 "../../mmi/inc/MMI_features.h" 2
# 56 "temp/res/RestoreSrv.c" 2
# 1 "../customerinc/CustResDef.h" 1
# 195 "../customerinc/CustResDef.h"
# 1 "../../mmi/inc/MMI_features.h" 1
# 196 "../customerinc/CustResDef.h" 2
# 57 "temp/res/RestoreSrv.c" 2


<?xml version = "1.0" encoding = "UTF-8"?>

<APP id = "SRV_RESTORE">
    <INCLUDE file = "GlobalResDef.h"/>

<!--------------------------------------------------------------------------------------------------------------------->
        <SENDER id="EVT_ID_SRV_RESTORE_START_NOTIFY" hfile="RestoreSrvGprot.h"/>
</APP>
