# 1 "temp/res/ScreenSaver.c"
# 1 "<built-in>"
# 1 "<command line>"
# 1 "temp/res/ScreenSaver.c"
# 122 "temp/res/ScreenSaver.c"
# 1 "../../mmi/inc/MMI_features.h" 1
# 69 "../../mmi/inc/MMI_features.h"
# 1 "../../mmi/inc/MMI_features_switch.h" 1
# 67 "../../mmi/inc/MMI_features_switch.h"
# 1 "../../mmi/inc/MMI_features_type.h" 1
# 68 "../../mmi/inc/MMI_features_switch.h" 2
# 70 "../../mmi/inc/MMI_features.h" 2
# 123 "temp/res/ScreenSaver.c" 2
# 1 "../customerinc/CustResDef.h" 1
# 195 "../customerinc/CustResDef.h"
# 1 "../../mmi/inc/MMI_features.h" 1
# 196 "../customerinc/CustResDef.h" 2
# 124 "temp/res/ScreenSaver.c" 2
# 1 "../../../custom/common/venus_mmi/custom_mmi_default_value.h" 1
# 187 "../../../custom/common/venus_mmi/custom_mmi_default_value.h"
# 1 "../../../kal/include/kal_non_specific_general_types.h" 1
# 188 "../../../custom/common/venus_mmi/custom_mmi_default_value.h" 2






# 1 "../../../custom/common/hal_public/customer_ps_inc.h" 1
# 215 "../../../custom/common/hal_public/customer_ps_inc.h"
# 1 "../../../custom/common/customer_email_num.h" 1
# 66 "../../../custom/common/customer_email_num.h"
# 1 "../../../kal/include/kal_general_types.h" 1
# 82 "../../../kal/include/kal_general_types.h"
# 1 "../../../kal/include/clib.h" 1
# 100 "../../../kal/include/clib.h"
# 1 "d:/mtk/6261src/61D_V15/Tools/MinGW/include/setjmp.h" 1 3
# 32 "d:/mtk/6261src/61D_V15/Tools/MinGW/include/setjmp.h" 3
# 1 "d:/mtk/6261src/61D_V15/Tools/MinGW/include/_mingw.h" 1 3
# 33 "d:/mtk/6261src/61D_V15/Tools/MinGW/include/setjmp.h" 2 3
# 49 "d:/mtk/6261src/61D_V15/Tools/MinGW/include/setjmp.h" 3
typedef int jmp_buf[16];





 int __attribute__((__cdecl__)) _setjmp (jmp_buf);







 void __attribute__((__cdecl__)) longjmp (jmp_buf, int);
# 101 "../../../kal/include/clib.h" 2

typedef long long mtk_jmpbuf[6];
# 111 "../../../kal/include/clib.h"
char *strtok_r(char *s1, const char *s2, char **ptr);




# 1 "d:/mtk/6261src/61D_V15/Tools/MinGW/include/time.h" 1 3
# 37 "d:/mtk/6261src/61D_V15/Tools/MinGW/include/time.h" 3
# 1 "d:/mtk/6261src/61D_V15/Tools/MinGW/include/stddef.h" 1 3





# 1 "d:/mtk/6261src/61D_V15/Tools/MinGW/lib/gcc-lib/mingw32/3.3.1/include/stddef.h" 1 3 4
# 220 "d:/mtk/6261src/61D_V15/Tools/MinGW/lib/gcc-lib/mingw32/3.3.1/include/stddef.h" 3 4
typedef unsigned int size_t;
# 332 "d:/mtk/6261src/61D_V15/Tools/MinGW/lib/gcc-lib/mingw32/3.3.1/include/stddef.h" 3 4
typedef short unsigned int wchar_t;
# 7 "d:/mtk/6261src/61D_V15/Tools/MinGW/include/stddef.h" 2 3
# 38 "d:/mtk/6261src/61D_V15/Tools/MinGW/include/time.h" 2 3





# 1 "d:/mtk/6261src/61D_V15/Tools/MinGW/include/sys/types.h" 1 3
# 38 "d:/mtk/6261src/61D_V15/Tools/MinGW/include/sys/types.h" 3
# 1 "d:/mtk/6261src/61D_V15/Tools/MinGW/include/stddef.h" 1 3





# 1 "d:/mtk/6261src/61D_V15/Tools/MinGW/lib/gcc-lib/mingw32/3.3.1/include/stddef.h" 1 3 4
# 158 "d:/mtk/6261src/61D_V15/Tools/MinGW/lib/gcc-lib/mingw32/3.3.1/include/stddef.h" 3 4
typedef int ptrdiff_t;
# 7 "d:/mtk/6261src/61D_V15/Tools/MinGW/include/stddef.h" 2 3
# 39 "d:/mtk/6261src/61D_V15/Tools/MinGW/include/sys/types.h" 2 3





typedef long time_t;
# 53 "d:/mtk/6261src/61D_V15/Tools/MinGW/include/sys/types.h" 3
typedef long _off_t;


typedef _off_t off_t;







typedef unsigned int _dev_t;





typedef _dev_t dev_t;






typedef short _ino_t;


typedef _ino_t ino_t;






typedef int _pid_t;


typedef _pid_t pid_t;






typedef unsigned short _mode_t;


typedef _mode_t mode_t;






typedef int _sigset_t;


typedef _sigset_t sigset_t;





typedef long _ssize_t;


typedef _ssize_t ssize_t;
# 44 "d:/mtk/6261src/61D_V15/Tools/MinGW/include/time.h" 2 3
# 69 "d:/mtk/6261src/61D_V15/Tools/MinGW/include/time.h" 3
typedef long clock_t;
# 78 "d:/mtk/6261src/61D_V15/Tools/MinGW/include/time.h" 3
struct tm
{
        int tm_sec;
        int tm_min;
        int tm_hour;
        int tm_mday;
        int tm_mon;
        int tm_year;
        int tm_wday;
        int tm_yday;
        int tm_isdst;

};





 clock_t __attribute__((__cdecl__)) clock (void);
 time_t __attribute__((__cdecl__)) time (time_t*);
 double __attribute__((__cdecl__)) difftime (time_t, time_t);
 time_t __attribute__((__cdecl__)) mktime (struct tm*);
# 111 "d:/mtk/6261src/61D_V15/Tools/MinGW/include/time.h" 3
 char* __attribute__((__cdecl__)) asctime (const struct tm*);
 char* __attribute__((__cdecl__)) ctime (const time_t*);
 struct tm* __attribute__((__cdecl__)) gmtime (const time_t*);
 struct tm* __attribute__((__cdecl__)) localtime (const time_t*);


 size_t __attribute__((__cdecl__)) strftime (char*, size_t, const char*, const struct tm*);

 size_t __attribute__((__cdecl__)) wcsftime (wchar_t*, size_t, const wchar_t*, const struct tm*);


extern void __attribute__((__cdecl__)) _tzset (void);


extern void __attribute__((__cdecl__)) tzset (void);


 char* __attribute__((__cdecl__)) _strdate(char*);
 char* __attribute__((__cdecl__)) _strtime(char*);
# 142 "d:/mtk/6261src/61D_V15/Tools/MinGW/include/time.h" 3
extern int* __attribute__((__cdecl__)) __p__daylight (void);
extern long* __attribute__((__cdecl__)) __p__timezone (void);
extern char** __attribute__((__cdecl__)) __p__tzname (void);

extern __attribute__((dllimport)) int _daylight;
extern __attribute__((dllimport)) long _timezone;
extern __attribute__((dllimport)) char *_tzname[2];
# 180 "d:/mtk/6261src/61D_V15/Tools/MinGW/include/time.h" 3
extern __attribute__((dllimport)) int daylight;
extern __attribute__((dllimport)) long timezone;
extern __attribute__((dllimport)) char *tzname[2];





 wchar_t* __attribute__((__cdecl__)) _wasctime(const struct tm*);
 wchar_t* __attribute__((__cdecl__)) _wctime(const time_t*);
 wchar_t* __attribute__((__cdecl__)) _wstrdate(wchar_t*);
 wchar_t* __attribute__((__cdecl__)) _wstrtime(wchar_t*);
# 117 "../../../kal/include/clib.h" 2
struct tm *localtime_r(const time_t *timer, struct tm *result);
struct tm *gmtime_r(const time_t *timer, struct tm *result);


# 1 "d:/mtk/6261src/61D_V15/Tools/MinGW/include/stdio.h" 1 3
# 42 "d:/mtk/6261src/61D_V15/Tools/MinGW/include/stdio.h" 3
# 1 "d:/mtk/6261src/61D_V15/Tools/MinGW/include/stddef.h" 1 3





# 1 "d:/mtk/6261src/61D_V15/Tools/MinGW/lib/gcc-lib/mingw32/3.3.1/include/stddef.h" 1 3 4
# 361 "d:/mtk/6261src/61D_V15/Tools/MinGW/lib/gcc-lib/mingw32/3.3.1/include/stddef.h" 3 4
typedef short unsigned int wint_t;
# 7 "d:/mtk/6261src/61D_V15/Tools/MinGW/include/stddef.h" 2 3
# 43 "d:/mtk/6261src/61D_V15/Tools/MinGW/include/stdio.h" 2 3

# 1 "d:/mtk/6261src/61D_V15/Tools/MinGW/include/stdarg.h" 1 3





# 1 "d:/mtk/6261src/61D_V15/Tools/MinGW/lib/gcc-lib/mingw32/3.3.1/include/stdarg.h" 1 3 4
# 44 "d:/mtk/6261src/61D_V15/Tools/MinGW/lib/gcc-lib/mingw32/3.3.1/include/stdarg.h" 3 4
typedef __builtin_va_list __gnuc_va_list;
# 7 "d:/mtk/6261src/61D_V15/Tools/MinGW/include/stdarg.h" 2 3
# 45 "d:/mtk/6261src/61D_V15/Tools/MinGW/include/stdio.h" 2 3
# 151 "d:/mtk/6261src/61D_V15/Tools/MinGW/include/stdio.h" 3
typedef struct _iobuf
{
        char* _ptr;
        int _cnt;
        char* _base;
        int _flag;
        int _file;
        int _charbuf;
        int _bufsiz;
        char* _tmpfname;
} FILE;
# 176 "d:/mtk/6261src/61D_V15/Tools/MinGW/include/stdio.h" 3
extern __attribute__((dllimport)) FILE _iob[];
# 191 "d:/mtk/6261src/61D_V15/Tools/MinGW/include/stdio.h" 3
 FILE* __attribute__((__cdecl__)) fopen (const char*, const char*);
 FILE* __attribute__((__cdecl__)) freopen (const char*, const char*, FILE*);
 int __attribute__((__cdecl__)) fflush (FILE*);
 int __attribute__((__cdecl__)) fclose (FILE*);

 int __attribute__((__cdecl__)) remove (const char*);
 int __attribute__((__cdecl__)) rename (const char*, const char*);
 FILE* __attribute__((__cdecl__)) tmpfile (void);
 char* __attribute__((__cdecl__)) tmpnam (char*);
 char* __attribute__((__cdecl__)) _tempnam (const char*, const char*);


 char* __attribute__((__cdecl__)) tempnam (const char*, const char*);


 int __attribute__((__cdecl__)) setvbuf (FILE*, char*, int, size_t);

 void __attribute__((__cdecl__)) setbuf (FILE*, char*);





 int __attribute__((__cdecl__)) fprintf (FILE*, const char*, ...);
 int __attribute__((__cdecl__)) printf (const char*, ...);
 int __attribute__((__cdecl__)) sprintf (char*, const char*, ...);
 int __attribute__((__cdecl__)) _snprintf (char*, size_t, const char*, ...);
 int __attribute__((__cdecl__)) vfprintf (FILE*, const char*, __gnuc_va_list);
 int __attribute__((__cdecl__)) vprintf (const char*, __gnuc_va_list);
 int __attribute__((__cdecl__)) vsprintf (char*, const char*, __gnuc_va_list);
 int __attribute__((__cdecl__)) _vsnprintf (char*, size_t, const char*, __gnuc_va_list);


int __attribute__((__cdecl__)) snprintf(char* s, size_t n, const char* format, ...);
extern __inline__ int __attribute__((__cdecl__))
vsnprintf (char* s, size_t n, const char* format, __gnuc_va_list arg)
  { return _vsnprintf ( s, n, format, arg); }
int __attribute__((__cdecl__)) vscanf (const char * __restrict__, __gnuc_va_list);
int __attribute__((__cdecl__)) vfscanf (FILE * __restrict__, const char * __restrict__,
                     __gnuc_va_list);
int __attribute__((__cdecl__)) vsscanf (const char * __restrict__,
                     const char * __restrict__, __gnuc_va_list);






 int __attribute__((__cdecl__)) fscanf (FILE*, const char*, ...);
 int __attribute__((__cdecl__)) scanf (const char*, ...);
 int __attribute__((__cdecl__)) sscanf (const char*, const char*, ...);




 int __attribute__((__cdecl__)) fgetc (FILE*);
 char* __attribute__((__cdecl__)) fgets (char*, int, FILE*);
 int __attribute__((__cdecl__)) fputc (int, FILE*);
 int __attribute__((__cdecl__)) fputs (const char*, FILE*);
 int __attribute__((__cdecl__)) getc (FILE*);
 int __attribute__((__cdecl__)) getchar (void);
 char* __attribute__((__cdecl__)) gets (char*);
 int __attribute__((__cdecl__)) putc (int, FILE*);
 int __attribute__((__cdecl__)) putchar (int);
 int __attribute__((__cdecl__)) puts (const char*);
 int __attribute__((__cdecl__)) ungetc (int, FILE*);





 size_t __attribute__((__cdecl__)) fread (void*, size_t, size_t, FILE*);
 size_t __attribute__((__cdecl__)) fwrite (const void*, size_t, size_t, FILE*);





 int __attribute__((__cdecl__)) fseek (FILE*, long, int);
 long __attribute__((__cdecl__)) ftell (FILE*);
 void __attribute__((__cdecl__)) rewind (FILE*);
# 295 "d:/mtk/6261src/61D_V15/Tools/MinGW/include/stdio.h" 3
typedef long long fpos_t;




 int __attribute__((__cdecl__)) fgetpos (FILE*, fpos_t*);
 int __attribute__((__cdecl__)) fsetpos (FILE*, const fpos_t*);





 void __attribute__((__cdecl__)) clearerr (FILE*);
 int __attribute__((__cdecl__)) feof (FILE*);
 int __attribute__((__cdecl__)) ferror (FILE*);
 void __attribute__((__cdecl__)) perror (const char*);






 FILE* __attribute__((__cdecl__)) _popen (const char*, const char*);
 int __attribute__((__cdecl__)) _pclose (FILE*);


 FILE* __attribute__((__cdecl__)) popen (const char*, const char*);
 int __attribute__((__cdecl__)) pclose (FILE*);





 int __attribute__((__cdecl__)) _flushall (void);
 int __attribute__((__cdecl__)) _fgetchar (void);
 int __attribute__((__cdecl__)) _fputchar (int);
 FILE* __attribute__((__cdecl__)) _fdopen (int, const char*);
 int __attribute__((__cdecl__)) _fileno (FILE*);
 int __attribute__((__cdecl__)) _fcloseall(void);

 int __attribute__((__cdecl__)) _getmaxstdio(void);
 int __attribute__((__cdecl__)) _setmaxstdio(int);



 int __attribute__((__cdecl__)) fgetchar (void);
 int __attribute__((__cdecl__)) fputchar (int);
 FILE* __attribute__((__cdecl__)) fdopen (int, const char*);
 int __attribute__((__cdecl__)) fileno (FILE*);
# 352 "d:/mtk/6261src/61D_V15/Tools/MinGW/include/stdio.h" 3
 int __attribute__((__cdecl__)) fwprintf (FILE*, const wchar_t*, ...);
 int __attribute__((__cdecl__)) wprintf (const wchar_t*, ...);
 int __attribute__((__cdecl__)) swprintf (wchar_t*, const wchar_t*, ...);
 int __attribute__((__cdecl__)) _snwprintf (wchar_t*, size_t, const wchar_t*, ...);
 int __attribute__((__cdecl__)) vfwprintf (FILE*, const wchar_t*, __gnuc_va_list);
 int __attribute__((__cdecl__)) vwprintf (const wchar_t*, __gnuc_va_list);
 int __attribute__((__cdecl__)) vswprintf (wchar_t*, const wchar_t*, __gnuc_va_list);
 int __attribute__((__cdecl__)) _vsnwprintf (wchar_t*, size_t, const wchar_t*, __gnuc_va_list);
 int __attribute__((__cdecl__)) fwscanf (FILE*, const wchar_t*, ...);
 int __attribute__((__cdecl__)) wscanf (const wchar_t*, ...);
 int __attribute__((__cdecl__)) swscanf (const wchar_t*, const wchar_t*, ...);
 wint_t __attribute__((__cdecl__)) fgetwc (FILE*);
 wint_t __attribute__((__cdecl__)) fputwc (wchar_t, FILE*);
 wint_t __attribute__((__cdecl__)) ungetwc (wchar_t, FILE*);


 wchar_t* __attribute__((__cdecl__)) fgetws (wchar_t*, int, FILE*);
 int __attribute__((__cdecl__)) fputws (const wchar_t*, FILE*);
 wint_t __attribute__((__cdecl__)) getwc (FILE*);
 wint_t __attribute__((__cdecl__)) getwchar (void);
 wchar_t* __attribute__((__cdecl__)) _getws (wchar_t*);
 wint_t __attribute__((__cdecl__)) putwc (wint_t, FILE*);
 int __attribute__((__cdecl__)) _putws (const wchar_t*);
 wint_t __attribute__((__cdecl__)) putwchar (wint_t);
 FILE* __attribute__((__cdecl__)) _wfdopen(int, wchar_t *);
 FILE* __attribute__((__cdecl__)) _wfopen (const wchar_t*, const wchar_t*);
 FILE* __attribute__((__cdecl__)) _wfreopen (const wchar_t*, const wchar_t*, FILE*);
 FILE* __attribute__((__cdecl__)) _wfsopen (const wchar_t*, const wchar_t*, int);
 wchar_t* __attribute__((__cdecl__)) _wtmpnam (wchar_t*);
 wchar_t* __attribute__((__cdecl__)) _wtempnam (const wchar_t*, const wchar_t*);
 int __attribute__((__cdecl__)) _wrename (const wchar_t*, const wchar_t*);
 int __attribute__((__cdecl__)) _wremove (const wchar_t*);
 void __attribute__((__cdecl__)) _wperror (const wchar_t*);
 FILE* __attribute__((__cdecl__)) _wpopen (const wchar_t*, const wchar_t*);



int __attribute__((__cdecl__)) snwprintf (wchar_t* s, size_t n, const wchar_t* format, ...);
extern __inline__ int __attribute__((__cdecl__))
vsnwprintf (wchar_t* s, size_t n, const wchar_t* format, __gnuc_va_list arg)
  { return _vsnwprintf ( s, n, format, arg);}
int __attribute__((__cdecl__)) vwscanf (const wchar_t * __restrict__, __gnuc_va_list);
int __attribute__((__cdecl__)) vfwscanf (FILE * __restrict__,
                       const wchar_t * __restrict__, __gnuc_va_list);
int __attribute__((__cdecl__)) vswscanf (const wchar_t * __restrict__,
                       const wchar_t * __restrict__, __gnuc_va_list);
# 406 "d:/mtk/6261src/61D_V15/Tools/MinGW/include/stdio.h" 3
 FILE* __attribute__((__cdecl__)) wpopen (const wchar_t*, const wchar_t*);






 wint_t __attribute__((__cdecl__)) _fgetwchar (void);
 wint_t __attribute__((__cdecl__)) _fputwchar (wint_t);
 int __attribute__((__cdecl__)) _getw (FILE*);
 int __attribute__((__cdecl__)) _putw (int, FILE*);


 wint_t __attribute__((__cdecl__)) fgetwchar (void);
 wint_t __attribute__((__cdecl__)) fputwchar (wint_t);
 int __attribute__((__cdecl__)) getw (FILE*);
 int __attribute__((__cdecl__)) putw (int, FILE*);
# 122 "../../../kal/include/clib.h" 2
# 1 "d:/mtk/6261src/61D_V15/Tools/MinGW/include/stdarg.h" 1 3





# 1 "d:/mtk/6261src/61D_V15/Tools/MinGW/lib/gcc-lib/mingw32/3.3.1/include/stdarg.h" 1 3 4
# 118 "d:/mtk/6261src/61D_V15/Tools/MinGW/lib/gcc-lib/mingw32/3.3.1/include/stdarg.h" 3 4
typedef __gnuc_va_list va_list;
# 7 "d:/mtk/6261src/61D_V15/Tools/MinGW/include/stdarg.h" 2 3
# 123 "../../../kal/include/clib.h" 2
# 1 "d:/mtk/6261src/61D_V15/Tools/MinGW/include/wchar.h" 1 3
# 33 "d:/mtk/6261src/61D_V15/Tools/MinGW/include/wchar.h" 3
# 1 "d:/mtk/6261src/61D_V15/Tools/MinGW/include/ctype.h" 1 3
# 36 "d:/mtk/6261src/61D_V15/Tools/MinGW/include/ctype.h" 3
# 1 "d:/mtk/6261src/61D_V15/Tools/MinGW/include/stddef.h" 1 3





# 1 "d:/mtk/6261src/61D_V15/Tools/MinGW/lib/gcc-lib/mingw32/3.3.1/include/stddef.h" 1 3 4
# 7 "d:/mtk/6261src/61D_V15/Tools/MinGW/include/stddef.h" 2 3
# 37 "d:/mtk/6261src/61D_V15/Tools/MinGW/include/ctype.h" 2 3
# 62 "d:/mtk/6261src/61D_V15/Tools/MinGW/include/ctype.h" 3
 int __attribute__((__cdecl__)) isalnum(int);
 int __attribute__((__cdecl__)) isalpha(int);
 int __attribute__((__cdecl__)) iscntrl(int);
 int __attribute__((__cdecl__)) isdigit(int);
 int __attribute__((__cdecl__)) isgraph(int);
 int __attribute__((__cdecl__)) islower(int);
 int __attribute__((__cdecl__)) isprint(int);
 int __attribute__((__cdecl__)) ispunct(int);
 int __attribute__((__cdecl__)) isspace(int);
 int __attribute__((__cdecl__)) isupper(int);
 int __attribute__((__cdecl__)) isxdigit(int);


 int __attribute__((__cdecl__)) _isctype (int, int);



 int __attribute__((__cdecl__)) tolower(int);
 int __attribute__((__cdecl__)) toupper(int);
# 92 "d:/mtk/6261src/61D_V15/Tools/MinGW/include/ctype.h" 3
 int __attribute__((__cdecl__)) _tolower(int);
 int __attribute__((__cdecl__)) _toupper(int);







   extern __attribute__((dllimport)) int __mb_cur_max;
# 120 "d:/mtk/6261src/61D_V15/Tools/MinGW/include/ctype.h" 3
extern __attribute__((dllimport)) unsigned short _ctype[];

  extern __attribute__((dllimport)) unsigned short* _pctype;
# 187 "d:/mtk/6261src/61D_V15/Tools/MinGW/include/ctype.h" 3
typedef wchar_t wctype_t;



 int __attribute__((__cdecl__)) iswalnum(wint_t);
 int __attribute__((__cdecl__)) iswalpha(wint_t);
 int __attribute__((__cdecl__)) iswascii(wint_t);
 int __attribute__((__cdecl__)) iswcntrl(wint_t);
 int __attribute__((__cdecl__)) iswctype(wint_t, wctype_t);
 int __attribute__((__cdecl__)) is_wctype(wint_t, wctype_t);
 int __attribute__((__cdecl__)) iswdigit(wint_t);
 int __attribute__((__cdecl__)) iswgraph(wint_t);
 int __attribute__((__cdecl__)) iswlower(wint_t);
 int __attribute__((__cdecl__)) iswprint(wint_t);
 int __attribute__((__cdecl__)) iswpunct(wint_t);
 int __attribute__((__cdecl__)) iswspace(wint_t);
 int __attribute__((__cdecl__)) iswupper(wint_t);
 int __attribute__((__cdecl__)) iswxdigit(wint_t);

 wchar_t __attribute__((__cdecl__)) towlower(wchar_t);
 wchar_t __attribute__((__cdecl__)) towupper(wchar_t);

 int __attribute__((__cdecl__)) isleadbyte (int);
# 231 "d:/mtk/6261src/61D_V15/Tools/MinGW/include/ctype.h" 3
int __attribute__((__cdecl__)) __isascii (int);
int __attribute__((__cdecl__)) __toascii (int);
int __attribute__((__cdecl__)) __iscsymf (int);
int __attribute__((__cdecl__)) __iscsym (int);
# 245 "d:/mtk/6261src/61D_V15/Tools/MinGW/include/ctype.h" 3
int __attribute__((__cdecl__)) isascii (int);
int __attribute__((__cdecl__)) toascii (int);
int __attribute__((__cdecl__)) iscsymf (int);
int __attribute__((__cdecl__)) iscsym (int);
# 34 "d:/mtk/6261src/61D_V15/Tools/MinGW/include/wchar.h" 2 3

# 1 "d:/mtk/6261src/61D_V15/Tools/MinGW/include/stdlib.h" 1 3
# 38 "d:/mtk/6261src/61D_V15/Tools/MinGW/include/stdlib.h" 3
# 1 "d:/mtk/6261src/61D_V15/Tools/MinGW/include/stddef.h" 1 3





# 1 "d:/mtk/6261src/61D_V15/Tools/MinGW/lib/gcc-lib/mingw32/3.3.1/include/stddef.h" 1 3 4
# 7 "d:/mtk/6261src/61D_V15/Tools/MinGW/include/stddef.h" 2 3
# 39 "d:/mtk/6261src/61D_V15/Tools/MinGW/include/stdlib.h" 2 3
# 86 "d:/mtk/6261src/61D_V15/Tools/MinGW/include/stdlib.h" 3
extern int _argc;
extern char** _argv;




extern int* __attribute__((__cdecl__)) __p___argc(void);
extern char*** __attribute__((__cdecl__)) __p___argv(void);
extern wchar_t*** __attribute__((__cdecl__)) __p___wargv(void);
# 152 "d:/mtk/6261src/61D_V15/Tools/MinGW/include/stdlib.h" 3
 int* __attribute__((__cdecl__)) _errno(void);


 int* __attribute__((__cdecl__)) __doserrno(void);







  extern char *** __attribute__((__cdecl__)) __p__environ(void);
  extern wchar_t *** __attribute__((__cdecl__)) __p__wenviron(void);
# 186 "d:/mtk/6261src/61D_V15/Tools/MinGW/include/stdlib.h" 3
  extern __attribute__((dllimport)) int _sys_nerr;
# 210 "d:/mtk/6261src/61D_V15/Tools/MinGW/include/stdlib.h" 3
extern __attribute__((dllimport)) char* _sys_errlist[];
# 224 "d:/mtk/6261src/61D_V15/Tools/MinGW/include/stdlib.h" 3
extern unsigned __attribute__((__cdecl__)) int* __p__osver(void);
extern unsigned __attribute__((__cdecl__)) int* __p__winver(void);
extern unsigned __attribute__((__cdecl__)) int* __p__winmajor(void);
extern unsigned __attribute__((__cdecl__)) int* __p__winminor(void);







extern __attribute__((dllimport)) unsigned int _osver;
extern __attribute__((dllimport)) unsigned int _winver;
extern __attribute__((dllimport)) unsigned int _winmajor;
extern __attribute__((dllimport)) unsigned int _winminor;
# 275 "d:/mtk/6261src/61D_V15/Tools/MinGW/include/stdlib.h" 3
 char** __attribute__((__cdecl__)) __p__pgmptr(void);

 wchar_t** __attribute__((__cdecl__)) __p__wpgmptr(void);
# 308 "d:/mtk/6261src/61D_V15/Tools/MinGW/include/stdlib.h" 3
extern __attribute__((dllimport)) int _fmode;
# 324 "d:/mtk/6261src/61D_V15/Tools/MinGW/include/stdlib.h" 3
 double __attribute__((__cdecl__)) atof (const char*);
 int __attribute__((__cdecl__)) atoi (const char*);
 long __attribute__((__cdecl__)) atol (const char*);
 int __attribute__((__cdecl__)) _wtoi (const wchar_t *);
 long __attribute__((__cdecl__)) _wtol (const wchar_t *);

 double __attribute__((__cdecl__)) strtod (const char*, char**);

extern __inline__ float __attribute__((__cdecl__)) strtof (const char *nptr, char **endptr)
  { return (strtod (nptr, endptr));}
long double __attribute__((__cdecl__)) strtold (const char * __restrict__, char ** __restrict__);


 long __attribute__((__cdecl__)) strtol (const char*, char**, int);
 unsigned long __attribute__((__cdecl__)) strtoul (const char*, char**, int);



 double __attribute__((__cdecl__)) wcstod (const wchar_t*, wchar_t**);

extern __inline__ float __attribute__((__cdecl__)) wcstof( const wchar_t *nptr, wchar_t **endptr)
{ return (wcstod(nptr, endptr)); }
long double __attribute__((__cdecl__)) wcstold (const wchar_t * __restrict__, wchar_t ** __restrict__);


 long __attribute__((__cdecl__)) wcstol (const wchar_t*, wchar_t**, int);
 unsigned long __attribute__((__cdecl__)) wcstoul (const wchar_t*, wchar_t**, int);



 size_t __attribute__((__cdecl__)) wcstombs (char*, const wchar_t*, size_t);
 int __attribute__((__cdecl__)) wctomb (char*, wchar_t);

 int __attribute__((__cdecl__)) mblen (const char*, size_t);
 size_t __attribute__((__cdecl__)) mbstowcs (wchar_t*, const char*, size_t);
 int __attribute__((__cdecl__)) mbtowc (wchar_t*, const char*, size_t);

 int __attribute__((__cdecl__)) rand (void);
 void __attribute__((__cdecl__)) srand (unsigned int);

 void* __attribute__((__cdecl__)) calloc (size_t, size_t);
 void* __attribute__((__cdecl__)) malloc (size_t);
 void* __attribute__((__cdecl__)) realloc (void*, size_t);
 void __attribute__((__cdecl__)) free (void*);

 void __attribute__((__cdecl__)) abort (void) __attribute__ ((noreturn));
 void __attribute__((__cdecl__)) exit (int) __attribute__ ((noreturn));


int __attribute__((__cdecl__)) atexit (void (*)(void));

 int __attribute__((__cdecl__)) system (const char*);
 char* __attribute__((__cdecl__)) getenv (const char*);


 void* __attribute__((__cdecl__)) bsearch (const void*, const void*, size_t, size_t,
                                 int (*)(const void*, const void*));
 void __attribute__((__cdecl__)) qsort (void*, size_t, size_t,
                                 int (*)(const void*, const void*));

 int __attribute__((__cdecl__)) abs (int);
 long __attribute__((__cdecl__)) labs (long);
# 395 "d:/mtk/6261src/61D_V15/Tools/MinGW/include/stdlib.h" 3
typedef struct { int quot, rem; } div_t;
typedef struct { long quot, rem; } ldiv_t;

 div_t __attribute__((__cdecl__)) div (int, int);
 ldiv_t __attribute__((__cdecl__)) ldiv (long, long);







 void __attribute__((__cdecl__)) _beep (unsigned int, unsigned int);
 void __attribute__((__cdecl__)) _seterrormode (int);
 void __attribute__((__cdecl__)) _sleep (unsigned long);

 void __attribute__((__cdecl__)) _exit (int) __attribute__ ((noreturn));



typedef int (* _onexit_t)(void);
_onexit_t __attribute__((__cdecl__)) _onexit( _onexit_t );

 int __attribute__((__cdecl__)) _putenv (const char*);
 void __attribute__((__cdecl__)) _searchenv (const char*, const char*, char*);


 char* __attribute__((__cdecl__)) _ecvt (double, int, int*, int*);
 char* __attribute__((__cdecl__)) _fcvt (double, int, int*, int*);
 char* __attribute__((__cdecl__)) _gcvt (double, int, char*);

 void __attribute__((__cdecl__)) _makepath (char*, const char*, const char*, const char*, const char*);
 void __attribute__((__cdecl__)) _splitpath (const char*, char*, char*, char*, char*);
 char* __attribute__((__cdecl__)) _fullpath (char*, const char*, size_t);

 char* __attribute__((__cdecl__)) _itoa (int, char*, int);
 char* __attribute__((__cdecl__)) _ltoa (long, char*, int);
 char* __attribute__((__cdecl__)) _ultoa(unsigned long, char*, int);
 wchar_t* __attribute__((__cdecl__)) _itow (int, wchar_t*, int);
 wchar_t* __attribute__((__cdecl__)) _ltow (long, wchar_t*, int);
 wchar_t* __attribute__((__cdecl__)) _ultow (unsigned long, wchar_t*, int);


 long long __attribute__((__cdecl__)) _atoi64(const char *);
 char* __attribute__((__cdecl__)) _i64toa(long long, char *, int);
 char* __attribute__((__cdecl__)) _ui64toa(unsigned long long, char *, int);
 long long __attribute__((__cdecl__)) _wtoi64(const wchar_t *);
 wchar_t* __attribute__((__cdecl__)) _i64tow(long long, wchar_t *, int);
 wchar_t* __attribute__((__cdecl__)) _ui64tow(unsigned long long, wchar_t *, int);

 wchar_t* __attribute__((__cdecl__)) _wgetenv(const wchar_t*);
 int __attribute__((__cdecl__)) _wputenv(const wchar_t*);
 void __attribute__((__cdecl__)) _wsearchenv(const wchar_t*, const wchar_t*, wchar_t*);
 void __attribute__((__cdecl__)) _wmakepath(wchar_t*, const wchar_t*, const wchar_t*, const wchar_t*, const wchar_t*);
 void __attribute__((__cdecl__)) _wsplitpath (const wchar_t*, wchar_t*, wchar_t*, wchar_t*, wchar_t*);
 wchar_t* __attribute__((__cdecl__)) _wfullpath (wchar_t*, const wchar_t*, size_t);

 unsigned int __attribute__((__cdecl__)) _rotl(unsigned int, int);
 unsigned int __attribute__((__cdecl__)) _rotr(unsigned int, int);
 unsigned long __attribute__((__cdecl__)) _lrotl(unsigned long, int);
 unsigned long __attribute__((__cdecl__)) _lrotr(unsigned long, int);




 int __attribute__((__cdecl__)) putenv (const char*);
 void __attribute__((__cdecl__)) searchenv (const char*, const char*, char*);

 char* __attribute__((__cdecl__)) itoa (int, char*, int);
 char* __attribute__((__cdecl__)) ltoa (long, char*, int);


 char* __attribute__((__cdecl__)) ecvt (double, int, int*, int*);
 char* __attribute__((__cdecl__)) fcvt (double, int, int*, int*);
 char* __attribute__((__cdecl__)) gcvt (double, int, char*);
# 480 "d:/mtk/6261src/61D_V15/Tools/MinGW/include/stdlib.h" 3
void __attribute__((__cdecl__)) _Exit(int) __attribute__ ((noreturn));

extern __inline__ void __attribute__((__cdecl__)) _Exit(int status)
        { _exit(status); }


typedef struct { long long quot, rem; } lldiv_t;

lldiv_t __attribute__((__cdecl__)) lldiv (long long, long long);

extern __inline__ long long __attribute__((__cdecl__)) llabs(long long _j)
  {return (_j >= 0 ? _j : -_j);}

long long __attribute__((__cdecl__)) strtoll (const char* __restrict__, char** __restrict, int);
unsigned long long __attribute__((__cdecl__)) strtoull (const char* __restrict__, char** __restrict__, int);


long long __attribute__((__cdecl__)) atoll (const char *);


long long __attribute__((__cdecl__)) wtoll (const wchar_t *);
char* __attribute__((__cdecl__)) lltoa (long long, char *, int);
char* __attribute__((__cdecl__)) ulltoa (unsigned long long , char *, int);
wchar_t* __attribute__((__cdecl__)) lltow (long long, wchar_t *, int);
wchar_t* __attribute__((__cdecl__)) ulltow (unsigned long long, wchar_t *, int);


extern __inline__ long long __attribute__((__cdecl__)) atoll (const char * _c)
        { return _atoi64 (_c); }
extern __inline__ char* __attribute__((__cdecl__)) lltoa (long long _n, char * _c, int _i)
        { return _i64toa (_n, _c, _i); }
extern __inline__ char* __attribute__((__cdecl__)) ulltoa (unsigned long long _n, char * _c, int _i)
        { return _ui64toa (_n, _c, _i); }
extern __inline__ long long __attribute__((__cdecl__)) wtoll (const wchar_t * _w)
        { return _wtoi64 (_w); }
extern __inline__ wchar_t* __attribute__((__cdecl__)) lltow (long long _n, wchar_t * _w, int _i)
        { return _i64tow (_n, _w, _i); }
extern __inline__ wchar_t* __attribute__((__cdecl__)) ulltow (unsigned long long _n, wchar_t * _w, int _i)
        { return _ui64tow (_n, _w, _i); }
# 36 "d:/mtk/6261src/61D_V15/Tools/MinGW/include/wchar.h" 2 3
# 1 "d:/mtk/6261src/61D_V15/Tools/MinGW/include/string.h" 1 3
# 40 "d:/mtk/6261src/61D_V15/Tools/MinGW/include/string.h" 3
# 1 "d:/mtk/6261src/61D_V15/Tools/MinGW/include/stddef.h" 1 3





# 1 "d:/mtk/6261src/61D_V15/Tools/MinGW/lib/gcc-lib/mingw32/3.3.1/include/stddef.h" 1 3 4
# 7 "d:/mtk/6261src/61D_V15/Tools/MinGW/include/stddef.h" 2 3
# 41 "d:/mtk/6261src/61D_V15/Tools/MinGW/include/string.h" 2 3
# 52 "d:/mtk/6261src/61D_V15/Tools/MinGW/include/string.h" 3
 void* __attribute__((__cdecl__)) memchr (const void*, int, size_t);
 int __attribute__((__cdecl__)) memcmp (const void*, const void*, size_t);
 void* __attribute__((__cdecl__)) memcpy (void*, const void*, size_t);
 void* __attribute__((__cdecl__)) memmove (void*, const void*, size_t);
 void* __attribute__((__cdecl__)) memset (void*, int, size_t);
 char* __attribute__((__cdecl__)) strcat (char*, const char*);
 char* __attribute__((__cdecl__)) strchr (const char*, int);
 int __attribute__((__cdecl__)) strcmp (const char*, const char*);
 int __attribute__((__cdecl__)) strcoll (const char*, const char*);
 char* __attribute__((__cdecl__)) strcpy (char*, const char*);
 size_t __attribute__((__cdecl__)) strcspn (const char*, const char*);
 char* __attribute__((__cdecl__)) strerror (int);

 size_t __attribute__((__cdecl__)) strlen (const char*);
 char* __attribute__((__cdecl__)) strncat (char*, const char*, size_t);
 int __attribute__((__cdecl__)) strncmp (const char*, const char*, size_t);
 char* __attribute__((__cdecl__)) strncpy (char*, const char*, size_t);
 char* __attribute__((__cdecl__)) strpbrk (const char*, const char*);
 char* __attribute__((__cdecl__)) strrchr (const char*, int);
 size_t __attribute__((__cdecl__)) strspn (const char*, const char*);
 char* __attribute__((__cdecl__)) strstr (const char*, const char*);
 char* __attribute__((__cdecl__)) strtok (char*, const char*);
 size_t __attribute__((__cdecl__)) strxfrm (char*, const char*, size_t);





 char* __attribute__((__cdecl__)) _strerror (const char *);
 void* __attribute__((__cdecl__)) _memccpy (void*, const void*, int, size_t);
 int __attribute__((__cdecl__)) _memicmp (const void*, const void*, size_t);
 char* __attribute__((__cdecl__)) _strdup (const char*);
 int __attribute__((__cdecl__)) _strcmpi (const char*, const char*);
 int __attribute__((__cdecl__)) _stricmp (const char*, const char*);
 int __attribute__((__cdecl__)) _stricoll (const char*, const char*);
 char* __attribute__((__cdecl__)) _strlwr (char*);
 int __attribute__((__cdecl__)) _strnicmp (const char*, const char*, size_t);
 char* __attribute__((__cdecl__)) _strnset (char*, int, size_t);
 char* __attribute__((__cdecl__)) _strrev (char*);
 char* __attribute__((__cdecl__)) _strset (char*, int);
 char* __attribute__((__cdecl__)) _strupr (char*);
 void __attribute__((__cdecl__)) _swab (const char*, char*, size_t);


 int __attribute__((__cdecl__)) _strncoll(const char*, const char*, size_t);
 int __attribute__((__cdecl__)) _strnicoll(const char*, const char*, size_t);







 wchar_t* __attribute__((__cdecl__)) wcscat (wchar_t*, const wchar_t*);
 wchar_t* __attribute__((__cdecl__)) wcschr (const wchar_t*, wchar_t);
 int __attribute__((__cdecl__)) wcscmp (const wchar_t*, const wchar_t*);
 int __attribute__((__cdecl__)) wcscoll (const wchar_t*, const wchar_t*);
 wchar_t* __attribute__((__cdecl__)) wcscpy (wchar_t*, const wchar_t*);
 size_t __attribute__((__cdecl__)) wcscspn (const wchar_t*, const wchar_t*);

 size_t __attribute__((__cdecl__)) wcslen (const wchar_t*);
 wchar_t* __attribute__((__cdecl__)) wcsncat (wchar_t*, const wchar_t*, size_t);
 int __attribute__((__cdecl__)) wcsncmp(const wchar_t*, const wchar_t*, size_t);
 wchar_t* __attribute__((__cdecl__)) wcsncpy(wchar_t*, const wchar_t*, size_t);
 wchar_t* __attribute__((__cdecl__)) wcspbrk(const wchar_t*, const wchar_t*);
 wchar_t* __attribute__((__cdecl__)) wcsrchr(const wchar_t*, wchar_t);
 size_t __attribute__((__cdecl__)) wcsspn(const wchar_t*, const wchar_t*);
 wchar_t* __attribute__((__cdecl__)) wcsstr(const wchar_t*, const wchar_t*);
 wchar_t* __attribute__((__cdecl__)) wcstok(wchar_t*, const wchar_t*);
 size_t __attribute__((__cdecl__)) wcsxfrm(wchar_t*, const wchar_t*, size_t);
# 131 "d:/mtk/6261src/61D_V15/Tools/MinGW/include/string.h" 3
 wchar_t* __attribute__((__cdecl__)) _wcsdup (const wchar_t*);
 int __attribute__((__cdecl__)) _wcsicmp (const wchar_t*, const wchar_t*);
 int __attribute__((__cdecl__)) _wcsicoll (const wchar_t*, const wchar_t*);
 wchar_t* __attribute__((__cdecl__)) _wcslwr (wchar_t*);
 int __attribute__((__cdecl__)) _wcsnicmp (const wchar_t*, const wchar_t*, size_t);
 wchar_t* __attribute__((__cdecl__)) _wcsnset (wchar_t*, wchar_t, size_t);
 wchar_t* __attribute__((__cdecl__)) _wcsrev (wchar_t*);
 wchar_t* __attribute__((__cdecl__)) _wcsset (wchar_t*, wchar_t);
 wchar_t* __attribute__((__cdecl__)) _wcsupr (wchar_t*);


 int __attribute__((__cdecl__)) _wcsncoll(const wchar_t*, const wchar_t*, size_t);
 int __attribute__((__cdecl__)) _wcsnicoll(const wchar_t*, const wchar_t*, size_t);
# 159 "d:/mtk/6261src/61D_V15/Tools/MinGW/include/string.h" 3
 void* __attribute__((__cdecl__)) memccpy (void*, const void*, int, size_t);
 int __attribute__((__cdecl__)) memicmp (const void*, const void*, size_t);
 char* __attribute__((__cdecl__)) strdup (const char*);
 int __attribute__((__cdecl__)) strcmpi (const char*, const char*);
 int __attribute__((__cdecl__)) stricmp (const char*, const char*);
extern __inline__ int __attribute__((__cdecl__))
strcasecmp (const char * __sz1, const char * __sz2)
  {return _stricmp (__sz1, __sz2);}
 int __attribute__((__cdecl__)) stricoll (const char*, const char*);
 char* __attribute__((__cdecl__)) strlwr (char*);
 int __attribute__((__cdecl__)) strnicmp (const char*, const char*, size_t);
extern __inline__ int __attribute__((__cdecl__))
strncasecmp (const char * __sz1, const char * __sz2, size_t __sizeMaxCompare)
  {return _strnicmp (__sz1, __sz2, __sizeMaxCompare);}
 char* __attribute__((__cdecl__)) strnset (char*, int, size_t);
 char* __attribute__((__cdecl__)) strrev (char*);
 char* __attribute__((__cdecl__)) strset (char*, int);
 char* __attribute__((__cdecl__)) strupr (char*);

 void __attribute__((__cdecl__)) swab (const char*, char*, size_t);



extern __inline__ int __attribute__((__cdecl__))
wcscmpi (const wchar_t * __ws1, const wchar_t * __ws2)
  {return _wcsicmp (__ws1, __ws2);}
 wchar_t* __attribute__((__cdecl__)) wcsdup (wchar_t*);
 int __attribute__((__cdecl__)) wcsicmp (const wchar_t*, const wchar_t*);
 int __attribute__((__cdecl__)) wcsicoll (const wchar_t*, const wchar_t*);
 wchar_t* __attribute__((__cdecl__)) wcslwr (wchar_t*);
 int __attribute__((__cdecl__)) wcsnicmp (const wchar_t*, const wchar_t*, size_t);
 wchar_t* __attribute__((__cdecl__)) wcsnset (wchar_t*, wchar_t, size_t);
 wchar_t* __attribute__((__cdecl__)) wcsrev (wchar_t*);
 wchar_t* __attribute__((__cdecl__)) wcsset (wchar_t*, wchar_t);
 wchar_t* __attribute__((__cdecl__)) wcsupr (wchar_t*);
# 37 "d:/mtk/6261src/61D_V15/Tools/MinGW/include/wchar.h" 2 3







# 1 "d:/mtk/6261src/61D_V15/Tools/MinGW/include/stddef.h" 1 3





# 1 "d:/mtk/6261src/61D_V15/Tools/MinGW/lib/gcc-lib/mingw32/3.3.1/include/stddef.h" 1 3 4
# 7 "d:/mtk/6261src/61D_V15/Tools/MinGW/include/stddef.h" 2 3
# 45 "d:/mtk/6261src/61D_V15/Tools/MinGW/include/wchar.h" 2 3
# 59 "d:/mtk/6261src/61D_V15/Tools/MinGW/include/wchar.h" 3
typedef unsigned long _fsize_t;




struct _wfinddata_t {
        unsigned attrib;
        time_t time_create;
        time_t time_access;
        time_t time_write;
        _fsize_t size;
        wchar_t name[(260)];
};
struct _wfinddatai64_t {
    unsigned attrib;
    time_t time_create;
    time_t time_access;
    time_t time_write;
    long long size;
    wchar_t name[(260)];
};
# 88 "d:/mtk/6261src/61D_V15/Tools/MinGW/include/wchar.h" 3
 int __attribute__((__cdecl__)) _waccess (const wchar_t*, int);
 int __attribute__((__cdecl__)) _wchmod (const wchar_t*, int);
 int __attribute__((__cdecl__)) _wcreat (const wchar_t*, int);
 long __attribute__((__cdecl__)) _wfindfirst (const wchar_t*, struct _wfinddata_t *);
 int __attribute__((__cdecl__)) _wfindnext (long, struct _wfinddata_t *);
 int __attribute__((__cdecl__)) _wunlink (const wchar_t*);
 int __attribute__((__cdecl__)) _wopen (const wchar_t*, int, ...);
 int __attribute__((__cdecl__)) _wsopen (const wchar_t*, int, int, ...);
 wchar_t* __attribute__((__cdecl__)) _wmktemp (wchar_t*);
 long __attribute__((__cdecl__)) _wfindfirsti64 (const wchar_t*, struct _wfinddatai64_t*);
 int __attribute__((__cdecl__)) _wfindnexti64 (long, struct _wfinddatai64_t*);
# 159 "d:/mtk/6261src/61D_V15/Tools/MinGW/include/wchar.h" 3
 int __attribute__((__cdecl__)) _wchdir (const wchar_t*);
 wchar_t* __attribute__((__cdecl__)) _wgetcwd (wchar_t*, int);
 wchar_t* __attribute__((__cdecl__)) _wgetdcwd (int, wchar_t*, int);
 int __attribute__((__cdecl__)) _wmkdir (const wchar_t*);
 int __attribute__((__cdecl__)) _wrmdir (const wchar_t*);
# 176 "d:/mtk/6261src/61D_V15/Tools/MinGW/include/wchar.h" 3
struct _stat
{
        _dev_t st_dev;
        _ino_t st_ino;
        _mode_t st_mode;
        short st_nlink;
        short st_uid;
        short st_gid;
        _dev_t st_rdev;
        _off_t st_size;
        time_t st_atime;

        time_t st_mtime;
        time_t st_ctime;
};

struct stat
{
        _dev_t st_dev;
        _ino_t st_ino;
        _mode_t st_mode;
        short st_nlink;
        short st_uid;
        short st_gid;
        _dev_t st_rdev;
        _off_t st_size;
        time_t st_atime;

        time_t st_mtime;
        time_t st_ctime;
};

struct _stati64 {
    _dev_t st_dev;
    _ino_t st_ino;
    unsigned short st_mode;
    short st_nlink;
    short st_uid;
    short st_gid;
    _dev_t st_rdev;
    long long st_size;
    time_t st_atime;
    time_t st_mtime;
    time_t st_ctime;
    };







 int __attribute__((__cdecl__)) _wstat (const wchar_t*, struct _stat*);
 int __attribute__((__cdecl__)) _wstati64 (const wchar_t*, struct _stati64*);
# 247 "d:/mtk/6261src/61D_V15/Tools/MinGW/include/wchar.h" 3
 wchar_t* __attribute__((__cdecl__)) _wsetlocale (int, const wchar_t*);
# 288 "d:/mtk/6261src/61D_V15/Tools/MinGW/include/wchar.h" 3
typedef int mbstate_t;
typedef wchar_t _Wint_t;

wint_t __attribute__((__cdecl__)) btowc(int);
size_t __attribute__((__cdecl__)) mbrlen(const char *, size_t, mbstate_t *);
size_t __attribute__((__cdecl__)) mbrtowc(wchar_t *, const char *, size_t, mbstate_t *);
size_t __attribute__((__cdecl__)) mbsrtowcs(wchar_t *, const char **, size_t, mbstate_t *);

size_t __attribute__((__cdecl__)) wcrtomb(char *, wchar_t, mbstate_t *);
size_t __attribute__((__cdecl__)) wcsrtombs(char *, const wchar_t **, size_t, mbstate_t *);
int __attribute__((__cdecl__)) wctob(wint_t);


extern __inline__ int __attribute__((__cdecl__)) fwide(FILE* stream, int mode) {return -1;}
extern __inline__ int __attribute__((__cdecl__)) mbsinit(const mbstate_t* ps) {return 1;}
wchar_t* __attribute__((__cdecl__)) wmemset(wchar_t* s, wchar_t c, size_t n);
wchar_t* __attribute__((__cdecl__)) wmemchr(const wchar_t* s, wchar_t c, size_t n);
int wmemcmp(const wchar_t* s1, const wchar_t * s2, size_t n);
wchar_t* __attribute__((__cdecl__)) wmemcpy(wchar_t* __restrict__ s1, const wchar_t* __restrict__ s2,
                 size_t n);
wchar_t* __attribute__((__cdecl__)) wmemmove(wchar_t* s1, const wchar_t* s2, size_t n);
long long __attribute__((__cdecl__)) wcstoll(const wchar_t* __restrict__ nptr,
                  wchar_t** __restrict__ endptr, int base);
unsigned long long __attribute__((__cdecl__)) wcstoull(const wchar_t* __restrict__ nptr,
                            wchar_t ** __restrict__ endptr, int base);
# 124 "../../../kal/include/clib.h" 2


#pragma diag_error 1361,2570 





# 1 "../../../kal/include/clib_list.h" 1
# 92 "../../../kal/include/clib_list.h"
void *__alloca(size_t size) __attribute__((deprecated)) ;







void (*signal (int sig, void (* func )(int)))(int) __attribute__((deprecated)) ;
int raise(int sig) __attribute__((deprecated)) ;


int remove(const char * filename) __attribute__((deprecated)) ;
int rename(const char * old, const char * newname) __attribute__((deprecated)) ;
FILE *tmpfile(void) __attribute__((deprecated)) ;
char *tmpnam(char * s) __attribute__((deprecated)) ;
# 172 "../../../kal/include/clib_list.h"
void *calloc(size_t nmemb, size_t size) __attribute__((deprecated));
void free(void * ptr) __attribute__((deprecated));
void *malloc(size_t size) __attribute__((deprecated));
void *realloc(void * ptr, size_t size) __attribute__((deprecated));

int atexit(void (* func)(void)) __attribute__((deprecated));
void exit(int status) __attribute__((deprecated)) ;
void _Exit(int status) __attribute__((deprecated)) ;
char *getenv(const char * name) __attribute__((deprecated));
int system(const char * string) __attribute__((deprecated)) ;


char *strtok(char * __restrict s1, const char * __restrict s2) __attribute__((deprecated)) ;


struct tm;
char *asctime(const struct tm * timeptr) __attribute__((deprecated)) ;
char *ctime(const time_t * timer) __attribute__((deprecated)) ;
struct tm *gmtime(const time_t * timer) __attribute__((deprecated)) ;
struct tm *localtime(const time_t * timer) __attribute__((deprecated)) ;
# 133 "../../../kal/include/clib.h" 2
# 149 "../../../kal/include/clib.h"
void clib_basic_init(void);
void clib_init(void);
# 83 "../../../kal/include/kal_general_types.h" 2






typedef char kal_char;

typedef unsigned short kal_wchar;


typedef unsigned char kal_uint8;

typedef signed char kal_int8;

typedef unsigned short int kal_uint16;

typedef signed short int kal_int16;

typedef unsigned int kal_uint32;

typedef signed int kal_int32;
# 113 "../../../kal/include/kal_general_types.h"
   typedef unsigned long long kal_uint64;

   typedef signed long long kal_int64;



typedef enum
{

    KAL_FALSE,

    KAL_TRUE
} kal_bool;


typedef unsigned short WCHAR;
# 67 "../../../custom/common/customer_email_num.h" 2
# 110 "../../../custom/common/customer_email_num.h"
kal_bool custom_email_using_card_memory(void);
# 216 "../../../custom/common/hal_public/customer_ps_inc.h" 2
# 195 "../../../custom/common/venus_mmi/custom_mmi_default_value.h" 2
# 1 "../../../custom/common/venus_mmi/custom_phb_config.h" 1
# 206 "../../../custom/common/venus_mmi/custom_phb_config.h"
# 1 "../../mmi/inc/MMI_features.h" 1
# 207 "../../../custom/common/venus_mmi/custom_phb_config.h" 2
# 391 "../../../custom/common/venus_mmi/custom_phb_config.h"
typedef kal_uint16 mmi_phb_contact_id;
typedef kal_uint16 mmi_phb_sub_id;

typedef enum
{
    MMI_PHB_CONTACT_FIELD_ID_NAME,
    MMI_PHB_CONTACT_FIELD_ID_NICK,
    MMI_PHB_CONTACT_FIELD_ID_NUMBER,
    MMI_PHB_CONTACT_FIELD_ID_EMAIL,
    MMI_PHB_CONTACT_FIELD_ID_COMPANY,
    MMI_PHB_CONTACT_FIELD_ID_ADDRESS,
    MMI_PHB_CONTACT_FIELD_ID_TITLE,
    MMI_PHB_CONTACT_FIELD_ID_URL,
    MMI_PHB_CONTACT_FIELD_ID_NOTE,
    MMI_PHB_CONTACT_FIELD_ID_GROUP,
    MMI_PHB_CONTACT_FIELD_ID_BDAY,
    MMI_PHB_CONTACT_FIELD_ID_RING,
    MMI_PHB_CONTACT_FIELD_ID_IMAGE,
    MMI_PHB_CONTACT_FIELD_ID_VIDEO,
    MMI_PHB_CONTACT_FIELD_ID_VOIP,
    MMI_PHB_CONTACT_FIELD_ID_IMPS,
    MMI_PHB_CONTACT_FIELD_ID_MSN,


    MMI_PHB_CONTACT_FIELD_DATA_TOTAL,
    MMI_PHB_CONTACT_FIELD_ID_DEF = MMI_PHB_CONTACT_FIELD_DATA_TOTAL,
    MMI_PHB_CONTACT_FIELD_ID_VT,
    MMI_PHB_CONTACT_FIELD_ID_TOTAL
} mmi_phb_contact_field_id_enum;
# 452 "../../../custom/common/venus_mmi/custom_phb_config.h"
typedef enum
{
    MMI_PHB_NUM_TYPE_NONE,
    MMI_PHB_NUM_TYPE_MOBILE,
    MMI_PHB_NUM_TYPE_HOME,
    MMI_PHB_NUM_TYPE_OFFICE,
    MMI_PHB_NUM_TYPE_FAX,
    MMI_PHB_NUM_TYPE_TOTAL,
    MMI_PHB_NUM_TYPE_USER_BASE = MMI_PHB_NUM_TYPE_TOTAL
} mmi_phb_num_type_enum;

typedef enum
{
    MMI_PHB_EMAIL_TYPE_NONE,
    MMI_PHB_EMAIL_TYPE_HOME,
    MMI_PHB_EMAIL_TYPE_OFFICE,
    MMI_PHB_EMAIL_TYPE_TOTAL,
    MMI_PHB_EMAIL_TYPE_USER_BASE = MMI_PHB_EMAIL_TYPE_TOTAL
} mmi_phb_email_type_enum;

typedef struct
{
    kal_uint16 name[((40 + 1) / 2) + 1];
    kal_uint8 number[(40 + 1) + 1];
} srv_phb_sim_adn_struct;

typedef struct
{
    srv_phb_sim_adn_struct adn;
    kal_uint32 field_mask;




} srv_phb_sim_cache_struct;
# 524 "../../../custom/common/venus_mmi/custom_phb_config.h"
typedef struct
{
    kal_uint8 storage_type;
    kal_uint8 number_index;
    mmi_phb_contact_id contact_index;
} mmi_phb_number_id;


typedef mmi_phb_number_id SRV_PHB_ID;



typedef struct
{
    mmi_phb_num_type_enum type;
    kal_uint16 number[(40 + 1) + 1];
} mmi_phb_wcs_num_struct;


typedef struct
{
    mmi_phb_sub_id sub_id;
    mmi_phb_num_type_enum type;
    kal_uint8 last_used_sim;
    kal_uint8 number[(40 + 1) + 1];
} mmi_phb_asc_num_struct;


typedef struct
{
    kal_uint16 name[((40 + 1) / 2) + 1];



} mmi_phb_name_struct;


typedef struct
{
    mmi_phb_sub_id sub_id;
    kal_uint8 type;
    kal_uint8 email[(60) + 1];
} mmi_phb_email_struct;



typedef struct
{
    mmi_phb_email_type_enum type;
    kal_uint16 email[(40 + 1) + 1];
} mmi_phb_wcs_email_struct;



typedef struct
{
    mmi_phb_asc_num_struct num[(1)];






} mmi_phb_optional_fields_struct;


typedef struct
{
    kal_uint16 b_year;
    kal_uint8 b_month;
    kal_uint8 b_day;
} mmi_phb_bday_struct;


typedef struct
{
    kal_uint16 pobox[25 + 1];
    kal_uint16 extension[25 + 1];
    kal_uint16 street[25 + 1];
    kal_uint16 city[25 + 1];
    kal_uint16 state[25 + 1];
    kal_uint16 postalcode[25 + 1];
    kal_uint16 country[25 + 1];
} mmi_phb_address_struct;


typedef struct
{
    kal_uint16 res_type;
    kal_uint16 image_id;
    kal_uint16 ringtone_id;
# 645 "../../../custom/common/venus_mmi/custom_phb_config.h"
} mmi_phb_info_struct;


typedef struct
{
    kal_uint16 group_name[20 + 1];
    kal_uint16 res_type;
    kal_uint16 ringtone_id;
    kal_uint16 image_id;



    kal_uint8 order_index;
} mmi_phb_group_info_struct;



typedef struct
{
    kal_uint16 name[((40 + 1) / 2) + 1];



    kal_uint16 number[(40 + 1) + 1];
    kal_uint16 number_type;
    kal_uint16 homeNumber[(40 + 1) + 1];
    kal_uint16 homeNumber_type;
    kal_uint16 companyName[20 + 1];
    kal_uint16 emailAddress[(60) + 1];
    kal_uint16 emailAddress_type;




    kal_uint16 officeNumber[(40 + 1) + 1];
    kal_uint16 officeNumber_type;
    kal_uint16 faxNumber[(40 + 1) + 1];
    kal_uint16 faxNumber_type;
} mmi_phb_my_number_struct;


typedef struct
{
    kal_uint16 year[4 + 1];
    kal_uint16 month[2 + 1];
    kal_uint16 day[2 + 1];
    kal_uint16 hour[2 + 1];
    kal_uint16 minute[2 + 1];
}mmi_phb_backup_time_struct;

typedef struct
{
    kal_uint16 is_empty[1 + 1];
    kal_uint16 contact_num;
    kal_uint16 file_path[40 + 1];
    mmi_phb_backup_time_struct date;
}mmi_phb_backup_restore_file_config_struct;


typedef struct
{
    kal_uint16 name[((40 + 1) / 2) + 1];
    kal_uint16 number[(40 + 1) + 1];
} mmi_phb_owner_number_struct;


typedef struct
{
    kal_uint8 is_sync;
    kal_uint16 store_index;

    kal_uint16 name[((40 + 1) / 2) + 1];
    kal_uint16 number[(40 + 1) + 1];
    kal_uint32 num_type;
} mmi_phb_vip_contact_struct;


typedef mmi_phb_vip_contact_struct mmi_phb_speed_dial_struct;


typedef struct
{
    kal_uint8 type;
    kal_uint8 length;
    kal_uint16 number[6 + 1];
} mmi_phb_sos_number_struct;


typedef struct
{
    kal_uint16 number[(40 + 1) + 1];
} mmi_phb_ice_contact_struct;


typedef struct
{
    kal_uint32 field_mask;






} mmi_phb_phone_mask_struct;
# 196 "../../../custom/common/venus_mmi/custom_mmi_default_value.h" 2

# 1 "../../../custom/common/venus_mmi/custom_srv_prof_defs.h" 1
# 87 "../../../custom/common/venus_mmi/custom_srv_prof_defs.h"
typedef enum
{
    SRV_PROF_AUD_TONE1 = 101,
    SRV_PROF_AUD_TONE2,
    SRV_PROF_AUD_TONE3,
    SRV_PROF_AUD_TONE4,
    SRV_PROF_AUD_TONE5,
    SRV_PROF_AUD_TONE6,
    SRV_PROF_AUD_TONE7,
    SRV_PROF_AUD_TONE8,
    SRV_PROF_AUD_TONE9,
    SRV_PROF_AUD_TONE10,
    SRV_PROF_AUD_TONE_END_OF_ENUM
}srv_prof_aud_tone_enum;


typedef enum
{
    SRV_PROF_AUD_RING1 = 151,
    SRV_PROF_AUD_RING2,
    SRV_PROF_AUD_RING3,
    SRV_PROF_AUD_RING4,
    SRV_PROF_AUD_RING5,
    SRV_PROF_AUD_RING6,
    SRV_PROF_AUD_RING7,
    SRV_PROF_AUD_RING8,
    SRV_PROF_AUD_RING9,
    SRV_PROF_AUD_RING10,
    SRV_PROF_AUD_RING11,
    SRV_PROF_AUD_RING12,
    SRV_PROF_AUD_RING13,
    SRV_PROF_AUD_RING14,
    SRV_PROF_AUD_RING15,
    SRV_PROF_AUD_RING16,
    SRV_PROF_AUD_RING17,
    SRV_PROF_AUD_RING18,
    SRV_PROF_AUD_RING19,
    SRV_PROF_AUD_RING20,
    SRV_PROF_AUD_RING_END_OF_ENUM
}srv_prof_aud_ring_enum;



typedef enum
{
    SRV_PROF_RING_TYPE_REPEAT,
    SRV_PROF_RING_TYPE_ASCENDING,
    SRV_PROF_RING_TYPE_ONCE,
    SRV_PROF_RING_TYPE_BEEP_ONCE,
    SRV_PROF_RING_TYPE_END_OF_ENUM
}srv_prof_ring_type_enum;



typedef enum
{
    SRV_PROF_VOL_LEVEL_0,
    SRV_PROF_VOL_LEVEL_1,
    SRV_PROF_VOL_LEVEL_2,
    SRV_PROF_VOL_LEVEL_3,
    SRV_PROF_VOL_LEVEL_4,
    SRV_PROF_VOL_LEVEL_5,
    SRV_PROF_VOL_LEVEL_6,
    SRV_PROF_VOL_LEVEL_7,
    SRV_PROF_VOL_LEVEL_END_OF_ENUM
}srv_prof_vol_level_enum;


typedef enum
{
    SRV_PROF_MEDIA_VOL_LEVEL_0,
    SRV_PROF_MEDIA_VOL_LEVEL_1,
    SRV_PROF_MEDIA_VOL_LEVEL_2,
    SRV_PROF_MEDIA_VOL_LEVEL_3,
    SRV_PROF_MEDIA_VOL_LEVEL_4,
    SRV_PROF_MEDIA_VOL_LEVEL_5,
    SRV_PROF_MEDIA_VOL_LEVEL_6,
    SRV_PROF_MEDIA_VOL_LEVEL_7,
    SRV_PROF_MEDIA_VOL_LEVEL_8,
    SRV_PROF_MEDIA_VOL_LEVEL_9,
    SRV_PROF_MEDIA_VOL_LEVEL_10,
    SRV_PROF_MEDIA_VOL_LEVEL_11,
    SRV_PROF_MEDIA_VOL_LEVEL_12,
    SRV_PROF_MEDIA_VOL_LEVEL_13,
    SRV_PROF_MEDIA_VOL_LEVEL_14,
    SRV_PROF_MEDIA_VOL_LEVEL_15,
    SRV_PROF_MEDIA_VOL_LEVEL_16,
    SRV_PROF_MEDIA_VOL_LEVEL_END_OF_ENUM
}srv_prof_media_vol_level_enum;


typedef enum
{
    SRV_PROF_VIB_LEVEL_0,
    SRV_PROF_VIB_LEVEL_1,
    SRV_PROF_VIB_LEVEL_2,
    SRV_PROF_VIB_LEVEL_3,
    SRV_PROF_VIB_LEVEL_END_OF_ENUM
}srv_prof_vib_level_enum;



typedef enum
{
    SRV_PROF_ALERT_TYPE_INVALID,
    SRV_PROF_ALERT_TYPE_RING,
    SRV_PROF_ALERT_TYPE_VIB_ONLY,
    SRV_PROF_ALERT_TYPE_VIB_AND_RING,
    SRV_PROF_ALERT_TYPE_VIB_THEN_RING,
    SRV_PROF_ALERT_TYPE_SILENT,
    SRV_PROF_ALERT_TYPE_END_OF_ENUM
}srv_prof_alert_type_enum;



typedef enum
{
    SRV_PROF_LED_NONE,
    SRV_PROF_LED_PATTERN_1,
    SRV_PROF_LED_PATTERN_2,
    SRV_PROF_LED_PATTERN_3,
    SRV_PROF_LED_PATTERN_4,
    SRV_PROF_LED_PATTERN_5,
    SRV_PROF_LED_PATTERN_6,
    SRV_PROF_LED_PATTERN_END_OF_ENUM
}srv_prof_led_pattern_enum;



typedef enum
{
    SRV_PROF_KEYPAD_SILENT,
    SRV_PROF_KEYPAD_CLICK,
    SRV_PROF_KEYPAD_TONE,
    SRV_PROF_KEYPAD_NUM_1,
    SRV_PROF_KEYPAD_NUM_2,
    SRV_PROF_KEYPAD_NUM_3,
    SRV_PROF_KEYPAD_NUM_4,
    SRV_PROF_KEYPAD_NUM_5,
    SRV_PROF_KEYPAD_NUM_6,
    SRV_PROF_KEYPAD_CUST_1,
    SRV_PROF_KEYPAD_CUST_2,
    SRV_PROF_KEYPAD_CUST_3,
    SRV_PROF_KEYPAD_CUST_4,
    SRV_PROF_KEYPAD_CUST_5,
    SRV_PROF_KEYPAD_CUST_6,
    SRV_PROF_KEYPAD_END_OF_ENUM
}srv_prof_keypad_tone_type_enum;
# 198 "../../../custom/common/venus_mmi/custom_mmi_default_value.h" 2
# 1 "../../../custom/common/venus_mmi/custom_user_profiles_defs.h" 1
# 79 "../../../custom/common/venus_mmi/custom_user_profiles_defs.h"
# 1 "../../mmi/inc/MMI_features.h" 1
# 80 "../../../custom/common/venus_mmi/custom_user_profiles_defs.h" 2
# 112 "../../../custom/common/venus_mmi/custom_user_profiles_defs.h"
typedef enum
{
    NO_COLOR,
    COLOR_PATTERN1,
    COLOR_PATTERN2,
    COLOR_PATTERN3,
    COLOR_PATTERN4,
    COLOR_PATTERN5,
    COLOR_PATTERN6
} mmi_profiles_color_pattern_enum;

typedef enum
{
    SINGLE,
    REPEAT,
    ASCENDING
} mmi_profiles_ring_type_enum;

typedef enum
{
    KEYPAD_SILENT,
    KEYPAD_CLICK,
    KEYPAD_TONE,
    KEYPAD_TONE_HUMAN_VOICE_1,
    KEYPAD_TONE_HUMAN_VOICE_2,
    KEYPAD_TONE_HUMAN_VOICE_3,
    KEYPAD_TONE_HUMAN_VOICE_4,
    KEYPAD_TONE_HUMAN_VOICE_5,
    KEYPAD_TONE_HUMAN_VOICE_6,
    KEYPAD_TONE_CUST_1,
    KEYPAD_TONE_CUST_2,
    KEYPAD_TONE_CUST_3,
    KEYPAD_TONE_CUST_4,
    KEYPAD_TONE_CUST_5,
    KEYPAD_TONE_CUST_6
} mmi_profiles_keypad_tone_list_enum;
# 199 "../../../custom/common/venus_mmi/custom_mmi_default_value.h" 2

# 1 "../../../interface/ps/include/tcm_api.h" 1
# 97 "../../../interface/ps/include/tcm_api.h"
extern kal_bool tcm_pdp_decode_qos_transfer_delay(kal_uint16 val, kal_uint16 *delay_ptr);
extern kal_bool tcm_pdp_decode_qos_bit_rate(kal_uint16 val, kal_uint32 *rate_ptr);




typedef struct
{



    kal_uint8 qos_length;
    kal_uint8 unused1;

    kal_uint8 delay_class;
# 121 "../../../interface/ps/include/tcm_api.h"
    kal_uint8 reliability_class;
# 132 "../../../interface/ps/include/tcm_api.h"
    kal_uint8 peak_throughput;
# 147 "../../../interface/ps/include/tcm_api.h"
    kal_uint8 unused2;

    kal_uint8 precedence_class;
# 158 "../../../interface/ps/include/tcm_api.h"
    kal_uint8 unused3;

    kal_uint8 mean_throughput;
# 169 "../../../interface/ps/include/tcm_api.h"
    kal_uint8 traffic_class;
# 179 "../../../interface/ps/include/tcm_api.h"
    kal_uint8 delivery_order;







    kal_uint8 delivery_of_err_sdu;
# 196 "../../../interface/ps/include/tcm_api.h"
    kal_uint8 max_sdu_size;
# 206 "../../../interface/ps/include/tcm_api.h"
    kal_uint8 max_bitrate_up_lnk;

    kal_uint8 max_bitrate_down_lnk;

    kal_uint8 residual_bit_err_rate;
# 222 "../../../interface/ps/include/tcm_api.h"
    kal_uint8 sdu_err_ratio;
# 234 "../../../interface/ps/include/tcm_api.h"
    kal_uint8 transfer_delay;

    kal_uint8 traffic_hndl_priority;
# 245 "../../../interface/ps/include/tcm_api.h"
    kal_uint8 guarntd_bit_rate_up_lnk;

    kal_uint8 guarntd_bit_rate_down_lnk;

    kal_uint8 unused4;

    kal_uint8 signalling_indication;







    kal_uint8 source_statistics_descriptor;







    kal_uint8 ext_max_bitrate_down_lnk;

    kal_uint8 ext_guarntd_bit_rate_down_lnk;

    kal_uint8 ext_max_bitrate_up_lnk;

    kal_uint8 ext_guarntd_bit_rate_up_lnk;
} nvram_editor_qos_struct;



typedef struct
{
    nvram_editor_qos_struct req_qos;
    nvram_editor_qos_struct min_qos;
} tcm_ps_qos_profile_struct;
# 201 "../../../custom/common/venus_mmi/custom_mmi_default_value.h" 2
# 246 "../../../custom/common/venus_mmi/custom_mmi_default_value.h"
typedef enum
{
    MMI_ALERT_NONE,
    MMI_RING,
    MMI_VIBRATION_ONLY,
    MMI_VIBRATION_AND_RING,
    MMI_VIBRATION_THEN_RING,
    MMI_SILENT
} MMI_ALERT_TYPE;
# 266 "../../../custom/common/venus_mmi/custom_mmi_default_value.h"
typedef struct
{
    kal_uint8 setsec;
} SET_TIMER;

typedef struct
{
    kal_uint8 status;
    unsigned short lcdBacklight;
    SET_TIMER timer;
} LIGHT;

typedef struct
{
    kal_uint16 ringTone;
    kal_uint16 videoCallTone;
    kal_uint16 IMPSContactOnlineTone;
    kal_uint16 IMPSNewMessageTone;
    kal_uint16 IMPSNewInvitationTone;
    kal_uint16 IMPSChatroomNotificationTone;
    kal_int16 powerOffTone;
    kal_int16 powerOnTone;
    kal_int16 coverOpenTone;
    kal_int16 coverCloseTone;
    kal_int16 messageTone;
    kal_int16 mmsTone;
    kal_int16 smsTone;
    kal_int16 emailTone;
    kal_int16 voiceTone;
    kal_uint8 keypadTone;
    kal_uint16 alarmTone;
    kal_uint16 card2_ringTone;
    kal_int16 card2_messageTone;
} TONE_SETUP;

typedef struct
{
    unsigned short coverAnswer;
    unsigned short anyKey;
    unsigned short automatic;
} MMI_ANSWERING_MODE;

typedef struct
{
    unsigned short errorTone;
    unsigned short connectTone;
    unsigned short campOnTone;
    unsigned short warningTone;
} EXTRA_TONE;

typedef enum
{
    MMI_INTELLIGENT_CALL_ALERT_OFF,
    MMI_INTELLIGENT_CALL_ALERT_ON
} MMI_INTELLIGENT_CALL_ALERT_TYPE;

typedef struct
{
    kal_uint8 ringVolumeLevel;
    kal_uint8 keypadVolumeLevel;
    kal_uint8 loudSpeakerVolumeLevel;
    MMI_ALERT_TYPE mtCallAlertTypeEnum;
    LIGHT light;
    kal_uint8 impsStatus;
    kal_uint8 ringTypeEnum;
    TONE_SETUP toneSetup;
    MMI_ANSWERING_MODE answeringMode;
    kal_uint8 fontSizeEnum;
    MMI_INTELLIGENT_CALL_ALERT_TYPE intelligentCallAlert;
    EXTRA_TONE extraTone;
} PROFILE;
# 377 "../../../custom/common/venus_mmi/custom_mmi_default_value.h"
typedef struct MYTIME
{
    kal_int16 nYear;
    kal_int8 nMonth;
    kal_int8 nDay;
    kal_int8 nHour;
    kal_int8 nMin;
    kal_int8 nSec;
    kal_int8 DayIndex;
} MYTIME;


typedef struct
{

    MYTIME start_time;
    MYTIME end_time;


    MYTIME alarm_time;
    kal_uint8 present;
    kal_uint8 repeat;
    kal_uint8 days;
    kal_uint8 alarm_type;
    kal_uint8 category;
    kal_uint8 snooze;
    kal_uint8 priority;
    kal_uint8 status;
    kal_uint8 subject[((36) * 2)];
}tdl_init_struct;


typedef struct
{

    MYTIME start_time;
    MYTIME end_time;


    MYTIME alarm_time;
    kal_uint8 present;
    kal_uint8 repeat;
    kal_uint8 days;
    kal_uint8 alarm_type;
    kal_uint8 category;
    kal_uint8 snooze;
    kal_uint8 priority;
    kal_uint8 status;
    kal_uint8 subject[((36) * 2)];

    kal_uint8 location[(36) * 2];
    kal_uint8 details[((101)) * 2];
    MYTIME complete_time;
} ToDoListNode;

typedef struct
{
    MYTIME first_launch;
    kal_uint8 type;
    kal_uint8 snooze;
    kal_uint8 snooze_interval;
    kal_uint16 tone;
}srv_tdl_alarm_struct;

typedef struct
{
    MYTIME start_repeat;
    MYTIME expir_time;
    kal_uint8 interval;
    kal_uint8 rule;
    kal_uint8 dows;






    kal_uint8 type;
    kal_uint8 month_sequence;
    kal_uint8 week_sequence;
    kal_uint8 day_sequence;
    kal_uint8 week_day;
}srv_tdl_repeat_struct;

typedef struct
{

        kal_uint32 src_id;
        kal_uint32 event_id;
    MYTIME start_time;
    MYTIME end_time;
    MYTIME created_time;
    kal_uint8 present;
    kal_uint8 category;
    kal_uint8 vcal;
    kal_uint8 all_day;
    kal_uint32 extend;
    srv_tdl_alarm_struct alarm;
    srv_tdl_repeat_struct repeat;
    kal_uint8 subject[((36) * 2)];
    kal_uint8 location[(36) * 2];

    kal_uint8 details[(101) * 2];
}srv_tdl_event_struct;

typedef struct
{

    MYTIME due_time;
    MYTIME created_time;
    MYTIME complete_time;
    kal_uint8 present;
    kal_uint8 priority;
    kal_uint8 status;
    kal_uint8 vcal;
    srv_tdl_alarm_struct alarm;
    srv_tdl_repeat_struct repeat;
    kal_uint8 subject[((36) * 2)];

    kal_uint8 details[(101) * 2];
}srv_tdl_task_struct;

typedef struct
{

        kal_uint32 src_id;
        kal_uint32 event_id;
    MYTIME start_time;
    MYTIME end_time;
    MYTIME created_time;
    kal_uint8 present;
    kal_uint8 category;
    kal_uint8 vcal;
    kal_uint8 all_day;
    kal_uint32 extend;
    srv_tdl_alarm_struct alarm;
    srv_tdl_repeat_struct repeat;
    kal_uint8 subject[((36) * 2)];
    kal_uint8 location[(36) * 2];

}srv_tdl_event_short_struct;

typedef struct
{

    MYTIME due_time;
    MYTIME created_time;
    MYTIME complete_time;
    kal_uint8 present;
    kal_uint8 priority;
    kal_uint8 status;
    kal_uint8 vcal;
    srv_tdl_alarm_struct alarm;
    srv_tdl_repeat_struct repeat;
    kal_uint8 subject[((36) * 2)];

}srv_tdl_task_short_struct;





typedef struct
{
        kal_uint8 pbName[(((40 + 1) / 2) + 1) * 2];
        kal_uint8 pbNumber[40 + 1];
        kal_uint16 bday_year;
    kal_uint8 bday_month;
    kal_uint8 bday_day;
        kal_uint16 phb_idx;
        kal_uint8 reminder;
        kal_uint8 present;
        kal_uint8 del_flag;
} nvram_ef_tdl_br_struct;
# 567 "../../../custom/common/venus_mmi/custom_mmi_default_value.h"
typedef struct
{
    kal_uint8 ImageName[((13*2) + (5*2) + 2)];
    kal_int32 ImagesId;
} DYNIMAGEINFO;
# 580 "../../../custom/common/venus_mmi/custom_mmi_default_value.h"
typedef struct
{
    kal_uint8 AudioName[((13*2) + (5*2) + 2)];
    kal_uint16 AudioId;
} DYNAUDIOINFO;
# 691 "../../../custom/common/venus_mmi/custom_mmi_default_value.h"
typedef struct
{
    kal_uint8 Hour;
    kal_uint8 Min;
    kal_uint8 State;
    kal_uint8 Freq;
    kal_uint8 Snooze;
    unsigned char Days;
    unsigned char Volume;
    unsigned char AudioOption;
    unsigned short AudioOptionValue;
    kal_uint8 tone_path[520];
    unsigned char SnoozeInterval;
    unsigned char AlertType;
        unsigned char vibrate;
        unsigned char ringtone;
        kal_uint8 label[((20 + 1) * 2)];
        kal_uint32 timestamp;
} alm_nvram_struct;

typedef struct
{
    unsigned char Type;
    unsigned char Status;
    unsigned char Hour;
    unsigned char Min;
} spof_nvram_struct;
# 739 "../../../custom/common/venus_mmi/custom_mmi_default_value.h"
typedef struct
{
    kal_uint8 plmn[6];
    kal_uint8 name[24 *2];
    kal_uint8 add_ci;
} nitz_nw_name_struct;
# 855 "../../../custom/common/venus_mmi/custom_mmi_default_value.h"
typedef struct
{
    kal_uint16 ActivityId[10];
    float CaloriePerActivity[10];
    kal_uint16 MinutesPerActivity[10];
} ActivityDetails;

typedef struct
{
    kal_uint8 shortcut_state;
    kal_uint16 menu_id;
} shct_item_struct;

typedef struct
{
    unsigned char Hour;
    unsigned char Min;
    unsigned char State;
    unsigned char AlertType;
    unsigned short AudioValue;
    kal_uint8 tone_path[520];
}mmi_hijri_azaan_nvram_struct;
# 125 "temp/res/ScreenSaver.c" 2


<?xml version = "1.0" encoding = "UTF-8"?>

<APP id = "SRV_SCREENSAVER">
    <INCLUDE file = "GlobalResDef.h"/>

    <!-- string ----------------------------------------------------------------------------------->
# 170 "temp/res/ScreenSaver.c"
    <!-- screen ----------------------------------------------------------------------------------->
    <SCREEN id = "SCR_MAIN_SCREENSAVER"/>
    <SCREEN id = "SCR_SCREENSAVER_SETTING"/>
    <SCREEN id = "SCR_SCREENSAVER_SELECT"/>
    <SCREEN id = "SCR_SCREENSAVER_SYSTEM_LIST"/>
    <SCREEN id = "SCR_SCREENSAVER_VIEW"/>
        <SCREEN id = "SCR_SCREENSAVER_VIEW_2"/>
    <SCREEN id = "SCR_SCREENSAVER_DOWNLOAD_VIEW"/>
    <!-- screen group ID -->
        <SCREEN id = "GRP_ID_SCREENSAVER_SETTING"/>
        <SCREEN id = "GRP_ID_SCREENSAVER_SYSTEM"/>
        <SCREEN id = "GRP_ID_SCREENSAVER_MAIN"/>
# 256 "temp/res/ScreenSaver.c"
</APP>
