# 1 "temp/res/SearchWeb.c"
# 1 "<built-in>"
# 1 "<command line>"
# 1 "temp/res/SearchWeb.c"

# 1 "../../mmi/inc/mmi_features.h" 1
# 69 "../../mmi/inc/mmi_features.h"
# 1 "../../mmi/inc/MMI_features_switch.h" 1
# 67 "../../mmi/inc/MMI_features_switch.h"
# 1 "../../mmi/inc/MMI_features_type.h" 1
# 68 "../../mmi/inc/MMI_features_switch.h" 2
# 70 "../../mmi/inc/mmi_features.h" 2
# 3 "temp/res/SearchWeb.c" 2
# 1 "../customerinc/custresdef.h" 1
# 195 "../customerinc/custresdef.h"
# 1 "../../mmi/inc/MMI_features.h" 1
# 196 "../customerinc/custresdef.h" 2
# 4 "temp/res/SearchWeb.c" 2


<?xml version="1.0" encoding="UTF-8"?>


<APP id="APP_SEARCH_WEB"
# 18 "temp/res/SearchWeb.c"
>



    <!--Include Area-->
    <INCLUDE file="GlobalResDef.h"/>
    <INCLUDE file="mmi_rp_srv_editor_def.h"/>

    <!-----------------------------------------------------String Resource Area----------------------------------------------------->
# 72 "temp/res/SearchWeb.c"
    <!-----------------------------------------------------Image Resource Area------------------------------------------------------>
# 100 "temp/res/SearchWeb.c"
    <!------------------------------------------------------Menu Resource Area------------------------------------------------------>
# 123 "temp/res/SearchWeb.c"
    <!------------------------------------------------------Other Resource---------------------------------------------------------->
    <SCREEN id="SCR_ID_SEARCH_WEB_DUMMY"/>
# 156 "temp/res/SearchWeb.c"
</APP>
