# 1 "temp/res/SecSetSrv.c"
# 1 "<built-in>"
# 1 "<command line>"
# 1 "temp/res/SecSetSrv.c"
<?xml version="1.0" encoding="UTF-8"?>
<APP id="SRV_SECSET">

    <!----- Include Area ------------------------------------------------------>


    <!----- String Resource Area ---------------------------------------------->


    <!----- Image Resource Area ----------------------------------------------->


    <!----- Screen Resource Area ---------------------------------------------->


    <!----- Menu Resource Area ------------------------------------------------>


    <!------------------------------------------------------Other Resource---------------------------------------------------------->

</APP>
