# 1 "temp/res/ShutdownSrv.c"
# 1 "<built-in>"
# 1 "<command line>"
# 1 "temp/res/ShutdownSrv.c"

# 1 "../../mmi/inc/mmi_features.h" 1
# 69 "../../mmi/inc/mmi_features.h"
# 1 "../../mmi/inc/MMI_features_switch.h" 1
# 67 "../../mmi/inc/MMI_features_switch.h"
# 1 "../../mmi/inc/MMI_features_type.h" 1
# 68 "../../mmi/inc/MMI_features_switch.h" 2
# 70 "../../mmi/inc/mmi_features.h" 2
# 3 "temp/res/ShutdownSrv.c" 2


<?xml version="1.0" encoding="UTF-8"?>


<APP id="SRV_SHUTDOWN">

    <SENDER id="EVT_ID_SRV_SHUTDOWN_NORMAL_START" hfile="ShutdownSrvGprot.h"/>
    <SENDER id="EVT_ID_SRV_SHUTDOWN_DEINIT" hfile="ShutdownSrvGprot.h"/>
    <SENDER id="EVT_ID_SRV_SHUTDOWN_HANDLER_RESET" hfile="ShutdownSrvGprot.h"/>
    <SENDER id="EVT_ID_SRV_SHUTDOWN_FINAL_DEINIT" hfile="ShutdownSrvGprot.h"/>

</APP>
