# 1 "temp/res/vapp_shell_msg_viewer.c"
# 1 "<built-in>"
# 1 "<command line>"
# 1 "temp/res/vapp_shell_msg_viewer.c"
# 1 "../../mmi/inc/MMI_features.h" 1
# 69 "../../mmi/inc/MMI_features.h"
# 1 "../../mmi/inc/MMI_features_switch.h" 1
# 67 "../../mmi/inc/MMI_features_switch.h"
# 1 "../../mmi/inc/MMI_features_type.h" 1
# 68 "../../mmi/inc/MMI_features_switch.h" 2
# 70 "../../mmi/inc/MMI_features.h" 2
# 2 "temp/res/vapp_shell_msg_viewer.c" 2
# 1 "../customerinc/custresdef.h" 1
# 195 "../customerinc/custresdef.h"
# 1 "../../mmi/inc/MMI_features.h" 1
# 196 "../customerinc/custresdef.h" 2
# 3 "temp/res/vapp_shell_msg_viewer.c" 2

<?xml version="1.0" encoding="UTF-8"?>

<APP id="APP_VENUS_SHELL_MSG_VIEWER">
# 43 "temp/res/vapp_shell_msg_viewer.c"
</APP>
