# 1 "temp/res/ViewSetting.c"
# 1 "<built-in>"
# 1 "<command line>"
# 1 "temp/res/ViewSetting.c"
# 74 "temp/res/ViewSetting.c"
# 1 "../../mmi/inc/MMI_features.h" 1
# 69 "../../mmi/inc/MMI_features.h"
# 1 "../../mmi/inc/MMI_features_switch.h" 1
# 67 "../../mmi/inc/MMI_features_switch.h"
# 1 "../../mmi/inc/MMI_features_type.h" 1
# 68 "../../mmi/inc/MMI_features_switch.h" 2
# 70 "../../mmi/inc/MMI_features.h" 2
# 75 "temp/res/ViewSetting.c" 2
# 1 "../customerinc/CustResDef.h" 1
# 195 "../customerinc/CustResDef.h"
# 1 "../../mmi/inc/MMI_features.h" 1
# 196 "../customerinc/CustResDef.h" 2
# 76 "temp/res/ViewSetting.c" 2

<?xml version = "1.0" encoding = "UTF-8"?>

<APP id = "APP_VIEWSETTING">

    <!-- string ---------------------------------------------------------------------------------->

    <!-- image ------------------------------------------------------------------------------------>

    <!-- screen ----------------------------------------------------------------------------------->
    <SCREEN id = "SCR_ID_VIEW_SETTING_COMMON_FILE_PREVIEW"/>
    <SCREEN id = "SCR_ID_VIEW_SETTING_COMMON_WAITING_POPUP"/>

    <!-- screen group id -------------------------------------------------------------------------->
    <SCREEN id = "GRP_ID_VIEW_SETTING_COMMON_FMGR"/>
    <SCREEN id = "GRP_ID_VIEW_SETTING_FILE_COMMON_PREVIEW"/>


    <!-- menu ------------------------------------------------------------------------------------->

    <RECEIVER id="EVT_ID_SRV_FMGR_NOTIFICATION_DEV_PLUG_OUT" proc="mmi_phnset_view_setting_common_dev_plug_out_hdlr"/>







</APP>
