# 1 "temp/res/WorldClock.c"
# 1 "<built-in>"
# 1 "<command line>"
# 1 "temp/res/WorldClock.c"
# 55 "temp/res/WorldClock.c"
# 1 "../../mmi/inc/mmi_features.h" 1
# 69 "../../mmi/inc/mmi_features.h"
# 1 "../../mmi/inc/MMI_features_switch.h" 1
# 67 "../../mmi/inc/MMI_features_switch.h"
# 1 "../../mmi/inc/MMI_features_type.h" 1
# 68 "../../mmi/inc/MMI_features_switch.h" 2
# 70 "../../mmi/inc/mmi_features.h" 2
# 56 "temp/res/WorldClock.c" 2
# 1 "../customerinc/custresdef.h" 1
# 195 "../customerinc/custresdef.h"
# 1 "../../mmi/inc/MMI_features.h" 1
# 196 "../customerinc/custresdef.h" 2
# 57 "temp/res/WorldClock.c" 2

<?xml version="1.0" encoding="UTF-8"?>

<APP id="APP_WORLDCLOCK"
# 69 "temp/res/WorldClock.c"
    >
    <CACHEDATA type="byte" id="CURRENT_CITY" restore_flag="TRUE">
        <DEFAULT_VALUE> [0X07] </DEFAULT_VALUE>
        <DESCRIPTION> Current home city </DESCRIPTION>
    </CACHEDATA>

    <CACHEDATA type="byte" id="FOREIGN_CITY" restore_flag="TRUE">
        <DEFAULT_VALUE> [0X00] </DEFAULT_VALUE>
        <DESCRIPTION> Current foreign city </DESCRIPTION>
    </CACHEDATA>

     <CACHEDATA type="byte" id="NVRAM_SETTING_DT_DST" restore_flag="TRUE">
        <DEFAULT_VALUE> [0x00] </DEFAULT_VALUE>
        <DESCRIPTION> Current home city daylight saving </DESCRIPTION>
        <FIELD>
           <OPTION hint="OFF"> [0x00] </OPTION>
               <OPTION hint="ON"> [0x01] </OPTION>
            </FIELD>
    </CACHEDATA>

    <CACHEDATA type="short" id="NVRAM_TIMEZONE" restore_flag="TRUE">
        <DEFAULT_VALUE> [0xFF, 0xFF] </DEFAULT_VALUE>
        <DESCRIPTION> Current time zone value </DESCRIPTION>
    </CACHEDATA>

    <CACHEDATA type="byte" id="NVRAM_WC_DST" restore_flag="TRUE">
        <DEFAULT_VALUE> [0xFF] </DEFAULT_VALUE>
        <DESCRIPTION> Current foreign city daylight saving </DESCRIPTION>
    </CACHEDATA>

    <CACHEDATA type="short" id="NVRAM_FRN_TIMEZONE" restore_flag="TRUE">
        <DEFAULT_VALUE> [0xFF, 0xFF] </DEFAULT_VALUE>
        <DESCRIPTION> current foreign city time zone </DESCRIPTION>
    </CACHEDATA>

    <CACHEDATA type="byte" id="NVRAM_DOWNLOAD_CITY1" restore_flag="TRUE">
        <DEFAULT_VALUE> [0X01] </DEFAULT_VALUE>
        <DESCRIPTION> sub lcd city 1 </DESCRIPTION>
    </CACHEDATA>

    <CACHEDATA type="byte" id="NVRAM_DOWNLOAD_CITY2" restore_flag="TRUE">
        <DEFAULT_VALUE> [0X00] </DEFAULT_VALUE>
        <DESCRIPTION> sub lcd city 2 </DESCRIPTION>
    </CACHEDATA>
    <!--Include Area-->

    <INCLUDE file="GlobalMenuItems.h"/>
    <INCLUDE file = "mmi_rp_app_mainmenu_def.h"/>
    <!-----------------------------------------------------String Resource Area----------------------------------------------------->

    <STRING id="STR_WCLOCK_CITY_NONE"/>
    <STRING id="STR_WCLOCK_CITY1"/>
    <STRING id="STR_WCLOCK_CITY2"/>
    <STRING id="STR_WCLOCK_CITY3"/>
    <STRING id="STR_WCLOCK_CITY4"/>
    <STRING id="STR_WCLOCK_CITY5"/>
    <STRING id="STR_WCLOCK_CITY6"/>
    <STRING id="STR_WCLOCK_CITY7"/>
    <STRING id="STR_WCLOCK_CITY8"/>
    <STRING id="STR_WCLOCK_CITY9"/>
    <STRING id="STR_WCLOCK_CITY10"/>
    <STRING id="STR_WCLOCK_CITY11"/>
    <STRING id="STR_WCLOCK_CITY12"/>
    <STRING id="STR_WCLOCK_CITY13"/>
    <STRING id="STR_WCLOCK_CITY14"/>
    <STRING id="STR_WCLOCK_CITY15"/>
    <STRING id="STR_WCLOCK_CITY16"/>
    <STRING id="STR_WCLOCK_CITY17"/>
    <STRING id="STR_WCLOCK_CITY18"/>
    <STRING id="STR_WCLOCK_CITY19"/>
    <STRING id="STR_WCLOCK_CITY20"/>
    <STRING id="STR_WCLOCK_CITY21"/>
    <STRING id="STR_WCLOCK_CITY22"/>
    <STRING id="STR_WCLOCK_CITY23"/>
    <STRING id="STR_WCLOCK_CITY24"/>
    <STRING id="STR_WCLOCK_CITY25"/>
    <STRING id="STR_WCLOCK_CITY26"/>
    <STRING id="STR_WCLOCK_CITY27"/>
    <STRING id="STR_WCLOCK_CITY28"/>
    <STRING id="STR_WCLOCK_CITY29"/>
    <STRING id="STR_WCLOCK_CITY30"/>
    <STRING id="STR_WCLOCK_CITY31"/>
    <STRING id="STR_WCLOCK_CITY32"/>
    <STRING id="STR_WCLOCK_CITY33"/>
    <STRING id="STR_WCLOCK_CITY34"/>
    <STRING id="STR_WCLOCK_CITY35"/>
    <STRING id="STR_WCLOCK_CITY36"/>
    <STRING id="STR_WCLOCK_CITY37"/>
    <STRING id="STR_WCLOCK_CITY38"/>
    <STRING id="STR_WCLOCK_CITY39"/>
    <STRING id="STR_WCLOCK_CITY40"/>
    <STRING id="STR_WCLOCK_CITY41"/>
    <STRING id="STR_WCLOCK_CITY42"/>
    <STRING id="STR_WCLOCK_CITY43"/>
    <STRING id="STR_WCLOCK_CITY44"/>
    <STRING id="STR_WCLOCK_CITY45"/>
    <STRING id="STR_WCLOCK_CITY46"/>
    <STRING id="STR_WCLOCK_CITY47"/>
    <STRING id="STR_WCLOCK_CITY48"/>
    <STRING id="STR_WCLOCK_CITY49"/>
    <STRING id="STR_WCLOCK_CITY50"/>
    <STRING id="STR_WCLOCK_CITY51"/>
    <STRING id="STR_WCLOCK_CITY52"/>
    <STRING id="STR_WCLOCK_CITY53"/>
    <STRING id="STR_WCLOCK_CITY54"/>
    <STRING id="STR_WCLOCK_CITY55"/>
    <STRING id="STR_WCLOCK_CITY56"/>
    <STRING id="STR_WCLOCK_CITY57"/>
    <STRING id="STR_WCLOCK_CITY58"/>
    <STRING id="STR_WCLOCK_CITY59"/>
    <STRING id="STR_WCLOCK_CITY60"/>
    <STRING id="STR_WCLOCK_CITY61"/>
    <STRING id="STR_WCLOCK_CITY62"/>
    <STRING id="STR_WCLOCK_CITY63"/>
    <STRING id="STR_WCLOCK_CITY64"/>
    <STRING id="STR_WCLOCK_CITY65"/>
    <STRING id="STR_WCLOCK_CITY66"/>
    <STRING id="STR_WCLOCK_CITY67"/>
    <STRING id="STR_WCLOCK_CITY68"/>
    <STRING id="STR_WCLOCK_CITY69"/>
    <STRING id="STR_WCLOCK_CITY70"/>
    <STRING id="STR_WCLOCK_CITY71"/>
    <STRING id="STR_WCLOCK_CITY72"/>
    <STRING id="STR_WCLOCK_CITY73"/>
    <STRING id="STR_WCLOCK_CITY74"/>
    <STRING id="STR_WCLOCK_CITY75"/>
    <STRING id="STR_WCLOCK_CITY76"/>
    <STRING id="STR_WCLOCK_CITY77"/>
    <STRING id="STR_WCLOCK_CITY78"/>
    <STRING id="STR_TOTAL_NUM_CITY"/>
    <STRING id="STR_WCLOCK_CITY_ABBRE_NONE"/>
    <STRING id="STR_WCLOCK_CITY_ABBRE1"/>
    <STRING id="STR_WCLOCK_CITY_ABBRE1"/>
    <STRING id="STR_WCLOCK_CITY_ABBRE2"/>
    <STRING id="STR_WCLOCK_CITY_ABBRE3"/>
    <STRING id="STR_WCLOCK_CITY_ABBRE4"/>
    <STRING id="STR_WCLOCK_CITY_ABBRE5"/>
    <STRING id="STR_WCLOCK_CITY_ABBRE6"/>
    <STRING id="STR_WCLOCK_CITY_ABBRE7"/>
    <STRING id="STR_WCLOCK_CITY_ABBRE8"/>
    <STRING id="STR_WCLOCK_CITY_ABBRE9"/>
    <STRING id="STR_WCLOCK_CITY_ABBRE10"/>
    <STRING id="STR_WCLOCK_CITY_ABBRE11"/>
    <STRING id="STR_WCLOCK_CITY_ABBRE12"/>
    <STRING id="STR_WCLOCK_CITY_ABBRE13"/>
    <STRING id="STR_WCLOCK_CITY_ABBRE14"/>
    <STRING id="STR_WCLOCK_CITY_ABBRE15"/>
    <STRING id="STR_WCLOCK_CITY_ABBRE16"/>
    <STRING id="STR_WCLOCK_CITY_ABBRE17"/>
    <STRING id="STR_WCLOCK_CITY_ABBRE18"/>
    <STRING id="STR_WCLOCK_CITY_ABBRE19"/>
    <STRING id="STR_WCLOCK_CITY_ABBRE20"/>
    <STRING id="STR_WCLOCK_CITY_ABBRE21"/>
    <STRING id="STR_WCLOCK_CITY_ABBRE22"/>
    <STRING id="STR_WCLOCK_CITY_ABBRE23"/>
    <STRING id="STR_WCLOCK_CITY_ABBRE24"/>
    <STRING id="STR_WCLOCK_CITY_ABBRE25"/>
    <STRING id="STR_WCLOCK_CITY_ABBRE26"/>
    <STRING id="STR_WCLOCK_CITY_ABBRE27"/>
    <STRING id="STR_WCLOCK_CITY_ABBRE28"/>
    <STRING id="STR_WCLOCK_CITY_ABBRE29"/>
    <STRING id="STR_WCLOCK_CITY_ABBRE30"/>
    <STRING id="STR_WCLOCK_CITY_ABBRE31"/>
    <STRING id="STR_WCLOCK_CITY_ABBRE32"/>
    <STRING id="STR_WCLOCK_CITY_ABBRE33"/>
    <STRING id="STR_WCLOCK_CITY_ABBRE34"/>
    <STRING id="STR_WCLOCK_CITY_ABBRE35"/>
    <STRING id="STR_WCLOCK_CITY_ABBRE36"/>
    <STRING id="STR_WCLOCK_CITY_ABBRE37"/>
    <STRING id="STR_WCLOCK_CITY_ABBRE38"/>
    <STRING id="STR_WCLOCK_CITY_ABBRE39"/>
    <STRING id="STR_WCLOCK_CITY_ABBRE40"/>
    <STRING id="STR_WCLOCK_CITY_ABBRE41"/>
    <STRING id="STR_WCLOCK_CITY_ABBRE42"/>
    <STRING id="STR_WCLOCK_CITY_ABBRE43"/>
    <STRING id="STR_WCLOCK_CITY_ABBRE44"/>
    <STRING id="STR_WCLOCK_CITY_ABBRE45"/>
    <STRING id="STR_WCLOCK_CITY_ABBRE46"/>
    <STRING id="STR_WCLOCK_CITY_ABBRE47"/>
    <STRING id="STR_WCLOCK_CITY_ABBRE48"/>
    <STRING id="STR_WCLOCK_CITY_ABBRE49"/>
    <STRING id="STR_WCLOCK_CITY_ABBRE50"/>
    <STRING id="STR_WCLOCK_CITY_ABBRE51"/>
    <STRING id="STR_WCLOCK_CITY_ABBRE52"/>
    <STRING id="STR_WCLOCK_CITY_ABBRE53"/>
    <STRING id="STR_WCLOCK_CITY_ABBRE54"/>
    <STRING id="STR_WCLOCK_CITY_ABBRE55"/>
    <STRING id="STR_WCLOCK_CITY_ABBRE56"/>
    <STRING id="STR_WCLOCK_CITY_ABBRE57"/>
    <STRING id="STR_WCLOCK_CITY_ABBRE58"/>
    <STRING id="STR_WCLOCK_CITY_ABBRE59"/>
    <STRING id="STR_WCLOCK_CITY_ABBRE60"/>
    <STRING id="STR_WCLOCK_CITY_ABBRE61"/>
    <STRING id="STR_WCLOCK_CITY_ABBRE62"/>
    <STRING id="STR_WCLOCK_CITY_ABBRE63"/>
    <STRING id="STR_WCLOCK_CITY_ABBRE64"/>
    <STRING id="STR_WCLOCK_CITY_ABBRE65"/>
    <STRING id="STR_WCLOCK_CITY_ABBRE66"/>
    <STRING id="STR_WCLOCK_CITY_ABBRE67"/>
    <STRING id="STR_WCLOCK_CITY_ABBRE68"/>
    <STRING id="STR_WCLOCK_CITY_ABBRE69"/>
    <STRING id="STR_WCLOCK_CITY_ABBRE70"/>
    <STRING id="STR_WCLOCK_CITY_ABBRE71"/>
    <STRING id="STR_WCLOCK_CITY_ABBRE72"/>
    <STRING id="STR_WCLOCK_CITY_ABBRE73"/>
    <STRING id="STR_WCLOCK_CITY_ABBRE74"/>
    <STRING id="STR_WCLOCK_CITY_ABBRE75"/>
    <STRING id="STR_WCLOCK_CITY_ABBRE76"/>
    <STRING id="STR_WCLOCK_CITY_ABBRE77"/>
    <STRING id="STR_WCLOCK_CITY_ABBRE78"/>
# 302 "temp/res/WorldClock.c"
    <!-----------------------------------------------------Image Resource Area------------------------------------------------------>
# 386 "temp/res/WorldClock.c"
</APP>
