#include "MMI_features.h"
#include "custresdef.h"

<?xml version="1.0" encoding="UTF-8"?>

<APP id="APP_VENUS_NOTEPAPER">

#ifdef __MMI_VUI_SHELL_MSG_VIEWER__

#define SHELL_ROOT_PATH         CUST_IMG_PATH"\\\\MainLCD\\\\VUI\\\\Shell\\\\"
#define NOTEPAPER_PATH          SHELL_ROOT_PATH"MsgViewer\\\\"

    <!--Include Area-->

    <!-----------------------------------------------------String Resource Area----------------------------------------------------->

    <!-----------------------------------------------------Image Resource Area------------------------------------------------------>
    <IMAGE id = "IMG_ID_NOTEPAPER_PAGE_BASE">          NOTEPAPER_PATH"NextPage\\\\NextPage00.png"  </IMAGE>
    <IMAGE id = "IMG_ID_NOTEPAPER_PAGE_BOTTOM">        NOTEPAPER_PATH"NextPage\\\\NextPage01.png"  </IMAGE>
    <IMAGE id = "IMG_ID_NOTEPAPER_PAGE_FLIP_1">        NOTEPAPER_PATH"NextPage\\\\NextPage02.png"  </IMAGE>
    <IMAGE id = "IMG_ID_NOTEPAPER_PAGE_FLIP_2">        NOTEPAPER_PATH"NextPage\\\\NextPage03.png"  </IMAGE>
    <IMAGE id = "IMG_ID_NOTEPAPER_PAGE_FLIP_3">        NOTEPAPER_PATH"NextPage\\\\NextPage04.png"  </IMAGE>
    <IMAGE id = "IMG_ID_NOTEPAPER_PAGE_FLIP_4">        NOTEPAPER_PATH"NextPage\\\\NextPage05.png"  </IMAGE>
    <IMAGE id = "IMG_ID_NOTEPAPER_PAGE_FLIP_5">        NOTEPAPER_PATH"NextPage\\\\NextPage06.png"  </IMAGE>
    <IMAGE id = "IMG_ID_NOTEPAPER_PAGE_FLIP_6">        NOTEPAPER_PATH"NextPage\\\\NextPage07.png"  </IMAGE>
    <IMAGE id = "IMG_ID_NOTEPAPER_PAGE_FLIP_7">        NOTEPAPER_PATH"NextPage\\\\NextPage08.png"  </IMAGE>
    <IMAGE id = "IMG_ID_NOTEPAPER_PAGE_FLIP_8">        NOTEPAPER_PATH"NextPage\\\\NextPage09.png"  </IMAGE>
    <IMAGE id = "IMG_ID_NOTEPAPER_PAGE_SCROLL">        NOTEPAPER_PATH"NextPage\\\\NextPage10.png"  </IMAGE>

    <!------------------------------------------------------Menu Resource Area------------------------------------------------------>

    <!------------------------------------------------------Other Resource---------------------------------------------------------->
#endif

</APP>

