
      Code    RO Data    RW Data    ZI Data      Debug   Object Name
      1162          0          0          0        684   abm_api.obj
      4618          0          0          0       1256   abm_app_fsm.obj
      1844          0          0          0        800   abm_bearer_fsm.obj
         2          0          0          0         52   abm_common_api.obj
         0          0          0          0          0   abm_csd_msg.obj
      3020         56          0          0        816   abm_ext_msg.obj
      1876          0          0          0        824   abm_gprs_msg.obj
       388         24          0       1336        300   abm_main.obj
         0          0          0          0          0   abm_timer.obj
      5560          0          0          0       3732   abm_util.obj
         0          0          0          0          0   abm_wifi_msg.obj
      2756          0          0          0       2288   cbm_api.obj
         0          0          0          0          0   cbm_ut.obj
     21226         80          0       1336      10752   TOTAL

