
      Code    RO Data    RW Data    ZI Data      Debug   Object Name
      1436         25          0          1       1732   ddload.obj
         0      10026          0          0          0   dll_6261_AAC.obj
         0        256          0          0          0   dll_6261_Audio_DM_REMAP.obj
         0       5085          0          0          0   dll_6261_Audio_Header.obj
         0        219          0          0          0   dll_6261_Header_Kernal.obj
         0        412          0          0          0   dll_6261_I2S.obj
         0      14387          0          0          0   dll_6261_TCH.obj
         0       3741          0          0          0   dll_6261_TCH_1.obj
         0       2479          0          0          0   dll_6261_TCH_2.obj
         0       1062          0          0          0   dll_DM_6261_AAC_SEG3.obj
         0       3365          0          0          0   dll_PM_6261_AAC.obj
         0       2803          0          0          0   dll_PM_6261_AECS.obj
         0         99          0          0          0   dll_PM_6261_VSG.obj
        18          0          0          0        112   dsp_init.obj
       160        594          0          0        256   dsp_ptch_6261.obj
       612          0         11         38        528   idma.obj
      2226      44553         11         39       2628   TOTAL

