
      Code    RO Data    RW Data    ZI Data      Debug   Object Name
        16          0          0          0        312   BookmarkCui.obj
         4          0          0          0         52   EmailAppAPI.obj
        20          0          0          0        364   TOTAL

