
      Code    RO Data    RW Data    ZI Data      Debug   Object Name
       368         44          0         12        484   rsva_create.obj
      1022        224          0         36       1144   rsvas_fsm.obj
       408          0          0          0        436   rsvas_utils.obj
       180          0          0          0        308   sm_statemachine_lite.obj
      1978        268          0         48       2372   TOTAL

