
      Code    RO Data    RW Data    ZI Data      Debug   Object Name
       384          0          0          0        212   csi_asn_decode.obj
       368          0          0          0        204   csi_asn_encode.obj
      1804          0          0         20       1472   scsi.obj
      2556          0          0         20       1888   TOTAL

