

#include "mmi_features.h"

#ifdef __MMI_AUDPLY_WALK_PLAY__
<?xml version="1.0" encoding="UTF-8"?>

<APP id="SRV_PL_CACHE">

    <TIMER id="SRV_PL_CACHE_TIMER"/>
    
    <EVENT id="EVT_ID_PLC_WORK_FINISH" type="SENDER"/> 
</APP>
#endif  //__MMI_AUDPLY_WALK_PLAY__
