/*Needed header files of the compile option in XML files */
#include "mmi_features.h"

#ifdef __MMI_UI_DIALER_PAD__

#include "CustResDef.h"

#define IMG_TYPE ".png"

<?xml version = "1.0" encoding = "UTF-8"?>

<APP id="APP_UIFRAMEWORK">
	<INCLUDE file="GlobalResDef.h"/>
    <!--------------------------------------------------------------------------------------------------------------------->
    <!--String Resource Area-->
    <STRING id="STR_DIALER_PAD_LONG_PRESS_TO_DIAL"/>
    <!--End String Resource Area-->
    <!--------------------------------------------------------------------------------------------------------------------->


    <!--------------------------------------------------------------------------------------------------------------------->
    <!--Image Resource Area-->
    <IMAGE id="IMG_ID_DIALER_PAD_0">CUST_IMG_PATH"\\\\MainLCD\\\\Picker\\\\Dialer_pad\\\\Dial_0"IMG_TYPE</IMAGE>
    <IMAGE id="IMG_ID_DIALER_PAD_1">CUST_IMG_PATH"\\\\MainLCD\\\\Picker\\\\Dialer_pad\\\\Dial_1"IMG_TYPE</IMAGE>
    <IMAGE id="IMG_ID_DIALER_PAD_2">CUST_IMG_PATH"\\\\MainLCD\\\\Picker\\\\Dialer_pad\\\\Dial_2"IMG_TYPE</IMAGE>
    <IMAGE id="IMG_ID_DIALER_PAD_3">CUST_IMG_PATH"\\\\MainLCD\\\\Picker\\\\Dialer_pad\\\\Dial_3"IMG_TYPE</IMAGE>
    <IMAGE id="IMG_ID_DIALER_PAD_4">CUST_IMG_PATH"\\\\MainLCD\\\\Picker\\\\Dialer_pad\\\\Dial_4"IMG_TYPE</IMAGE>
    <IMAGE id="IMG_ID_DIALER_PAD_5">CUST_IMG_PATH"\\\\MainLCD\\\\Picker\\\\Dialer_pad\\\\Dial_5"IMG_TYPE</IMAGE>
    <IMAGE id="IMG_ID_DIALER_PAD_6">CUST_IMG_PATH"\\\\MainLCD\\\\Picker\\\\Dialer_pad\\\\Dial_6"IMG_TYPE</IMAGE>
    <IMAGE id="IMG_ID_DIALER_PAD_7">CUST_IMG_PATH"\\\\MainLCD\\\\Picker\\\\Dialer_pad\\\\Dial_7"IMG_TYPE</IMAGE>
    <IMAGE id="IMG_ID_DIALER_PAD_8">CUST_IMG_PATH"\\\\MainLCD\\\\Picker\\\\Dialer_pad\\\\Dial_8"IMG_TYPE</IMAGE>
    <IMAGE id="IMG_ID_DIALER_PAD_9">CUST_IMG_PATH"\\\\MainLCD\\\\Picker\\\\Dialer_pad\\\\Dial_9"IMG_TYPE</IMAGE>
    <IMAGE id="IMG_ID_DIALER_PAD_10">CUST_IMG_PATH"\\\\MainLCD\\\\Picker\\\\Dialer_pad\\\\Dial_10"IMG_TYPE</IMAGE>
    <IMAGE id="IMG_ID_DIALER_PAD_11">CUST_IMG_PATH"\\\\MainLCD\\\\Picker\\\\Dialer_pad\\\\Dial_star"IMG_TYPE</IMAGE>
    <IMAGE id="IMG_ID_DIALER_PAD_12">CUST_IMG_PATH"\\\\MainLCD\\\\Picker\\\\Dialer_pad\\\\Dial_12"IMG_TYPE</IMAGE>
    <IMAGE id="IMG_ID_DIALER_PAD_13">CUST_IMG_PATH"\\\\MainLCD\\\\Picker\\\\Dialer_pad\\\\Dial_P"IMG_TYPE</IMAGE>
    <IMAGE id="IMG_ID_DIALER_PAD_14">CUST_IMG_PATH"\\\\MainLCD\\\\Picker\\\\Dialer_pad\\\\Dial_w"IMG_TYPE</IMAGE>
    
    <IMAGE id="IMG_ID_DIALER_PAD_SEL_0">CUST_IMG_PATH"\\\\MainLCD\\\\Picker\\\\Dialer_pad\\\\Dial_0_sel"IMG_TYPE</IMAGE>
    <IMAGE id="IMG_ID_DIALER_PAD_SEL_1">CUST_IMG_PATH"\\\\MainLCD\\\\Picker\\\\Dialer_pad\\\\Dial_1_sel"IMG_TYPE</IMAGE>
    <IMAGE id="IMG_ID_DIALER_PAD_SEL_2">CUST_IMG_PATH"\\\\MainLCD\\\\Picker\\\\Dialer_pad\\\\Dial_2_sel"IMG_TYPE</IMAGE>
    <IMAGE id="IMG_ID_DIALER_PAD_SEL_3">CUST_IMG_PATH"\\\\MainLCD\\\\Picker\\\\Dialer_pad\\\\Dial_3_sel"IMG_TYPE</IMAGE>
    <IMAGE id="IMG_ID_DIALER_PAD_SEL_4">CUST_IMG_PATH"\\\\MainLCD\\\\Picker\\\\Dialer_pad\\\\Dial_4_sel"IMG_TYPE</IMAGE>
    <IMAGE id="IMG_ID_DIALER_PAD_SEL_5">CUST_IMG_PATH"\\\\MainLCD\\\\Picker\\\\Dialer_pad\\\\Dial_5_sel"IMG_TYPE</IMAGE>
    <IMAGE id="IMG_ID_DIALER_PAD_SEL_6">CUST_IMG_PATH"\\\\MainLCD\\\\Picker\\\\Dialer_pad\\\\Dial_6_sel"IMG_TYPE</IMAGE>
    <IMAGE id="IMG_ID_DIALER_PAD_SEL_7">CUST_IMG_PATH"\\\\MainLCD\\\\Picker\\\\Dialer_pad\\\\Dial_7_sel"IMG_TYPE</IMAGE>
    <IMAGE id="IMG_ID_DIALER_PAD_SEL_8">CUST_IMG_PATH"\\\\MainLCD\\\\Picker\\\\Dialer_pad\\\\Dial_8_sel"IMG_TYPE</IMAGE>
    <IMAGE id="IMG_ID_DIALER_PAD_SEL_9">CUST_IMG_PATH"\\\\MainLCD\\\\Picker\\\\Dialer_pad\\\\Dial_9_sel"IMG_TYPE</IMAGE>
    <IMAGE id="IMG_ID_DIALER_PAD_SEL_10">CUST_IMG_PATH"\\\\MainLCD\\\\Picker\\\\Dialer_pad\\\\Dial_10_sel"IMG_TYPE</IMAGE>
    <IMAGE id="IMG_ID_DIALER_PAD_SEL_11">CUST_IMG_PATH"\\\\MainLCD\\\\Picker\\\\Dialer_pad\\\\Dial_star_sel"IMG_TYPE</IMAGE>
    <IMAGE id="IMG_ID_DIALER_PAD_SEL_12">CUST_IMG_PATH"\\\\MainLCD\\\\Picker\\\\Dialer_pad\\\\Dial_12_sel"IMG_TYPE</IMAGE>
    <IMAGE id="IMG_ID_DIALER_PAD_SEL_13">CUST_IMG_PATH"\\\\MainLCD\\\\Picker\\\\Dialer_pad\\\\Dial_P_sel"IMG_TYPE</IMAGE>
    <IMAGE id="IMG_ID_DIALER_PAD_SEL_14">CUST_IMG_PATH"\\\\MainLCD\\\\Picker\\\\Dialer_pad\\\\Dial_w_sel"IMG_TYPE</IMAGE>
    
    <IMAGE id="IMG_ID_DIALER_PAD_BG">CUST_IMG_PATH"\\\\MainLCD\\\\Picker\\\\Dialer_pad\\\\Dial_BG.9slice"IMG_TYPE</IMAGE>
    <IMAGE id="IMG_ID_DIALER_PAD_0">CUST_IMG_PATH"\\\\MainLCD\\\\DialerPad\\\\0"IMG_TYPE</IMAGE> 
    <IMAGE id="IMG_ID_DIALER_PAD_1">CUST_IMG_PATH"\\\\MainLCD\\\\DialerPad\\\\1"IMG_TYPE</IMAGE>
    <IMAGE id="IMG_ID_DIALER_PAD_2">CUST_IMG_PATH"\\\\MainLCD\\\\DialerPad\\\\2"IMG_TYPE</IMAGE>
    <IMAGE id="IMG_ID_DIALER_PAD_3">CUST_IMG_PATH"\\\\MainLCD\\\\DialerPad\\\\3"IMG_TYPE</IMAGE>
    <IMAGE id="IMG_ID_DIALER_PAD_4">CUST_IMG_PATH"\\\\MainLCD\\\\DialerPad\\\\4"IMG_TYPE</IMAGE>
    <IMAGE id="IMG_ID_DIALER_PAD_5">CUST_IMG_PATH"\\\\MainLCD\\\\DialerPad\\\\5"IMG_TYPE</IMAGE>
    <IMAGE id="IMG_ID_DIALER_PAD_6">CUST_IMG_PATH"\\\\MainLCD\\\\DialerPad\\\\6"IMG_TYPE</IMAGE>
    <IMAGE id="IMG_ID_DIALER_PAD_7">CUST_IMG_PATH"\\\\MainLCD\\\\DialerPad\\\\7"IMG_TYPE</IMAGE>
    <IMAGE id="IMG_ID_DIALER_PAD_8">CUST_IMG_PATH"\\\\MainLCD\\\\DialerPad\\\\8"IMG_TYPE</IMAGE>
    <IMAGE id="IMG_ID_DIALER_PAD_9">CUST_IMG_PATH"\\\\MainLCD\\\\DialerPad\\\\9"IMG_TYPE</IMAGE>
    <IMAGE id="IMG_ID_DIALER_PAD_STAR">CUST_IMG_PATH"\\\\MainLCD\\\\DialerPad\\\\star"IMG_TYPE</IMAGE>
    <IMAGE id="IMG_ID_DIALER_PAD_HASH">CUST_IMG_PATH"\\\\MainLCD\\\\DialerPad\\\\hash"IMG_TYPE</IMAGE>
    <IMAGE id="IMG_ID_DIALER_PAD_PLUS">CUST_IMG_PATH"\\\\MainLCD\\\\DialerPad\\\\+"IMG_TYPE</IMAGE>
    <IMAGE id="IMG_ID_DIALER_PAD_P">CUST_IMG_PATH"\\\\MainLCD\\\\DialerPad\\\\p"IMG_TYPE</IMAGE>
    <IMAGE id="IMG_ID_DIALER_PAD_W">CUST_IMG_PATH"\\\\MainLCD\\\\DialerPad\\\\w"IMG_TYPE</IMAGE>
    
    <IMAGE id="IMG_ID_DIALER_PAD_0_DOWN">CUST_IMG_PATH"\\\\MainLCD\\\\DialerPad\\\\0_down"IMG_TYPE</IMAGE>
    <IMAGE id="IMG_ID_DIALER_PAD_1_DOWN">CUST_IMG_PATH"\\\\MainLCD\\\\DialerPad\\\\1_down"IMG_TYPE</IMAGE>
    <IMAGE id="IMG_ID_DIALER_PAD_2_DOWN">CUST_IMG_PATH"\\\\MainLCD\\\\DialerPad\\\\2_down"IMG_TYPE</IMAGE>
    <IMAGE id="IMG_ID_DIALER_PAD_3_DOWN">CUST_IMG_PATH"\\\\MainLCD\\\\DialerPad\\\\3_down"IMG_TYPE</IMAGE>
    <IMAGE id="IMG_ID_DIALER_PAD_4_DOWN">CUST_IMG_PATH"\\\\MainLCD\\\\DialerPad\\\\4_down"IMG_TYPE</IMAGE>
    <IMAGE id="IMG_ID_DIALER_PAD_5_DOWN">CUST_IMG_PATH"\\\\MainLCD\\\\DialerPad\\\\5_down"IMG_TYPE</IMAGE>
    <IMAGE id="IMG_ID_DIALER_PAD_6_DOWN">CUST_IMG_PATH"\\\\MainLCD\\\\DialerPad\\\\6_down"IMG_TYPE</IMAGE> 
    <IMAGE id="IMG_ID_DIALER_PAD_7_DOWN">CUST_IMG_PATH"\\\\MainLCD\\\\DialerPad\\\\7_down"IMG_TYPE</IMAGE>
    <IMAGE id="IMG_ID_DIALER_PAD_8_DOWN">CUST_IMG_PATH"\\\\MainLCD\\\\DialerPad\\\\8_down"IMG_TYPE</IMAGE>
    <IMAGE id="IMG_ID_DIALER_PAD_9_DOWN">CUST_IMG_PATH"\\\\MainLCD\\\\DialerPad\\\\9_down"IMG_TYPE</IMAGE>
    <IMAGE id="IMG_ID_DIALER_PAD_STAR_DOWN">CUST_IMG_PATH"\\\\MainLCD\\\\DialerPad\\\\star_down"IMG_TYPE</IMAGE>
    <IMAGE id="IMG_ID_DIALER_PAD_HASH_DOWN">CUST_IMG_PATH"\\\\MainLCD\\\\DialerPad\\\\hash_down"IMG_TYPE</IMAGE>
    <IMAGE id="IMG_ID_DIALER_PAD_PLUS_DOWN">CUST_IMG_PATH"\\\\MainLCD\\\\DialerPad\\\\+_down"IMG_TYPE</IMAGE>
    <IMAGE id="IMG_ID_DIALER_PAD_P_DOWN">CUST_IMG_PATH"\\\\MainLCD\\\\DialerPad\\\\p_down"IMG_TYPE</IMAGE>
    <IMAGE id="IMG_ID_DIALER_PAD_W_DOWN">CUST_IMG_PATH"\\\\MainLCD\\\\DialerPad\\\\w_down"IMG_TYPE</IMAGE>
    
    <IMAGE id="IMG_ID_DIALER_PAD_BTN">CUST_IMG_PATH"\\\\MainLCD\\\\DialerPad\\\\btn"IMG_TYPE</IMAGE>
    <IMAGE id="IMG_ID_DIALER_PAD_BTN_DOWN">CUST_IMG_PATH"\\\\MainLCD\\\\DialerPad\\\\btn_down"IMG_TYPE</IMAGE>
    
    <IMAGE id="IMG_ID_DIALER_PAD_NUM_BG">CUST_IMG_PATH"\\\\MainLCD\\\\DialerPad\\\\num_bg"IMG_TYPE</IMAGE>
    <IMAGE id="IMG_ID_DIALER_PAD_NUM_DOWN_BG">CUST_IMG_PATH"\\\\MainLCD\\\\DialerPad\\\\num_down_bg"IMG_TYPE</IMAGE>
    
    <IMAGE id="IMG_ID_DIALER_PAD_POP_BG">CUST_IMG_PATH"\\\\MainLCD\\\\DialerPad\\\\VK_POP\\\\bg.9slice"IMG_TYPE</IMAGE>
    <IMAGE id="IMG_ID_DIALER_PAD_POP_BUTTON_NORMAL">CUST_IMG_PATH"\\\\MainLCD\\\\DialerPad\\\\VK_POP\\\\button.9slice"IMG_TYPE</IMAGE>
    <IMAGE id="IMG_ID_DIALER_PAD_POP_BUTTON_HIGH">CUST_IMG_PATH"\\\\MainLCD\\\\DialerPad\\\\VK_POP\\\\button_highlight.9slice"IMG_TYPE</IMAGE>
    <IMAGE id="IMG_ID_DIALER_PAD_POP_LARGER_HIGH">CUST_IMG_PATH"\\\\MainLCD\\\\DialerPad\\\\VK_POP\\\\button_highlight1.9slice"IMG_TYPE</IMAGE>
    <IMAGE id="IMG_ID_DIALER_PAD_POP_NUMBEM">CUST_IMG_PATH"\\\\MainLCD\\\\DialerPad\\\\VK_POP\\\\numberM"IMG_TYPE</IMAGE>
    <IMAGE id="IMG_ID_DIALER_PAD_POP_NUMBER_0">CUST_IMG_PATH"\\\\MainLCD\\\\DialerPad\\\\VK_POP\\\\number0"IMG_TYPE</IMAGE>
    <IMAGE id="IMG_ID_DIALER_PAD_POP_NUMBER_1">CUST_IMG_PATH"\\\\MainLCD\\\\DialerPad\\\\VK_POP\\\\number1"IMG_TYPE</IMAGE>
    <IMAGE id="IMG_ID_DIALER_PAD_POP_NUMBER_2">CUST_IMG_PATH"\\\\MainLCD\\\\DialerPad\\\\VK_POP\\\\number2"IMG_TYPE</IMAGE>
    <IMAGE id="IMG_ID_DIALER_PAD_POP_NUMBER_3">CUST_IMG_PATH"\\\\MainLCD\\\\DialerPad\\\\VK_POP\\\\number3"IMG_TYPE</IMAGE>
    <IMAGE id="IMG_ID_DIALER_PAD_POP_NUMBER_4">CUST_IMG_PATH"\\\\MainLCD\\\\DialerPad\\\\VK_POP\\\\number4"IMG_TYPE</IMAGE>
    <IMAGE id="IMG_ID_DIALER_PAD_POP_NUMBER_5">CUST_IMG_PATH"\\\\MainLCD\\\\DialerPad\\\\VK_POP\\\\number5"IMG_TYPE</IMAGE>
    <IMAGE id="IMG_ID_DIALER_PAD_POP_NUMBER_6">CUST_IMG_PATH"\\\\MainLCD\\\\DialerPad\\\\VK_POP\\\\number6"IMG_TYPE</IMAGE>
    <IMAGE id="IMG_ID_DIALER_PAD_POP_NUMBER_7">CUST_IMG_PATH"\\\\MainLCD\\\\DialerPad\\\\VK_POP\\\\number7"IMG_TYPE</IMAGE>
    <IMAGE id="IMG_ID_DIALER_PAD_POP_NUMBER_8">CUST_IMG_PATH"\\\\MainLCD\\\\DialerPad\\\\VK_POP\\\\number8"IMG_TYPE</IMAGE>
    <IMAGE id="IMG_ID_DIALER_PAD_POP_NUMBER_9">CUST_IMG_PATH"\\\\MainLCD\\\\DialerPad\\\\VK_POP\\\\number9"IMG_TYPE</IMAGE>
    <IMAGE id="IMG_ID_DIALER_PAD_POP_NUMBER_H">CUST_IMG_PATH"\\\\MainLCD\\\\DialerPad\\\\VK_POP\\\\number#"IMG_TYPE</IMAGE>
    <IMAGE id="IMG_ID_DIALER_PAD_POP_NUMBER_C">CUST_IMG_PATH"\\\\MainLCD\\\\DialerPad\\\\VK_POP\\\\numberC"IMG_TYPE</IMAGE>
    <IMAGE id="IMG_ID_DIALER_PAD_POP_NUMBER_P">CUST_IMG_PATH"\\\\MainLCD\\\\DialerPad\\\\VK_POP\\\\numberP"IMG_TYPE</IMAGE>
    <IMAGE id="IMG_ID_DIALER_PAD_POP_NUMBER_PLUS">CUST_IMG_PATH"\\\\MainLCD\\\\DialerPad\\\\VK_POP\\\\numberPlus"IMG_TYPE</IMAGE>
    <IMAGE id="IMG_ID_DIALER_PAD_POP_NUMBER_W">CUST_IMG_PATH"\\\\MainLCD\\\\DialerPad\\\\VK_POP\\\\numberW"IMG_TYPE</IMAGE>
    <IMAGE id="IMG_ID_DIALER_PAD_POP_H_NUMBER_0">CUST_IMG_PATH"\\\\MainLCD\\\\DialerPad\\\\VK_POP\\\\number0_H"IMG_TYPE</IMAGE>
    <IMAGE id="IMG_ID_DIALER_PAD_POP_H_NUMBER_1">CUST_IMG_PATH"\\\\MainLCD\\\\DialerPad\\\\VK_POP\\\\number1_H"IMG_TYPE</IMAGE>
    <IMAGE id="IMG_ID_DIALER_PAD_POP_H_NUMBER_2">CUST_IMG_PATH"\\\\MainLCD\\\\DialerPad\\\\VK_POP\\\\number2_H"IMG_TYPE</IMAGE>
    <IMAGE id="IMG_ID_DIALER_PAD_POP_H_NUMBER_3">CUST_IMG_PATH"\\\\MainLCD\\\\DialerPad\\\\VK_POP\\\\number3_H"IMG_TYPE</IMAGE>
    <IMAGE id="IMG_ID_DIALER_PAD_POP_H_NUMBER_4">CUST_IMG_PATH"\\\\MainLCD\\\\DialerPad\\\\VK_POP\\\\number4_H"IMG_TYPE</IMAGE>
    <IMAGE id="IMG_ID_DIALER_PAD_POP_H_NUMBER_5">CUST_IMG_PATH"\\\\MainLCD\\\\DialerPad\\\\VK_POP\\\\number5_H"IMG_TYPE</IMAGE>
    <IMAGE id="IMG_ID_DIALER_PAD_POP_H_NUMBER_6">CUST_IMG_PATH"\\\\MainLCD\\\\DialerPad\\\\VK_POP\\\\number6_H"IMG_TYPE</IMAGE>
    <IMAGE id="IMG_ID_DIALER_PAD_POP_H_NUMBER_7">CUST_IMG_PATH"\\\\MainLCD\\\\DialerPad\\\\VK_POP\\\\number7_H"IMG_TYPE</IMAGE>
    <IMAGE id="IMG_ID_DIALER_PAD_POP_H_NUMBER_8">CUST_IMG_PATH"\\\\MainLCD\\\\DialerPad\\\\VK_POP\\\\number8_H"IMG_TYPE</IMAGE>
    <IMAGE id="IMG_ID_DIALER_PAD_POP_H_NUMBER_9">CUST_IMG_PATH"\\\\MainLCD\\\\DialerPad\\\\VK_POP\\\\number9_H"IMG_TYPE</IMAGE>
    <IMAGE id="IMG_ID_DIALER_PAD_POP_H_NUMBER_H">CUST_IMG_PATH"\\\\MainLCD\\\\DialerPad\\\\VK_POP\\\\number#_H"IMG_TYPE</IMAGE>
    <IMAGE id="IMG_ID_DIALER_PAD_POP_H_NUMBEM">CUST_IMG_PATH"\\\\MainLCD\\\\DialerPad\\\\VK_POP\\\\numberM_H"IMG_TYPE</IMAGE>
    <IMAGE id="IMG_ID_DIALER_PAD_POP_H_NUMBER_P">CUST_IMG_PATH"\\\\MainLCD\\\\DialerPad\\\\VK_POP\\\\numberP_H"IMG_TYPE</IMAGE>
    <IMAGE id="IMG_ID_DIALER_PAD_POP_H_NUMBER_PLUS">CUST_IMG_PATH"\\\\MainLCD\\\\DialerPad\\\\VK_POP\\\\numberPlus_H"IMG_TYPE</IMAGE>
    <IMAGE id="IMG_ID_DIALER_PAD_POP_H_NUMBER_W">CUST_IMG_PATH"\\\\MainLCD\\\\DialerPad\\\\VK_POP\\\\numberW_H"IMG_TYPE</IMAGE>    
    <!--End Image Resource Area-->
    <!--------------------------------------------------------------------------------------------------------------------->

	
    <!--------------------------------------------------------------------------------------------------------------------->
    <!--Menu Item Area-->
    <!--End Menu Item Area-->
    <!--------------------------------------------------------------------------------------------------------------------->
    

    <!--------------------------------------------------------------------------------------------------------------------->
	<!--Menu Tree Area-->
	<!--End Menu Tree Area-->
    <!--------------------------------------------------------------------------------------------------------------------->


    <!--------------------------------------------------------------------------------------------------------------------->
    <!--Screen ID Area-->
    <!--End Screen ID Area-->
	<!--------------------------------------------------------------------------------------------------------------------->

    
	<!--------------------------------------------------------------------------------------------------------------------->
	<!--Receiving Evt ID -->
	<!--End Receiving Evt ID -->
	<!--------------------------------------------------------------------------------------------------------------------->

    
	<!--------------------------------------------------------------------------------------------------------------------->
	<!--Sending Evt ID -->
	<!--End Sending Evt ID -->
	<!--------------------------------------------------------------------------------------------------------------------->
	
	
	<!--------------------------------------------------------------------------------------------------------------------->
	<!--NVRAM LID -->
	<!--End NVRAM LID -->
	<!--------------------------------------------------------------------------------------------------------------------->
</APP>

#endif  //__MMI_UI_DIALER_PAD__
