#include "mmi_features.h"
#include "custresdef.h"


<?xml version="1.0" encoding="UTF-8"?>
<APP id="APP_VENUS_HOMESCREEN_WG_CALENDAR">
#if defined(__MMI_VUI_HOMESCREEN_CALENDAR__)
    <!-----------------------------------------------------String Resource Area----------------------------------------------------->
    <STRING id="VAPP_HS_STR_WG_CALENDAR"/>


    <!-----------------------------------------------------Image Resource Area------------------------------------------------------>
    #define ROOT_PATH       CUST_IMG_PATH"\\\\MainLCD\\\\VUI\\\\HomeScreen\\\\"
    #define WIDGET_PATH     ROOT_PATH"Widget\\\\"
    #define CALENDAR_WIDGET_PATH WIDGET_PATH"Calendar\\\\"

    <IMAGE id="VAPP_HS_IMG_WG_ICON_CALENDAR">WIDGET_PATH"Widgeticon_Calendar.png"</IMAGE>
    <IMAGE id="VAPP_HS_IMG_WG_ICON_CALENDAR_BG">CALENDAR_WIDGET_PATH"Widgeticon_BG.png"</IMAGE>
    <IMAGE id="VAPP_HS_IMG_WG_ICON_CALENDAR_D0">CALENDAR_WIDGET_PATH"Widgeticon_0.png"</IMAGE>
    <IMAGE id="VAPP_HS_IMG_WG_ICON_CALENDAR_D1">CALENDAR_WIDGET_PATH"Widgeticon_1.png"</IMAGE>
    <IMAGE id="VAPP_HS_IMG_WG_ICON_CALENDAR_D2">CALENDAR_WIDGET_PATH"Widgeticon_2.png"</IMAGE>
    <IMAGE id="VAPP_HS_IMG_WG_ICON_CALENDAR_D3">CALENDAR_WIDGET_PATH"Widgeticon_3.png"</IMAGE>
    <IMAGE id="VAPP_HS_IMG_WG_ICON_CALENDAR_D4">CALENDAR_WIDGET_PATH"Widgeticon_4.png"</IMAGE>
    <IMAGE id="VAPP_HS_IMG_WG_ICON_CALENDAR_D5">CALENDAR_WIDGET_PATH"Widgeticon_5.png"</IMAGE>
    <IMAGE id="VAPP_HS_IMG_WG_ICON_CALENDAR_D6">CALENDAR_WIDGET_PATH"Widgeticon_6.png"</IMAGE>
    <IMAGE id="VAPP_HS_IMG_WG_ICON_CALENDAR_D7">CALENDAR_WIDGET_PATH"Widgeticon_7.png"</IMAGE>
    <IMAGE id="VAPP_HS_IMG_WG_ICON_CALENDAR_D8">CALENDAR_WIDGET_PATH"Widgeticon_8.png"</IMAGE>
    <IMAGE id="VAPP_HS_IMG_WG_ICON_CALENDAR_D9">CALENDAR_WIDGET_PATH"Widgeticon_9.png"</IMAGE>
    <IMAGE id="VAPP_HS_IMG_WG_ICON_CALENDAR_PREV_BUTTON_UP">CALENDAR_WIDGET_PATH"Calendar_Arrow_Left.png"</IMAGE>
    <IMAGE id="VAPP_HS_IMG_WG_ICON_CALENDAR_PREV_BUTTON_DOWN">CALENDAR_WIDGET_PATH"Calendar_Arrow_Left_Down.png"</IMAGE>
    <IMAGE id="VAPP_HS_IMG_WG_ICON_CALENDAR_NEXT_BUTTON_UP">CALENDAR_WIDGET_PATH"Calendar_Arrow_Right_Up.png"</IMAGE>
    <IMAGE id="VAPP_HS_IMG_WG_ICON_CALENDAR_NEXT_BUTTON_DOWN">CALENDAR_WIDGET_PATH"Calendar_Arrow_Right_Down.png"</IMAGE>

#endif

</APP>

