plutommi\Service\AlarmSrv\AlarmSrv.c
plutommi\Service\AppMgrSrv\AppMgrSrv.c
plutommi\Service\BootupSrv\BootupSrv.c
plutommi\Service\BootupSrv\BootupSrvCancelVeri.c
plutommi\Service\BootupSrv\BootupSrvProtocol.c
plutommi\Service\BootupSrv\BootupSrvSecurity.c
plutommi\Service\BtAudioSrv\BtAudioSrv.c
plutommi\Service\CallLogSrv\CallLogSrvAtCmd.c
plutommi\Service\CallLogSrv\CallLogSrvComp.c
plutommi\Service\CallLogSrv\CallLogSrvIdxTbl.c
plutommi\Service\CallLogSrv\CallLogSrvIf.c
plutommi\Service\CallLogSrv\CallLogSrvMain.c
plutommi\Service\CallLogSrv\CallLogSrvPhbSync.c
plutommi\Service\CallLogSrv\CallLogSrvPsAdp.c
plutommi\Service\CallLogSrv\CallLogSrvSiTbl.c
plutommi\Service\CallLogSrv\CallLogSrvStore.c
plutommi\Service\CallLogSrv\CallLogSrvUtils.c
plutommi\Service\CallSetSrv\BgSoundSrvUtils.c
plutommi\Service\CallSetSrv\CallSetSrvInterface.c
plutommi\Service\CallSetSrv\CallSetSrvStructMgmt.c
plutommi\Service\CallSetSrv\CallSetSrvUtil.c
plutommi\Service\CbmSrv\CbmSrvInterface.c
plutommi\Service\CbmSrv\CbmSrvMain.c
plutommi\Service\CbmSrv\CbmSrvMsgHdlr.c
plutommi\Service\CbmSrv\CbmSrvWlanPrefer.c
plutommi\Service\CharBatSrv\CharBatSrv.c
plutommi\Service\CnmgrSrv\CnmgrSrvMain.c
plutommi\Service\CphsSrv\CphsSrv.c
plutommi\Service\DataLockSrv\DataLockSrv.c
plutommi\Service\DevProfileSrv\DevProfileSrv.c
plutommi\Service\DmSRsrv\DmSelfRegister.c
plutommi\Service\EbrSrv\EbrSrv.c
plutommi\Service\EbrSrv\ebookframework.c
plutommi\Service\EonsSrv\EonsSrvMain.c
plutommi\Service\FileMgrSrv\FileMgrSrvAsyncFS.c
plutommi\Service\FileMgrSrv\FileMgrSrvCommon.c
plutommi\Service\FileMgrSrv\FileMgrSrvFileInfo.c
plutommi\Service\FileMgrSrv\FileMgrSrvFileList.c
plutommi\Service\FileMgrSrv\FileMgrSrvFolderFL.c
plutommi\Service\FileMgrSrv\FileMgrSrvNotification.c
plutommi\Service\FileMgrSrv\FileMgrSrvPath.c
plutommi\Service\FileMgrSrv\FileMgrSrvStorage.c
plutommi\Service\FileMgrSrv\FileMgrSrvTest.cpp
plutommi\Service\FileMgrSrv\FileMgrSrvTestItems.cpp
plutommi\Service\FileMgrSrv\FileMgrSrvTypes.c
plutommi\Service\ImeiSrv\ImeiSrv.c
plutommi\Service\InetSrv\InetSrvMain.c
plutommi\Service\InetSrv\InetSrvRecv.c
plutommi\Service\InetSrv\InetSrvSend.c
plutommi\Service\InetSrv\InetSrvUtil.c
plutommi\Service\MASSrv\MASSrv.c
plutommi\Service\MREAppMgrSrv\MREAppMgrSrv.c
plutommi\Service\MREPushSrv\MREPushSrv.c
plutommi\Service\MREPushSrv\MREPushUISrv.c
plutommi\Service\MRESrv\MRESrv.c
plutommi\Service\MRESrv\MRESrvDownload.c
plutommi\Service\ModeSwitchSrv\ModeSwitchSrv.c
plutommi\Service\NativeAppFactorySrv\NativeAppFactorySrv.c
plutommi\Service\NetSetSrv\NetSetSrv.c
plutommi\Service\NetSetSrv\NetSetSrvMsgQueue.c
plutommi\Service\NetSetSrv\plmnname.c
plutommi\Service\NotificationSettingSrv\NotificationSettingSrv.c
plutommi\Service\NotificationSettingSrv\NotificationSettingSrvTbl.c
plutommi\Service\NwInfoSrv\NwInfoSrv.c
plutommi\Service\NwInfoSrv\NwInfoSrvAttach.c
plutommi\Service\NwInfoSrv\NwInfoSrvSignal.c
plutommi\Service\NwNameSrv\NwNameSrvCphs.c
plutommi\Service\NwNameSrv\NwNameSrvMain.c
plutommi\Service\NwNameSrv\NwNameSrvSpdi.c
plutommi\Service\NwUsabSrv\NwUsabSrv.c
plutommi\Service\PhbSrv\PhbAtSrv.c
plutommi\Service\PhbSrv\PhbCloudSrv.c
plutommi\Service\PhbSrv\PhbContactSrv.c
plutommi\Service\PhbSrv\PhbDmgrSrv.c
plutommi\Service\PhbSrv\PhbGroupSrv.c
plutommi\Service\PhbSrv\PhbJavaHandlerSrv.c
plutommi\Service\PhbSrv\PhbMemSrv.c
plutommi\Service\PhbSrv\PhbOPSrv.c
plutommi\Service\PhbSrv\PhbOplibSrv.c
plutommi\Service\PhbSrv\PhbPBAPSrv.c
plutommi\Service\PhbSrv\PhbPhoneSrv.c
plutommi\Service\PhbSrv\PhbSdkSrv.c
plutommi\Service\PhbSrv\PhbSettingSrv.c
plutommi\Service\PhbSrv\PhbSimSrv.c
plutommi\Service\PhbSrv\PhbSrv.c
plutommi\Service\PhbSrv\PhbSseSrv.c
plutommi\Service\PhbSrv\PhbStartupSrv.c
plutommi\Service\PhbSrv\PhbTcardSrv.c
plutommi\Service\PhbSrv\PhbUtilSrv.c
plutommi\Service\PhbSrv\PhbXmgntSrv.c
plutommi\Service\PhbSrv\datamgr.c
plutommi\Service\ProfilesSrv\ProfilesSrvMain.c
plutommi\Service\ProvisioningSrv\ProvisioningSrvMain.c
plutommi\Service\ReminderSrv\ReminderSrv.c
plutommi\Service\ReminderSrv\ReminderSrvQueue.c
plutommi\Service\ReminderSrv\ReminderSrvUtil.c
plutommi\Service\RightsMgr\RightsMgrSrv.c
plutommi\Service\SafeModeSrv\SafeModeSrv.c
plutommi\Service\SatSrv\SatCommandSrv.c
plutommi\Service\SatSrv\SatIconSrv.c
plutommi\Service\SatSrv\SatSrv.c
plutommi\Service\SecSetSrv\SecSetSrvPhone.c
plutommi\Service\SensorSrv\SensorSrv.c
plutommi\Service\SettingSrv\GeneralSettingSrv.c
plutommi\Service\SettingSrv\PenCalibrationSrv.c
plutommi\Service\SettingSrv\RestoreSrv.c
plutommi\Service\ShutdownSrv\ShutdownSrv.c
plutommi\Service\SimAccessSrv\SimAccessSrv.c
plutommi\Service\SimCtrlSrv\SimCtrlSrv.c
plutommi\Service\SimCtrlSrv\SimCtrlSrvAdp.c
plutommi\Service\SimCtrlSrv\SimCtrlSrvVeri.c
plutommi\Service\SmsSrv\CBSMainSrv.c
plutommi\Service\SmsSrv\CBSSettingSrv.c
plutommi\Service\SmsSrv\CBSStorageSrv.c
plutommi\Service\SmsSrv\SmsAtHandlerSrv.c
plutommi\Service\SmsSrv\SmsBackupRestoreSrv.c
plutommi\Service\SmsSrv\SmsConverterSrv.c
plutommi\Service\SmsSrv\SmsDispatchSrv.c
plutommi\Service\SmsSrv\SmsEmsSrv.c
plutommi\Service\SmsSrv\SmsFolderListSrv.c
plutommi\Service\SmsSrv\SmsInitSrv.c
plutommi\Service\SmsSrv\SmsQueueSrv.c
plutommi\Service\SmsSrv\SmsReceiverSrv.c
plutommi\Service\SmsSrv\SmsSenderSrv.c
plutommi\Service\SmsSrv\SmsSendfromStorageSrv.c
plutommi\Service\SmsSrv\SmsSettingSrv.c
plutommi\Service\SmsSrv\SmsStatusReportSrv.c
plutommi\Service\SmsSrv\SmsStorageCoreSrv.c
plutommi\Service\SmsSrv\SmsStorageInterfaceSrv.c
plutommi\Service\SmsSrv\SmsStorageMsgSrv.c
plutommi\Service\SmsSrv\SmsStorageTcardSrv.c
plutommi\Service\SmsSrv\SmsUtilSrv.c
plutommi\Service\SoundEffectSrv\SoundEffectSrv.c
plutommi\Service\SoundRecSrv\SoundRecSrv.c
plutommi\Service\SsSrv\SsSrvInterface.c
plutommi\Service\SsSrv\SsSrvOperation.c
plutommi\Service\SsSrv\SsSrvStructMgmt.c
plutommi\Service\SsSrv\SsSrvUtil.c
plutommi\Service\TcardSrv\TcardMainsrv.c
plutommi\Service\TcardSrv\TcardUtilSrv.c
plutommi\Service\TcardSrv\Tcard_config.c
plutommi\Service\TetheringSrv\TetheringSrvApi.c
plutommi\Service\TodoSrv\TodolistSrv.c
plutommi\Service\UcmSrv\UcmSrvAtHdlr.c
plutommi\Service\UcmSrv\UcmSrvIntInterface.c
plutommi\Service\UcmSrv\UcmSrvInterface.c
plutommi\Service\UcmSrv\UcmSrvMain.c
plutommi\Service\UcmSrv\UcmSrvPrmt.c
plutommi\Service\UcmSrv\UcmSrvUtil.c
plutommi\Service\UmSrv\UmSrvCacheMgr.c
plutommi\Service\UmSrv\UmSrvInterface.c
plutommi\Service\UmSrv\UmSrvMain.c
plutommi\Service\UmSrv\UmSrvMsgHandler.c
plutommi\Service\UpgradeSrv\UpgradeSrvMain.c
plutommi\Service\UpgradeSrv\UpgradeSrvUtil.c
plutommi\Service\UriAgentSrv\UriAgentSrv.c
plutommi\Service\UriAgentSrv\UriAgentSrvUtil.c
plutommi\Service\UsbSrv\usbsrv.c
plutommi\Service\gpioSrv\Gpiosrv.c
plutommi\Service\gpioSrv\gpioBacklightSrv.c
plutommi\Service\gpioSrv\gpiospeechsrv.c
plutommi\Service\gpioSrv\gpiosrvsetting.c
plutommi\Service\vCalSrv\vCalSrv.c
plutommi\service\CertmanSrv\certManAgentSrv.c
plutommi\service\Dtcntsrv\DtcntSrvApi.c
plutommi\service\Dtcntsrv\DtcntSrvDb.c
plutommi\service\Dtcntsrv\DtcntSrvMain.c
plutommi\service\MediaCacheSrv\MediaCacheDaemon.c
plutommi\service\gsm3gcallsrv\GCallSrvCmEvent.c
plutommi\service\gsm3gcallsrv\GCallSrvCmInterface.c
plutommi\service\gsm3gcallsrv\GCallSrvPsEvent.c
plutommi\service\gsm3gcallsrv\GCallSrvPsInterface.c
plutommi\service\gsm3gcallsrv\GCallSrvStructMgmt.c
plutommi\service\gsm3gcallsrv\GCallSrvUtil.c
plutommi\service\mdi\mdisrc\mdi_agps.c
plutommi\service\mdi\mdisrc\mdi_audio.c
plutommi\service\mdi\mdisrc\mdi_bitstream.c
plutommi\service\mdi\mdisrc\mdi_camera.c
plutommi\service\mdi\mdisrc\mdi_common.c
plutommi\service\mdi\mdisrc\mdi_gps.c
plutommi\service\mdi\mdisrc\mdi_mtv.c
plutommi\service\mdi\mdisrc\mdi_swflash.c
plutommi\service\mdi\mdisrc\mdi_video.c
plutommi\service\mdi\mdisrc\mdi_video_clip.c
plutommi\service\mdi\mdisrc\mdi_video_rec.c
