plutommi\CUI\FSEditorCui\FSEditorCui.c
plutommi\CUI\InlineCui\InlineCui.c
plutommi\CUI\MenuCui\MenuCui.c
plutommi\Framework\CSBrowser\csbrowsersrc\catscreenbrowser.c
plutommi\Framework\CSBrowser\csbrowsersrc\csbentryhandlers.c
plutommi\Framework\CSBrowser\csbrowsersrc\csbframework.c
plutommi\Framework\CallbackManager\mmi_cb_mgr.c
plutommi\Framework\Charset\Gsm7BitNationalLang.c
plutommi\Framework\Charset\ascii.c
plutommi\Framework\Charset\gsm7bitdefaultalphabet.c
plutommi\Framework\Charset\ucs2.c
plutommi\Framework\CommonFiles\commonsrc\mmi_frm_utility.c
plutommi\Framework\CommonScreens\CommonScreensSrc\AlertScreen.c
plutommi\Framework\CommonScreens\commonscreenssrc\appmem.c
plutommi\Framework\CommonScreens\commonscreenssrc\commonscreens.c
plutommi\Framework\DCM\mmi_ap_dcm.c
plutommi\Framework\DebugLevels\debuglevelsrc\debuginit.c
plutommi\Framework\EventHandling\EventsSrc\AT_utility.c
plutommi\Framework\EventHandling\EventsSrc\inputs.c
plutommi\Framework\EventHandling\EventsSrc\mmi_frm_key_routing.c
plutommi\Framework\EventHandling\eventssrc\event_handler.c
plutommi\Framework\EventHandling\eventssrc\events.c
plutommi\Framework\EventHandling\eventssrc\key_tone.c
plutommi\Framework\EventHandling\eventssrc\keybrd.c
plutommi\Framework\EventHandling\eventssrc\mmitimer.c
plutommi\Framework\Fontengine\SubtitleFont.c
plutommi\Framework\Fontengine\lang_interface.c
plutommi\Framework\Fontengine\pixcomfontengine.c
plutommi\Framework\GUI\OEM_SRC\gui_font_oem.c
plutommi\Framework\GUI\OEM_SRC\gui_scrollbars_oem.c
plutommi\Framework\GUI\OEM_SRC\gui_title_oem.c
plutommi\Framework\GUI\OEM_SRC\wgui_hint_oem.c
plutommi\Framework\GUI\OEM_SRC\wgui_softkey_oem.c
plutommi\Framework\GUI\gui_src\gui.c
plutommi\Framework\GUI\gui_src\gui_asyncdynamic_menus.c
plutommi\Framework\GUI\gui_src\gui_buttons.c
plutommi\Framework\GUI\gui_src\gui_bytestream.c
plutommi\Framework\GUI\gui_src\gui_calendar.c
plutommi\Framework\GUI\gui_src\gui_clock.c
plutommi\Framework\GUI\gui_src\gui_color_slider.c
plutommi\Framework\GUI\gui_src\gui_custom_menus.c
plutommi\Framework\GUI\gui_src\gui_dynamic_menus.c
plutommi\Framework\GUI\gui_src\gui_ems.c
plutommi\Framework\GUI\gui_src\gui_ems_inputs.c
plutommi\Framework\GUI\gui_src\gui_fixed_menuitems.c
plutommi\Framework\GUI\gui_src\gui_fixed_menus.c
plutommi\Framework\GUI\gui_src\gui_font_size.c
plutommi\Framework\GUI\gui_src\gui_hardware_dependent.c
plutommi\Framework\GUI\gui_src\gui_horizontal_selector.c
plutommi\Framework\GUI\gui_src\gui_icon_bar.c
plutommi\Framework\GUI\gui_src\gui_image.c
plutommi\Framework\GUI\gui_src\gui_inputs.c
plutommi\Framework\GUI\gui_src\gui_inputs_cache.c
plutommi\Framework\GUI\gui_src\gui_menu_shortcut.c
plutommi\Framework\GUI\gui_src\gui_multi_line_inputs.c
plutommi\Framework\GUI\gui_src\gui_panel.c
plutommi\Framework\GUI\gui_src\gui_progress_bar.c
plutommi\Framework\GUI\gui_src\gui_scrollbars.c
plutommi\Framework\GUI\gui_src\gui_single_line_inputs.c
plutommi\Framework\GUI\gui_src\gui_slide_bar.c
plutommi\Framework\GUI\gui_src\gui_spectrum.c
plutommi\Framework\GUI\gui_src\gui_status_icon.c
plutommi\Framework\GUI\gui_src\gui_status_icon_bar.c
plutommi\Framework\GUI\gui_src\gui_tab_bars.c
plutommi\Framework\GUI\gui_src\gui_text_frame.c
plutommi\Framework\GUI\gui_src\gui_text_label.c
plutommi\Framework\GUI\gui_src\gui_themes.c
plutommi\Framework\GUI\gui_src\gui_title.c
plutommi\Framework\GUI\gui_src\gui_touch_feedback.c
plutommi\Framework\GUI\gui_src\gui_video.c
plutommi\Framework\GUI\gui_src\gui_virtual_keyboard.c
plutommi\Framework\GUI\gui_src\gui_wcss_inputs.c
plutommi\Framework\GUI\gui_src\gui_windows.c
plutommi\Framework\GUI\gui_src\wgui.c
plutommi\Framework\GUI\gui_src\wgui_asyncdynamic_menuitems.c
plutommi\Framework\GUI\gui_src\wgui_asyncdynamic_menus.c
plutommi\Framework\GUI\gui_src\wgui_calendar.c
plutommi\Framework\GUI\gui_src\wgui_categories.c
plutommi\Framework\GUI\gui_src\wgui_categories_calendar.c
plutommi\Framework\GUI\gui_src\wgui_categories_clock.c
plutommi\Framework\GUI\gui_src\wgui_categories_cm.c
plutommi\Framework\GUI\gui_src\wgui_categories_common.c
plutommi\Framework\GUI\gui_src\wgui_categories_compatible.c
plutommi\Framework\GUI\gui_src\wgui_categories_email.c
plutommi\Framework\GUI\gui_src\wgui_categories_ems.c
plutommi\Framework\GUI\gui_src\wgui_categories_fmgr.c
plutommi\Framework\GUI\gui_src\wgui_categories_idlescreen.c
plutommi\Framework\GUI\gui_src\wgui_categories_inputs.c
plutommi\Framework\GUI\gui_src\wgui_categories_list.c
plutommi\Framework\GUI\gui_src\wgui_categories_memory.c
plutommi\Framework\GUI\gui_src\wgui_categories_mm.c
plutommi\Framework\GUI\gui_src\wgui_categories_multimedia.c
plutommi\Framework\GUI\gui_src\wgui_categories_notification.c
plutommi\Framework\GUI\gui_src\wgui_categories_panel.c
plutommi\Framework\GUI\gui_src\wgui_categories_pe.c
plutommi\Framework\GUI\gui_src\wgui_categories_popup.c
plutommi\Framework\GUI\gui_src\wgui_categories_search.c
plutommi\Framework\GUI\gui_src\wgui_categories_sim.c
plutommi\Framework\GUI\gui_src\wgui_categories_sublcd.c
plutommi\Framework\GUI\gui_src\wgui_categories_tab.c
plutommi\Framework\GUI\gui_src\wgui_categories_text_viewer.c
plutommi\Framework\GUI\gui_src\wgui_categories_uce.c
plutommi\Framework\GUI\gui_src\wgui_categories_util.c
plutommi\Framework\GUI\gui_src\wgui_clock.c
plutommi\Framework\GUI\gui_src\wgui_datetime.c
plutommi\Framework\GUI\gui_src\wgui_draw_manager.c
plutommi\Framework\GUI\gui_src\wgui_dynamic_menuitems.c
plutommi\Framework\GUI\gui_src\wgui_dynamic_menus.c
plutommi\Framework\GUI\gui_src\wgui_editor.c
plutommi\Framework\GUI\gui_src\wgui_ems.c
plutommi\Framework\GUI\gui_src\wgui_fixed_menuitems.c
plutommi\Framework\GUI\gui_src\wgui_fixed_menus.c
plutommi\Framework\GUI\gui_src\wgui_icon_bar.c
plutommi\Framework\GUI\gui_src\wgui_image.c
plutommi\Framework\GUI\gui_src\wgui_inline_edit.c
plutommi\Framework\GUI\gui_src\wgui_inputs.c
plutommi\Framework\GUI\gui_src\wgui_inputs_dialer.c
plutommi\Framework\GUI\gui_src\wgui_inputs_multiline.c
plutommi\Framework\GUI\gui_src\wgui_inputs_singleline.c
plutommi\Framework\GUI\gui_src\wgui_panel.c
plutommi\Framework\GUI\gui_src\wgui_progress_bar.c
plutommi\Framework\GUI\gui_src\wgui_slide_bar.c
plutommi\Framework\GUI\gui_src\wgui_softkeys.c
plutommi\Framework\GUI\gui_src\wgui_status_icon_bar.c
plutommi\Framework\GUI\gui_src\wgui_tab_bars.c
plutommi\Framework\GUI\gui_src\wgui_text_label.c
plutommi\Framework\GUI\gui_src\wgui_title.c
plutommi\Framework\GUI\gui_src\wgui_touch_screen.c
plutommi\Framework\GUI\gui_src\wgui_tree.c
plutommi\Framework\GUI\gui_src\wgui_video.c
plutommi\Framework\GUI\gui_src\wgui_virtual_keyboard.c
plutommi\Framework\GUI\gui_src\wingui.c
plutommi\Framework\GUI\oem_src\gui_effect_oem.c
plutommi\Framework\GUI\oem_src\gui_main_menu_oem.c
plutommi\Framework\GUI\oem_src\gui_menu_oem.c
plutommi\Framework\GUI\oem_src\gui_sse_oem.c
plutommi\Framework\GUI\oem_src\gui_status_icon_bar_oem.c
plutommi\Framework\GUI\oem_src\gui_tab_bars_oem.c
plutommi\Framework\GUI\oem_src\gui_touch_feedback_oem.c
plutommi\Framework\History\historysrc\history.c
plutommi\Framework\History\historysrc\sublcdhistory.c
plutommi\Framework\InputMethod\Engine\Engine_Src\Imc.c
plutommi\Framework\InputMethod\Engine\Engine_Src\Imc_key.c
plutommi\Framework\InputMethod\Engine\Engine_Src\Imc_pen.c
plutommi\Framework\InputMethod\Engine\Engine_Src\Imm.c
plutommi\Framework\InputMethod\Engine\Engine_Src\Imm_qwerty.c
plutommi\Framework\InputMethod\UI\UI_Src\Imui.c
plutommi\Framework\LangModule\LangModuleSrc\CommonLang.c
plutommi\Framework\LangModule\LangModuleSrc\LangModule.c
plutommi\Framework\LangModule\LangModuleSrc\thai.c
plutommi\Framework\Launcher\mmi_frm_app_launcher.c
plutommi\Framework\MSLT\msltsrc\mslt.c
plutommi\Framework\MTE\mtesrc\mte.c
plutommi\Framework\MemManager\memmanagersrc\AppMemMgrCore.c
plutommi\Framework\MemManager\memmanagersrc\AppMemMgrUT.c
plutommi\Framework\MemManager\memmanagersrc\appmemmgr.c
plutommi\Framework\MemManager\memmanagersrc\fix_size_mem.c
plutommi\Framework\MemManager\memmanagersrc\mmi_clipboard.c
plutommi\Framework\MemManager\memmanagersrc\mmi_frm_cache.c
plutommi\Framework\MemManager\memmanagersrc\mmimemmonitor.c
plutommi\Framework\MemManager\memmanagersrc\scrmemmgr.c
plutommi\Framework\NVRAMManager\nvrammanagersrc\nvraminterface.c
plutommi\Framework\Notification\NotificationSrc\Notification.c
plutommi\Framework\Procedure\Procedure.c
plutommi\Framework\Profiling\profilingengine.c
plutommi\Framework\Scenario\Scenario.c
plutommi\Framework\Scenario\mmi_frm_scenario_llist.c
plutommi\Framework\Screenrotation\SensorRotation.c
plutommi\Framework\Screenrotation\screenrotation.c
plutommi\Framework\Tasks\TasksSrc\mmi_frm_remutex.c
plutommi\Framework\Tasks\taskssrc\event_flag.c
plutommi\Framework\Tasks\taskssrc\mmitask.c
plutommi\Framework\Tasks\taskssrc\queue.c
plutommi\Framework\Tasks\taskssrc\taskinit.c
plutommi\Framework\ThemeManager\thememanagersrc\themeconverterui.c
plutommi\Framework\ThemeManager\thememanagersrc\themeconverterxml.c
plutommi\Framework\ThemeManager\thememanagersrc\thememanager.c
plutommi\customer\custresource\custnfbprogressimg.c
plutommi\mmi\miscframework\miscframeworksrc\LangErrorHandle.c
plutommi\mmi\miscframework\miscframeworksrc\bootupapp.c
plutommi\mmi\miscframework\miscframeworksrc\mempoolcontainer.c
plutommi\mmi\miscframework\miscframeworksrc\pwroncharger.c
plutommi\mmi\miscframework\miscframeworksrc\simdetection.c
plutommi\mmi\miscframework\miscframeworksrc\smlmenu.c
plutommi\mmi\setting\settingsrc\preferedinputmethodsetting.c
plutommi\mtkapp\mmiapi\src\mmiapi_main.c
plutommi\mtkapp\mmiapi\src\mmiapi_sms.c
plutommi\mtkapp\mmiapi\src\mmiapi_sms_msg.c
plutommi\mtkapp\mmiapi\src\mmiapi_wap.c
plutommi\mtkapp\mtkappsrc\ctk.c
vendor\inputmethod\mtk\mtkmultitap.c
